InterVox_Transmitter/test_run_dir/interVox_Encoder_should_pass/interVox_Encoder.vcd
$date
2022-10-26T08:44+0000
$end
$version
0.2
$end
$comment

$end
$timescale 1ns  $end
$scope module interVox_Encoder $end
 $var wire 1 % io_BCLK_O $end
 $var wire 1 ' io_LRCLK_O $end
 $var wire 1 ) io_MCLK_O $end
 $var wire 1 * io_NXT_FRAME $end
 $var wire 1 , io_SDATA_O $end
 $var wire 8 0 BiPhase_CLK_CNTR $end
 $var wire 1 = io_LRCLK_IN $end
 $var wire 1 > BFR1 $end
 $var wire 1 @ io_DATA_O $end
 $var wire 1 A DATA_OUT_REG_1B $end
 $var wire 2 C current_state $end
 $var wire 1 H io_MCLK_IN $end
 $var wire 1 N BFR $end
 $var wire 1 Q io_SDATA_IN $end
 $var wire 1 U clock $end
 $var wire 1 a bi_phase_enc $end
 $var wire 8 b bitCntr $end
 $var wire 1 c io_BCLK_IN $end
 $var wire 1 f reset $end
  $scope module bi_phase_enc $end
   $var wire 16 + dspData $end
   $var wire 8 1 bitCntr $end
   $var wire 64 2 stereoData $end
   $var wire 1 4 outReg $end
   $var wire 64 7 io_AUDIOINPUT $end
   $var wire 1 8 io_DATA_OUT $end
   $var wire 1 D clock $end
   $var wire 6 G dataIndex $end
   $var wire 1 I hasNone $end
   $var wire 1 W io_TICK $end
   $var wire 1 i reset $end
  $upscope $end
  $scope module BFR $end
   $var wire 64 " mem $end
   $var wire 1 & mem_rdwrPort_r_en_pipe_0 $end
   $var wire 1 . clock $end
   $var wire 64 < io_dataOut $end
   $var wire 64 K io_dataIn $end
   $var wire 1 Z io_enable $end
   $var wire 1 \ io_write $end
   $var wire 1 ^ mem_rdwrPort_r_addr_pipe_0 $end
    $scope module mem $end
     $var wire 64 _ rdwrPort_w $end
      $scope module rdwrPort_w $end
       $var wire 1 ! mask $end
       $var wire 1 - valid $end
       $var wire 1 / en $end
       $var wire 1 : addr $end
       $var wire 1 ; pipeline_valid_0 $end
       $var wire 1 E pipeline_addr_0 $end
       $var wire 64 V data $end
       $var wire 64 e pipeline_data_0 $end
       $var wire 1 g clk $end
      $upscope $end
      $scope module rdwrPort_r $end
       $var wire 1 ? addr $end
       $var wire 1 O clk $end
       $var wire 64 Y data $end
       $var wire 1 [ en $end
      $upscope $end
    $upscope $end
  $upscope $end
  $scope module BFR1 $end
   $var wire 1 # io_enable $end
   $var wire 1 L mem_rdwrPort_r_addr_pipe_0 $end
   $var wire 1 M io_write $end
   $var wire 1 R mem_rdwrPort_r_en_pipe_0 $end
   $var wire 1 S clock $end
   $var wire 64 T mem $end
   $var wire 64 d io_dataIn $end
   $var wire 64 h io_dataOut $end
    $scope module mem $end
     $var wire 64 ] rdwrPort_w $end
      $scope module rdwrPort_r $end
       $var wire 1 $ en $end
       $var wire 1 9 addr $end
       $var wire 1 J clk $end
       $var wire 64 X data $end
      $upscope $end
      $scope module rdwrPort_w $end
       $var wire 1 ( pipeline_addr_0 $end
       $var wire 1 3 addr $end
       $var wire 1 5 pipeline_valid_0 $end
       $var wire 64 6 pipeline_data_0 $end
       $var wire 1 B en $end
       $var wire 1 F valid $end
       $var wire 64 P data $end
       $var wire 1 ` clk $end
       $var wire 1 j mask $end
      $upscope $end
    $upscope $end
  $upscope $end
$upscope $end
$enddefinitions $end
$dumpvars
0;
b00000000 b
0&
b0000000000000000 +
b00000000 0
0Z
0R
0=
b0000000000000000000000000000000000000000000000000000000000000000 7
0i
0N
09
b0000000000000000000000000000000000000000000000000000000000000000 e
03
b0000000000000000000000000000000000000000000000000000000000000000 _
0g
0J
05
0-
b0000000000000000000000000000000000000000000000000000000000000000 Y
0a
0L
0D
0/
0c
0[
0F
b0000000000000000000000000000000000000000000000000000000000000000 ]
0)
0H
0@
0W
0B
b00 C
0%
b0000000000000000000000000000000000000000000000000000000000000000 <
0'
b0000000000000000000000000000000000000000000000000000000000000000 h
b0000000000000000000000000000000000000000000000000000000000000000 K
b0000000000000000000000000000000000000000000000000000000000000000 6
b00000000 1
0S
0>
0!
0j
0U
0M
08
0#
b0000000000000000000000000000000000000000000000000000000000000000 d
b0000000000000000000000000000000000000000000000000000000000000000 2
0O
0:
0f
0Q
0I
04
0`
0.
b000000 G
0E
0(
b0000000000000000000000000000000000000000000000000000000000000000 T
0\
b0000000000000000000000000000000000000000000000000000000000000000 "
0?
0*
b0000000000000000000000000000000000000000000000000000000000000000 V
0^
0A
0,
b0000000000000000000000000000000000000000000000000000000000000000 X
0$
b0000000000000000000000000000000000000000000000000000000000000000 P
$end
#0
1f
1#
1Z
1i
#1
1`
1U
1R
1.
1g
1J
1&
1D
1S
1$
1O
1[
#6
0f
0`
0U
0.
0g
0J
0D
0S
0i
0O
#11
1`
1U
b10 C
1.
1g
1J
1D
1S
1O
#16
1c
0`
1%
0U
0.
0g
0J
0D
0S
1'
0O
1=
#21
1-
1`
1g
1.
1J
1D
1S
1/
1\
1!
b00000001 0
1U
1*
1W
1O
#26
0`
0U
0.
0g
0J
0D
0S
0O
#31
0-
1`
1g
1.
1J
0&
1D
1S
0[
0/
b00000001 b
0\
0!
b00000010 0
1U
b00000001 1
b000001 G
0*
0W
1O
1;
#36
0c
0`
0%
0U
0.
0g
0J
0D
0S
0O
#41
1`
1g
1.
1J
1&
1D
1S
1[
b00000011 0
1U
1*
1W
1O
0;
#46
0`
0U
0.
0g
0J
0D
0S
0O
#51
b00000100 0
1`
1U
1.
1g
b00000010 1
1J
1D
1S
0*
0W
1O
#56
1c
0`
1%
0U
0.
0g
0J
0D
0S
0O
#61
1-
1`
1g
1.
1J
1D
1S
1/
1\
1!
b00000101 0
1U
1*
1W
1O
#66
0`
0U
0.
0g
0J
0D
0S
0O
#71
0-
1`
1g
1.
1J
0&
1D
1S
0[
0/
b00000010 b
0\
0!
b00000110 0
1U
b00000011 1
b000010 G
0*
0W
1O
1;
#76
0c
0`
0%
0U
0.
0g
0J
0D
0S
0O
#81
1`
1g
1.
1J
1&
1D
1S
1[
b00000111 0
1U
1*
1W
1O
0;
#86
0`
0U
0.
0g
0J
0D
0S
0O
#91
b00000000 0
1`
1U
1.
1g
b00000100 1
1J
1D
1S
0*
0W
1O
#96
1c
0`
1%
0U
0.
0g
0J
0D
0S
0O
#101
1-
1`
1g
1.
1J
1D
1S
1/
1\
1!
b00000001 0
1U
1*
1W
1O
#106
0`
0U
0.
0g
0J
0D
0S
0O
#111
0-
1`
1g
1.
1J
0&
1D
1S
0[
0/
b00000011 b
0\
0!
b00000010 0
1U
b00000101 1
b000011 G
0*
0W
1O
1;
#116
0c
0`
0%
0U
0.
0g
0J
0D
0S
0O
#121
1`
1g
1.
1J
1&
1D
1S
1[
b00000011 0
1U
1*
1W
1O
0;
#126
0`
0U
0.
0g
0J
0D
0S
0O
#131
b00000100 0
1`
1U
1.
1g
b00000110 1
1J
1D
1S
0*
0W
1O
#136
1c
0`
1%
0U
0.
0g
0J
0D
0S
0O
#141
1-
1`
1g
1.
1J
1D
1S
1/
1\
1!
b00000101 0
1U
1*
1W
1O
#146
0`
0U
0.
0g
0J
0D
0S
0O
#151
0-
1`
14
1g
1.
1J
0&
1D
1S
0[
0/
b00000100 b
0\
0!
b00000110 0
1U
b00000111 1
18
b000100 G
0*
0W
1O
1;
#156
0c
0`
0%
0U
0.
0g
0J
0D
0S
0O
#161
1`
1g
1.
1J
1&
1D
1S
1[
b00000111 0
1U
1@
1*
1W
1O
1A
0;
#166
0`
0U
0.
0g
0J
0D
0S
0O
#171
b00000000 0
1`
1U
1.
1g
b00001000 1
1J
1D
1S
0*
0W
1O
#176
1c
0`
1%
0U
0.
0g
0J
0D
0S
0O
#181
1-
1`
1g
1.
1J
1D
1S
1/
1\
1!
b00000001 0
1U
1*
1W
1O
#186
0`
0U
0.
0g
0J
0D
0S
0O
#191
0-
1`
04
1g
1.
1J
0&
1D
1S
0[
0/
b00000101 b
0\
0!
b00000010 0
1U
b00001001 1
08
b000101 G
0*
0W
1O
1I
1;
#196
0c
0`
0%
0U
0.
0g
0J
0D
0S
0O
#201
1`
1g
1.
1J
1&
1D
1S
1[
b00000011 0
1U
0@
1*
1W
1O
0A
0;
#206
0`
0U
0.
0g
0J
0D
0S
0O
#211
b00000100 0
1`
1U
1.
1g
b00001010 1
1J
1D
1S
0*
0W
1O
0I
#216
1c
0`
1%
0U
0.
0g
0J
0D
0S
0O
#221
1-
1`
1g
1.
1J
1D
1S
1/
1\
1!
b00000101 0
1U
1*
1W
1O
#226
0`
0U
0.
0g
0J
0D
0S
0O
#231
0-
1`
14
1g
1.
1J
0&
1D
1S
0[
0/
b00000110 b
0\
0!
b00000110 0
1U
b00001011 1
18
b000110 G
0*
0W
1O
1I
1;
#236
0c
0`
0%
0U
0.
0g
0J
0D
0S
0O
#241
1`
1g
1.
1J
1&
1D
1S
1[
b00000111 0
1U
1@
1*
1W
1O
1A
0;
#246
0`
0U
0.
0g
0J
0D
0S
0O
#251
b00000000 0
1`
1U
1.
1g
b00001100 1
1J
1D
1S
0*
0W
1O
0I
#256
1c
0`
1%
0U
0.
0g
0J
0D
0S
0O
#261
1-
1`
1g
1.
1J
1D
1S
1/
1\
1!
b00000001 0
1U
1*
1W
1O
#266
0`
0U
0.
0g
0J
0D
0S
0O
#271
0-
1`
04
1g
1.
1J
0&
1D
1S
0[
0/
b00000111 b
0\
0!
b00000010 0
1U
b00001101 1
08
b000111 G
0*
0W
1O
1I
1;
#276
0c
0`
0%
0U
0.
0g
0J
0D
0S
0O
#281
1`
1g
1.
1J
1&
1D
1S
1[
b00000011 0
1U
0@
1*
1W
1O
0A
0;
#286
0`
0U
0.
0g
0J
0D
0S
0O
#291
b00000100 0
1`
1U
1.
1g
b00001110 1
1J
1D
1S
0*
0W
1O
0I
#296
1c
0`
1%
0U
0.
0g
0J
0D
0S
0O
#301
1-
1`
1g
1.
1J
1D
1S
1/
1\
1!
b00000101 0
1U
1*
1W
1O
#306
0`
0U
0.
0g
0J
0D
0S
0O
#311
0-
1`
14
1g
1.
1J
0&
1D
1S
0[
0/
b00001000 b
0\
0!
b00000110 0
1U
b00001111 1
18
b001000 G
0*
0W
1O
1I
1;
#316
0c
0`
0%
0U
0.
0g
0J
0D
0S
0O
#321
1`
1g
1.
1J
1&
1D
1S
1[
b00000111 0
1U
1@
1*
1W
1O
1A
0;
#326
0`
0U
0.
0g
0J
0D
0S
0O
#331
b00000000 0
1`
1U
1.
1g
b00010000 1
1J
1D
1S
0*
0W
1O
0I
#336
1c
0`
1%
0U
0.
0g
0J
0D
0S
0O
#341
1-
1`
1g
1.
1J
1D
1S
1/
1\
1!
b00000001 0
1U
1*
1W
1O
#346
0`
0U
0.
0g
0J
0D
0S
0O
#351
0-
1`
04
1g
1.
1J
0&
1D
1S
0[
0/
b00001001 b
0\
0!
b00000010 0
1U
b00010001 1
08
b001001 G
0*
0W
1O
1I
1;
#356
0c
0`
0%
0U
0.
0g
0J
0D
0S
0O
#361
1`
1g
1.
1J
1&
1D
1S
1[
b00000011 0
1U
0@
1*
1W
1O
0A
0;
#366
0`
0U
0.
0g
0J
0D
0S
0O
#371
b00000100 0
1`
1U
1.
1g
b00010010 1
1J
1D
1S
0*
0W
1O
0I
#376
1c
0`
1%
0U
0.
0g
0J
0D
0S
0O
#381
1-
1`
1g
1.
1J
1D
1S
1/
1\
1!
b00000101 0
1U
1*
1W
1O
#386
0`
0U
0.
0g
0J
0D
0S
0O
#391
0-
1`
14
1g
1.
1J
0&
1D
1S
0[
0/
b00001010 b
0\
0!
b00000110 0
1U
b00010011 1
18
b001010 G
0*
0W
1O
1I
1;
#396
0c
0`
0%
0U
0.
0g
0J
0D
0S
0O
#401
1`
1g
1.
1J
1&
1D
1S
1[
b00000111 0
1U
1@
1*
1W
1O
1A
0;
#406
0`
0U
0.
0g
0J
0D
0S
0O
#411
b00000000 0
1`
1U
1.
1g
b00010100 1
1J
1D
1S
0*
0W
1O
0I
#416
1c
0`
1%
0U
0.
0g
0J
0D
0S
0O
#421
1-
1`
1g
1.
1J
1D
1S
1/
1\
1!
b00000001 0
1U
1*
1W
1O
#426
0`
0U
0.
0g
0J
0D
0S
0O
#431
0-
1`
04
1g
1.
1J
0&
1D
1S
0[
0/
b00001011 b
0\
0!
b00000010 0
1U
b00010101 1
08
b001011 G
0*
0W
1O
1I
1;
#436
0c
0`
0%
0U
0.
0g
0J
0D
0S
0O
#441
1`
1g
1.
1J
1&
1D
1S
1[
b00000011 0
1U
0@
1*
1W
1O
0A
0;
#446
0`
0U
0.
0g
0J
0D
0S
0O
#451
b00000100 0
1`
1U
1.
1g
b00010110 1
1J
1D
1S
0*
0W
1O
0I
#456
1c
0`
1%
0U
0.
0g
0J
0D
0S
0O
#461
1-
1`
1g
1.
1J
1D
1S
1/
1\
1!
b00000101 0
1U
1*
1W
1O
#466
0`
0U
0.
0g
0J
0D
0S
0O
#471
0-
1`
14
1g
1.
1J
0&
1D
1S
0[
0/
b00001100 b
0\
0!
b00000110 0
1U
b00010111 1
18
b001100 G
0*
0W
1O
1I
1;
#476
0c
0`
0%
0U
0.
0g
0J
0D
0S
0O
#481
1`
1g
1.
1J
1&
1D
1S
1[
b00000111 0
1U
1@
1*
1W
1O
1A
0;
#486
0`
0U
0.
0g
0J
0D
0S
0O
#491
b00000000 0
1`
1U
1.
1g
b00011000 1
1J
1D
1S
0*
0W
1O
0I
#496
1c
0`
1%
0U
0.
0g
0J
0D
0S
0O
#501
1-
1`
1g
1.
1J
1D
1S
1/
1\
1!
b00000001 0
1U
1*
1W
1O
#506
0`
0U
0.
0g
0J
0D
0S
0O
#511
0-
1`
04
1g
1.
1J
0&
1D
1S
0[
0/
b00001101 b
0\
0!
b00000010 0
1U
b00011001 1
08
b001101 G
0*
0W
1O
1I
1;
#516
0c
0`
0%
0U
0.
0g
0J
0D
0S
0O
#521
1`
1g
1.
1J
1&
1D
1S
1[
b00000011 0
1U
0@
1*
1W
1O
0A
0;
#526
0`
0U
0.
0g
0J
0D
0S
0O
#531
b00000100 0
1`
1U
1.
1g
b00011010 1
1J
1D
1S
0*
0W
1O
0I
#536
1c
0`
1%
0U
0.
0g
0J
0D
0S
0O
#541
1-
1`
1g
1.
1J
1D
1S
1/
1\
1!
b00000101 0
1U
1*
1W
1O
#546
0`
0U
0.
0g
0J
0D
0S
0O
#551
0-
1`
14
1g
1.
1J
0&
1D
1S
0[
0/
b00001110 b
0\
0!
b00000110 0
1U
b00011011 1
18
b001110 G
0*
0W
1O
1I
1;
#556
0c
0`
0%
0U
0.
0g
0J
0D
0S
0O
#561
1`
1g
1.
1J
1&
1D
1S
1[
b00000111 0
1U
1@
1*
1W
1O
1A
0;
#566
0`
0U
0.
0g
0J
0D
0S
0O
#571
b00000000 0
1`
1U
1.
1g
b00011100 1
1J
1D
1S
0*
0W
1O
0I
#576
1c
0`
1%
0U
0.
0g
0J
0D
0S
0O
#581
1-
1`
1g
1.
1J
1D
1S
1/
1\
1!
b00000001 0
1U
1*
1W
1O
#586
0`
0U
0.
0g
0J
0D
0S
0O
#591
0-
1`
04
1g
1.
1J
0&
1D
1S
0[
0/
b00001111 b
0\
0!
b00000010 0
1U
b00011101 1
08
b001111 G
0*
0W
1O
1I
1;
#596
0c
0`
0%
0U
0.
0g
0J
0D
0S
0O
#601
1`
1g
1.
1J
1&
1D
1S
1[
b00000011 0
1U
0@
1*
1W
1O
0A
0;
#606
0`
0U
0.
0g
0J
0D
0S
0O
#611
b00000100 0
1`
1U
1.
1g
b00011110 1
1J
1D
1S
0*
0W
1O
0I
#616
1c
0`
1%
0U
0.
0g
0J
0D
0S
0O
#621
1-
1`
1g
1.
1J
1D
1S
1/
1\
1!
b00000101 0
1U
1*
1W
1O
#626
0`
0U
0.
0g
0J
0D
0S
0O
#631
0-
1`
14
1g
1.
1J
0&
1D
1S
0[
0/
b00010000 b
0\
0!
b00000110 0
1U
b00011111 1
18
b010000 G
0*
0W
1O
1I
1;
#636
0c
0`
0%
0U
0.
0g
0J
0D
0S
0O
#641
1`
1g
1.
1J
1&
1D
1S
1[
b00000111 0
1U
1@
1*
1W
1O
1A
0;
#646
0`
0U
0.
0g
0J
0D
0S
0O
#651
b00000000 0
1`
1U
1.
1g
b00100000 1
1J
1D
1S
0*
0W
1O
0I
#656
1c
0`
1%
0U
0.
0g
0J
0D
0S
0O
#661
1-
1`
1g
1.
1J
1D
1S
1/
1\
1!
b00000001 0
1U
1*
1W
1O
#666
0`
0U
0.
0g
0J
0D
0S
0O
#671
0-
1`
04
1g
1.
1J
0&
1D
1S
0[
0/
b00010001 b
0\
0!
b00000010 0
1U
b00100001 1
08
b010001 G
0*
0W
1O
1I
1;
#676
0c
0`
0%
0U
0.
0g
0J
0D
0S
0O
#681
1`
1g
1.
1J
1&
1D
1S
1[
b00000011 0
1U
0@
1*
1W
1O
0A
0;
#686
0`
0U
0.
0g
0J
0D
0S
0O
#691
b00000100 0
1`
1U
1.
1g
b00100010 1
1J
1D
1S
0*
0W
1O
0I
#696
1c
0`
1%
0U
0.
0g
0J
0D
0S
0O
#701
1-
1`
1g
1.
1J
1D
1S
1/
1\
1!
b00000101 0
1U
1*
1W
1O
#706
0`
0U
0.
0g
0J
0D
0S
0O
#711
0-
1`
14
1g
1.
1J
0&
1D
1S
0[
0/
b00010010 b
0\
0!
b00000110 0
1U
b00100011 1
18
b010010 G
0*
0W
1O
1I
1;
#716
0c
0`
0%
0U
0.
0g
0J
0D
0S
0O
#721
1`
1g
1.
1J
1&
1D
1S
1[
b00000111 0
1U
1@
1*
1W
1O
1A
0;
#726
0`
0U
0.
0g
0J
0D
0S
0O
#731
b00000000 0
1`
1U
1.
1g
b00100100 1
1J
1D
1S
0*
0W
1O
0I
#736
1c
0`
1%
0U
0.
0g
0J
0D
0S
0O
#741
1-
1`
1g
1.
1J
1D
1S
1/
1\
1!
b00000001 0
1U
1*
1W
1O
#746
0`
0U
0.
0g
0J
0D
0S
0O
#751
0-
1`
04
1g
1.
1J
0&
1D
1S
0[
0/
b00010011 b
0\
0!
b00000010 0
1U
b00100101 1
08
b010011 G
0*
0W
1O
1I
1;
#756
0c
0`
0%
0U
0.
0g
0J
0D
0S
0O
#761
1`
1g
1.
1J
1&
1D
1S
1[
b00000011 0
1U
0@
1*
1W
1O
0A
0;
#766
0`
0U
0.
0g
0J
0D
0S
0O
#771
b00000100 0
1`
1U
1.
1g
b00100110 1
1J
1D
1S
0*
0W
1O
0I
#776
1c
0`
1%
0U
0.
0g
0J
0D
0S
0O
#781
1-
1`
1g
1.
1J
1D
1S
1/
1\
1!
b00000101 0
1U
1*
1W
1O
#786
0`
0U
0.
0g
0J
0D
0S
0O
#791
0-
1`
14
1g
1.
1J
0&
1D
1S
0[
0/
b00010100 b
0\
0!
b00000110 0
1U
b00100111 1
18
b010100 G
0*
0W
1O
1I
1;
#796
0c
0`
0%
0U
0.
0g
0J
0D
0S
0O
#801
1`
1g
1.
1J
1&
1D
1S
1[
b00000111 0
1U
1@
1*
1W
1O
1A
0;
#806
0`
0U
0.
0g
0J
0D
0S
0O
#811
b00000000 0
1`
1U
1.
1g
b00101000 1
1J
1D
1S
0*
0W
1O
0I
#816
1c
0`
1%
0U
0.
0g
0J
0D
0S
0O
#821
1-
1`
1g
1.
1J
1D
1S
1/
1\
1!
b00000001 0
1U
1*
1W
1O
#826
0`
0U
0.
0g
0J
0D
0S
0O
#831
0-
1`
04
1g
1.
1J
0&
1D
1S
0[
0/
b00010101 b
0\
0!
b00000010 0
1U
b00101001 1
08
b010101 G
0*
0W
1O
1I
1;
#836
0c
0`
0%
0U
0.
0g
0J
0D
0S
0O
#841
1`
1g
1.
1J
1&
1D
1S
1[
b00000011 0
1U
0@
1*
1W
1O
0A
0;
#846
0`
0U
0.
0g
0J
0D
0S
0O
#851
b00000100 0
1`
1U
1.
1g
b00101010 1
1J
1D
1S
0*
0W
1O
0I
#856
1c
0`
1%
0U
0.
0g
0J
0D
0S
0O
#861
1-
1`
1g
1.
1J
1D
1S
1/
1\
1!
b00000101 0
1U
1*
1W
1O
#866
0`
0U
0.
0g
0J
0D
0S
0O
#871
0-
1`
14
1g
1.
1J
0&
1D
1S
0[
0/
b00010110 b
0\
0!
b00000110 0
1U
b00101011 1
18
b010110 G
0*
0W
1O
1I
1;
#876
0c
0`
0%
0U
0.
0g
0J
0D
0S
0O
#881
1`
1g
1.
1J
1&
1D
1S
1[
b00000111 0
1U
1@
1*
1W
1O
1A
0;
#886
0`
0U
0.
0g
0J
0D
0S
0O
#891
b00000000 0
1`
1U
1.
1g
b00101100 1
1J
1D
1S
0*
0W
1O
0I
#896
1c
0`
1%
0U
0.
0g
0J
0D
0S
0O
#901
1-
1`
1g
1.
1J
1D
1S
1/
1\
1!
b00000001 0
1U
1*
1W
1O
#906
0`
0U
0.
0g
0J
0D
0S
0O
#911
0-
1`
04
1g
1.
1J
0&
1D
1S
0[
0/
b00010111 b
0\
0!
b00000010 0
1U
b00101101 1
08
b010111 G
0*
0W
1O
1I
1;
#916
0c
0`
0%
0U
0.
0g
0J
0D
0S
0O
#921
1`
1g
1.
1J
1&
1D
1S
1[
b00000011 0
1U
0@
1*
1W
1O
0A
0;
#926
0`
0U
0.
0g
0J
0D
0S
0O
#931
b00000100 0
1`
1U
1.
1g
b00101110 1
1J
1D
1S
0*
0W
1O
0I
#936
1c
0`
1%
0U
0.
0g
0J
0D
0S
0O
#941
1-
1`
1g
1.
1J
1D
1S
1/
1\
1!
b00000101 0
1U
1*
1W
1O
#946
0`
0U
0.
0g
0J
0D
0S
0O
#951
0-
1`
14
1g
1.
1J
0&
1D
1S
0[
0/
b00011000 b
0\
0!
b00000110 0
1U
b00101111 1
18
b011000 G
0*
0W
1O
1I
1;
#956
0c
0`
0%
0U
0.
0g
0J
0D
0S
0O
#961
1`
1g
1.
1J
1&
1D
1S
1[
b00000111 0
1U
1@
1*
1W
1O
1A
0;
#966
0`
0U
0.
0g
0J
0D
0S
0O
#971
b00000000 0
1`
1U
1.
1g
b00110000 1
1J
1D
1S
0*
0W
1O
0I
#976
1c
0`
1%
0U
0.
0g
0J
0D
0S
0O
#981
1-
1`
1g
1.
1J
1D
1S
1/
1\
1!
b00000001 0
1U
1*
1W
1O
#986
0`
0U
0.
0g
0J
0D
0S
0O
#991
0-
1`
04
1g
1.
1J
0&
1D
1S
0[
0/
b00011001 b
0\
0!
b00000010 0
1U
b00110001 1
08
b011001 G
0*
0W
1O
1I
1;
#996
0c
0`
0%
0U
0.
0g
0J
0D
0S
0O
#1001
1`
1g
1.
1J
1&
1D
1S
1[
b00000011 0
1U
0@
1*
1W
1O
0A
0;
#1006
0`
0U
0.
0g
0J
0D
0S
0O
#1011
b00000100 0
1`
1U
1.
1g
b00110010 1
1J
1D
1S
0*
0W
1O
0I
#1016
1c
0`
1%
0U
0.
0g
0J
0D
0S
0O
#1021
1-
1`
1g
1.
1J
1D
1S
1/
1\
1!
b00000101 0
1U
1*
1W
1O
#1026
0`
0U
0.
0g
0J
0D
0S
0O
#1031
0-
1`
14
1g
1.
1J
0&
1D
1S
0[
0/
b00011010 b
0\
0!
b00000110 0
1U
b00110011 1
18
b011010 G
0*
0W
1O
1I
1;
#1036
0c
0`
0%
0U
0.
0g
0J
0D
0S
0O
#1041
1`
1g
1.
1J
1&
1D
1S
1[
b00000111 0
1U
1@
1*
1W
1O
1A
0;
#1046
0`
0U
0.
0g
0J
0D
0S
0O
#1051
b00000000 0
1`
1U
1.
1g
b00110100 1
1J
1D
1S
0*
0W
1O
0I
#1056
1c
0`
1%
0U
0.
0g
0J
0D
0S
0O
#1061
1-
1`
1g
1.
1J
1D
1S
1/
1\
1!
b00000001 0
1U
1*
1W
1O
#1066
0`
0U
0.
0g
0J
0D
0S
0O
#1071
0-
1`
04
1g
1.
1J
0&
1D
1S
0[
0/
b00011011 b
0\
0!
b00000010 0
1U
b00110101 1
08
b011011 G
0*
0W
1O
1I
1;
#1076
0c
0`
0%
0U
0.
0g
0J
0D
0S
0O
#1081
1`
1g
1.
1J
1&
1D
1S
1[
b00000011 0
1U
0@
1*
1W
1O
0A
0;
#1086
0`
0U
0.
0g
0J
0D
0S
0O
#1091
b00000100 0
1`
1U
1.
1g
b00110110 1
1J
1D
1S
0*
0W
1O
0I
#1096
1c
0`
1%
0U
0.
0g
0J
0D
0S
0O
#1101
1-
1`
1g
1.
1J
1D
1S
1/
1\
1!
b00000101 0
1U
1*
1W
1O
#1106
0`
0U
0.
0g
0J
0D
0S
0O
#1111
0-
1`
14
1g
1.
1J
0&
1D
1S
0[
0/
b00011100 b
0\
0!
b00000110 0
1U
b00110111 1
18
b011100 G
0*
0W
1O
1I
1;
#1116
0c
0`
0%
0U
0.
0g
0J
0D
0S
0O
#1121
1`
1g
1.
1J
1&
1D
1S
1[
b00000111 0
1U
1@
1*
1W
1O
1A
0;
#1126
0`
0U
0.
0g
0J
0D
0S
0O
#1131
b00000000 0
1`
1U
1.
1g
b00111000 1
1J
1D
1S
0*
0W
1O
0I
#1136
1c
0`
1%
0U
0.
0g
0J
0D
0S
0O
#1141
1-
1`
1g
1.
1J
1D
1S
1/
1\
1!
b00000001 0
1U
1*
1W
1O
#1146
0`
0U
0.
0g
0J
0D
0S
0O
#1151
0-
1`
04
1g
1.
1J
0&
1D
1S
0[
0/
b00011101 b
0\
0!
b00000010 0
1U
b00111001 1
08
b011101 G
0*
0W
1O
1I
1;
#1156
0c
0`
0%
0U
0.
0g
0J
0D
0S
0O
#1161
1`
1g
1.
1J
1&
1D
1S
1[
b00000011 0
1U
0@
1*
1W
1O
0A
0;
#1166
0`
0U
0.
0g
0J
0D
0S
0O
#1171
b00000100 0
1`
1U
1.
1g
b00111010 1
1J
1D
1S
0*
0W
1O
0I
#1176
1c
0`
1%
0U
0.
0g
0J
0D
0S
0O
#1181
1-
1`
1g
1.
1J
1D
1S
1/
1\
1!
b00000101 0
1U
1*
1W
1O
#1186
0`
0U
0.
0g
0J
0D
0S
0O
#1191
0-
1`
14
1g
1.
1J
0&
1D
1S
0[
0/
b00011110 b
0\
0!
b00000110 0
1U
b00111011 1
18
b011110 G
0*
0W
1O
1I
1;
#1196
0c
0`
0%
0U
0.
0g
0J
0D
0S
0O
#1201
1`
1g
1.
1J
1&
1D
1S
1[
b00000111 0
1U
1@
1*
1W
1O
1A
0;
#1206
0`
0U
0.
0g
0J
0D
0S
0O
#1211
b00000000 0
1`
1U
1.
1g
b00111100 1
1J
1D
1S
0*
0W
1O
0I
#1216
1c
0`
1%
0U
0.
0g
0J
0D
0S
0O
#1221
1-
1`
1g
1.
1J
1D
1S
1/
1\
1!
b00000001 0
1U
1*
1W
1O
#1226
0`
0U
0.
0g
0J
0D
0S
0O
#1231
0-
1`
04
1g
1.
1J
0&
1D
1S
0[
0/
b00011111 b
0\
0!
b00000010 0
1U
b00111101 1
08
b011111 G
0*
0W
1O
1I
1;
#1236
0c
0`
0%
0U
0.
0g
0J
0D
0S
0O
#1241
1`
1g
1.
1J
1&
1D
1S
1[
b00000011 0
1U
0@
1*
1W
1O
0A
0;
#1246
0`
0U
0.
0g
0J
0D
0S
0O
#1251
b00000100 0
1`
1U
1.
1g
b00111110 1
1J
1D
1S
0*
0W
1O
0I
#1256
1c
0`
1%
0U
0.
0g
0J
0D
0S
0O
#1261
1-
1`
1g
1.
1J
1D
1S
1/
1\
1!
b00000101 0
1U
1*
1W
1O
#1266
0`
0U
0.
0g
0J
0D
0S
0O
#1271
0-
1`
14
1g
1.
1J
0&
1D
1S
0[
0/
b00100000 b
0\
0!
b00000110 0
1U
b00111111 1
18
b100000 G
0*
0W
1O
1I
1;
#1276
0c
0`
0%
0U
0.
0g
0J
0D
0S
0O
#1281
1`
1g
1.
1J
1&
1D
1S
1[
b00000111 0
1U
1@
1*
1W
1O
1A
0;
#1286
0`
0U
0.
0g
0J
0D
0S
0O
#1291
b00000000 0
1`
1U
1.
1g
b01000000 1
1J
1D
1S
0*
0W
1O
0I
#1296
1c
0`
1%
0U
0.
0g
0J
0D
0S
0'
0O
0=
#1301
1-
1`
1g
1.
1J
1D
1S
1/
1\
1!
b00000001 0
1U
1*
1W
1O
#1306
0`
0U
0.
0g
0J
0D
0S
0O
#1311
0-
1`
04
1g
1.
1J
0&
1D
1S
0[
0/
b00100001 b
0\
0!
b00000010 0
1U
b01000001 1
08
b100001 G
0*
0W
1O
1I
1;
#1316
0c
0`
0%
0U
0.
0g
0J
0D
0S
0O
#1321
1`
1g
1.
1J
1&
1D
1S
1[
b00000011 0
1U
0@
1*
1W
1O
0A
0;
#1326
0`
0U
0.
0g
0J
0D
0S
0O
#1331
b00000100 0
1`
1U
1.
1g
b01000010 1
1J
1D
1S
0*
0W
1O
0I
#1336
1c
0`
1%
0U
0.
0g
0J
0D
0S
0O
#1341
1-
1`
1g
1.
1J
1D
1S
1/
1\
1!
b00000101 0
1U
1*
1W
1O
#1346
0`
0U
0.
0g
0J
0D
0S
0O
#1351
0-
1`
14
1g
1.
1J
0&
1D
1S
0[
0/
b00100010 b
0\
0!
b00000110 0
1U
b01000011 1
18
b100010 G
0*
0W
1O
1I
1;
#1356
0c
0`
0%
0U
0.
0g
0J
0D
0S
0O
#1361
1`
1g
1.
1J
1&
1D
1S
1[
b00000111 0
1U
1@
1*
1W
1O
1A
0;
#1366
0`
0U
0.
0g
0J
0D
0S
0O
#1371
b00000000 0
1`
1U
1.
1g
b01000100 1
1J
1D
1S
0*
0W
1O
0I
#1376
1c
0`
1%
0U
0.
0g
0J
0D
0S
0O
#1381
1-
1`
1g
1.
1J
1D
1S
1/
1\
1!
b00000001 0
1U
1*
1W
1O
#1386
0`
0U
0.
0g
0J
0D
0S
0O
