InterVox_Transmitter/test_run_dir/interVox_Encoder_should_pass/interVox_Encoder.vcd
$date
2023-01-14T15:59+0000
$end
$version
0.2
$end
$comment

$end
$timescale 1ns  $end
$scope module interVox_Encoder $end
 $var wire 1 & io_BCLK_O $end
 $var wire 1 ' io_LRCLK_O $end
 $var wire 1 ) io_MCLK_O $end
 $var wire 1 * io_NXT_FRAME $end
 $var wire 1 + io_SDATA_O $end
 $var wire 1 5 encoderClk $end
 $var wire 1 8 synced $end
 $var wire 4 ? clkCntr1 $end
 $var wire 1 A io_LRCLK_IN $end
 $var wire 1 B BFR1 $end
 $var wire 1 D io_DATA_O $end
 $var wire 2 G current_state $end
 $var wire 1 H syncing $end
 $var wire 1 K LREDGE $end
 $var wire 1 W BFR $end
 $var wire 1 \ io_SDATA_IN $end
 $var wire 16 d io_SW $end
 $var wire 1 g clock $end
 $var wire 1 u bi_phase_enc $end
 $var wire 8 w bitCntr $end
 $var wire 1 y io_BCLK_IN $end
 $var wire 1 "! reset $end
 $var wire 1 "( BCLKEDGE $end
  $scope module BCLKEDGE $end
   $var wire 1 / reset $end
   $var wire 2 > inBufrPrev $end
   $var wire 1 M io_CHANGE $end
   $var wire 1 ` change $end
   $var wire 1 a change_REG $end
   $var wire 2 h inBufr $end
   $var wire 1 m clock $end
   $var wire 1 v io_INPUT $end
   $var wire 1 | rising $end
   $var wire 1 ~ io_TRAIL $end
   $var wire 1 "& trailing $end
  $upscope $end
  $scope module bi_phase_enc $end
   $var wire 64 0 stereoData $end
   $var wire 1 3 outReg $end
   $var wire 64 7 io_AUDIOINPUT $end
   $var wire 1 9 io_DATA_OUT $end
   $var wire 1 I clock $end
   $var wire 6 N dataIndex $end
   $var wire 1 P hasNone $end
   $var wire 1 R ndexR $end
   $var wire 8 ^ bitCntr_enc $end
   $var wire 1 n io_TRIG $end
   $var wire 1 o io_ENA $end
   $var wire 1 } io_CLK $end
   $var wire 1 "$ reset $end
  $upscope $end
  $scope module BFR $end
   $var wire 64 " mem $end
   $var wire 1 % mem_rdwrPort_r_en_pipe_0 $end
   $var wire 1 - clock $end
   $var wire 64 @ io_dataOut $end
   $var wire 64 S io_dataIn $end
   $var wire 1 k io_enable $end
   $var wire 1 p io_write $end
   $var wire 1 r mem_rdwrPort_r_addr_pipe_0 $end
    $scope module mem $end
     $var wire 64 s rdwrPort_w $end
      $scope module rdwrPort_w $end
       $var wire 1 ! mask $end
       $var wire 1 , valid $end
       $var wire 1 . en $end
       $var wire 1 < addr $end
       $var wire 1 = pipeline_valid_0 $end
       $var wire 1 J pipeline_addr_0 $end
       $var wire 64 f data $end
       $var wire 64 { pipeline_data_0 $end
       $var wire 1 "" clk $end
      $upscope $end
      $scope module rdwrPort_r $end
       $var wire 1 C addr $end
       $var wire 1 Z clk $end
       $var wire 64 j data $end
       $var wire 1 l en $end
      $upscope $end
    $upscope $end
  $upscope $end
  $scope module LREDGE $end
   $var wire 2 4 inBufrPrev $end
   $var wire 1 ; io_CHANGE $end
   $var wire 1 F io_INPUT $end
   $var wire 1 O io_TRAIL $end
   $var wire 1 V change_REG $end
   $var wire 1 X clock $end
   $var wire 1 Y change $end
   $var wire 1 ] trailing $end
   $var wire 2 b inBufr $end
   $var wire 1 x rising $end
   $var wire 1 "' reset $end
  $upscope $end
  $scope module BFR1 $end
   $var wire 1 # io_enable $end
   $var wire 1 T mem_rdwrPort_r_addr_pipe_0 $end
   $var wire 1 U io_write $end
   $var wire 1 _ mem_rdwrPort_r_en_pipe_0 $end
   $var wire 1 c clock $end
   $var wire 64 e mem $end
   $var wire 64 z io_dataIn $end
   $var wire 64 "# io_dataOut $end
    $scope module mem $end
     $var wire 64 q rdwrPort_w $end
      $scope module rdwrPort_r $end
       $var wire 1 $ en $end
       $var wire 1 : addr $end
       $var wire 1 Q clk $end
       $var wire 64 i data $end
      $upscope $end
      $scope module rdwrPort_w $end
       $var wire 1 ( pipeline_addr_0 $end
       $var wire 1 1 addr $end
       $var wire 1 2 pipeline_valid_0 $end
       $var wire 64 6 pipeline_data_0 $end
       $var wire 1 E en $end
       $var wire 1 L valid $end
       $var wire 64 [ data $end
       $var wire 1 t clk $end
       $var wire 1 "% mask $end
      $upscope $end
    $upscope $end
  $upscope $end
$upscope $end
$enddefinitions $end
$dumpvars
0X
0C
0""
0;
0&
0o
0Z
0R
0=
b0000000000000000000000000000000000000000000000000000000000000000 i
b00 >
b0000000000000000000000000000000000000000000000000000000000000000 7
0T
b00000000 ^
0k
0V
09
b0000000000000000000000000000000000000000000000000000000000000000 z
b0000000000000000000000000000000000000000000000000000000000000000 e
0m
0P
b00000000 w
03
0"'
b00 4
0|
0g
b00 h
0J
05
0-
0~
0a
0L
b000000 N
b00 b
0D
0/
b0000000000000000000000000000000000000000000000000000000000000000 [
0x
0c
0F
01
0"%
b00 G
0)
b0000000000000000000000000000000000000000000000000000000000000000 @
0r
0]
0H
0+
b0000000000000000 d
0t
0_
0W
0B
0"!
0%
0v
0n
0Y
0<
0'
b0000000000000000000000000000000000000000000000000000000000000000 S
b0000000000000000000000000000000000000000000000000000000000000000 6
0p
b0000 ?
b0000000000000000000000000000000000000000000000000000000000000000 "#
b0000000000000000000000000000000000000000000000000000000000000000 j
0!
b0000000000000000000000000000000000000000000000000000000000000000 0
0U
0M
08
0#
0l
0O
0:
b0000000000000000000000000000000000000000000000000000000000000000 {
b0000000000000000000000000000000000000000000000000000000000000000 f
02
0Q
0I
0"(
0}
0`
0K
0.
0E
b0000000000000000000000000000000000000000000000000000000000000000 q
0"$
0(
0y
0\
b0000000000000000000000000000000000000000000000000000000000000000 "
b0000000000000000000000000000000000000000000000000000000000000000 s
0"&
0*
0A
0,
0$
0u
$end
#0
1"$
1"!
1k
1#
1"'
1/
#1
1Q
1-
1%
1X
1g
1Z
1)
1c
1""
1$
1l
1m
1I
1t
1_
#6
0Q
0-
0X
0g
0"$
1v
1&
1'
0Z
0"'
0/
0)
0c
1F
1y
0"!
0""
0m
0I
1A
0t
#11
1Q
1-
1X
1g
b01 h
1Z
b01 b
1)
1c
b10 G
1""
1m
1I
1t
#16
0c
0Q
0-
0X
0g
0""
0Z
0m
0I
0t
0)
#21
1Q
1`
1-
1X
1g
b01 4
1Y
b10 h
1Z
1x
b01 >
1)
1M
b10 b
1c
1""
1*
1m
1|
1I
1t
1;
1n
#26
0c
0Q
0-
0X
0g
0""
0Z
0m
0I
0t
0)
#31
1Q
0`
1-
1X
1g
0Y
1Z
0x
1)
0M
1c
1""
0*
1m
0|
1I
1t
0;
0n
#36
0c
0Q
0-
0X
0g
0""
0Z
0m
0I
0t
0)
#41
1c
1Q
1-
1X
1g
1""
1Z
1m
1I
1t
1)
#46
0Q
0-
0X
0g
0v
0&
0Z
0)
0c
0y
0""
0m
0I
0t
#51
1c
1Q
1-
1X
1g
b01 h
1""
1Z
1m
1I
b10 >
1)
1t
#56
0c
0Q
0-
0X
0g
0""
0Z
0m
0I
0t
0)
#61
1Q
1`
1-
1X
1g
b00 h
1~
1"&
1Z
b01 >
1)
1M
1c
1""
1*
1m
1I
1t
1n
#66
0c
0Q
0-
0X
0g
0""
0Z
0m
0I
0t
0)
#71
1Q
0`
1-
1X
1g
0~
0"&
1Z
1)
0M
1c
1""
0*
1m
1I
1t
0n
#76
0c
0Q
0-
0X
0g
0""
0Z
0m
0I
0t
0)
#81
1c
1Q
1-
1X
1g
1""
1Z
1m
1I
1t
1)
#86
0Q
0-
0X
0g
1v
1&
0Z
0)
0c
1y
0""
0m
0I
0t
#91
1c
1Q
1-
1X
1g
b01 h
1""
1Z
1m
1I
b00 >
1)
1t
#96
0c
0Q
0-
0X
0g
0""
0Z
0m
0I
0t
0)
#101
1Q
1`
1-
1X
1g
b10 h
1Z
b01 >
1)
1M
1c
1""
1*
1m
1|
1I
1t
1n
#106
0c
0Q
0-
0X
0g
0""
0Z
0m
0I
0t
0)
#111
1Q
0`
1-
1X
1g
1Z
1)
0M
1c
1""
0*
1m
0|
1I
1t
0n
#116
0c
0Q
0-
0X
0g
0""
0Z
0m
0I
0t
0)
#121
1c
1Q
1-
1X
1g
1""
1Z
1m
1I
1t
1)
#126
0Q
0-
0X
0g
0v
0&
0Z
0)
0c
0y
0""
0m
0I
0t
#131
1c
1Q
1-
1X
1g
b01 h
1""
1Z
1m
1I
b10 >
1)
1t
#136
0c
0Q
0-
0X
0g
0""
0Z
0m
0I
0t
0)
#141
1Q
1`
1-
1X
1g
b00 h
1~
1"&
1Z
b01 >
1)
1M
1c
1""
1*
1m
1I
1t
1n
#146
0c
0Q
0-
0X
0g
0""
0Z
0m
0I
0t
0)
#151
1Q
0`
1-
1X
1g
0~
0"&
1Z
1)
0M
1c
1""
0*
1m
1I
1t
0n
#156
0c
0Q
0-
0X
0g
0""
0Z
0m
0I
0t
0)
#161
1c
1Q
1-
1X
1g
1""
1Z
1m
1I
1t
1)
#166
0Q
0-
0X
0g
1v
1&
0Z
0)
0c
1y
0""
0m
0I
0t
#171
1c
1Q
1-
1X
1g
b01 h
1""
1Z
1m
1I
b00 >
1)
1t
#176
0c
0Q
0-
0X
0g
0""
0Z
0m
0I
0t
0)
#181
1Q
1`
1-
1X
1g
b10 h
1Z
b01 >
1)
1M
1c
1""
1*
1m
1|
1I
1t
1n
#186
0c
0Q
0-
0X
0g
0""
0Z
0m
0I
0t
0)
#191
1Q
0`
1-
1X
1g
1Z
1)
0M
1c
1""
0*
1m
0|
1I
1t
0n
#196
0c
0Q
0-
0X
0g
0""
0Z
0m
0I
0t
0)
#201
1c
1Q
1-
1X
1g
1""
1Z
1m
1I
1t
1)
#206
0Q
0-
0X
0g
0v
0&
0Z
0)
0c
0y
0""
0m
0I
0t
#211
1c
1Q
1-
1X
1g
b01 h
1""
1Z
1m
1I
b10 >
1)
1t
#216
0c
0Q
0-
0X
0g
0""
0Z
0m
0I
0t
0)
#221
1Q
1`
1-
1X
1g
b00 h
1~
1"&
1Z
b01 >
1)
1M
1c
1""
1*
1m
1I
1t
1n
#226
0c
0Q
0-
0X
0g
0""
0Z
0m
0I
0t
0)
#231
1Q
0`
1-
1X
1g
0~
0"&
1Z
1)
0M
1c
1""
0*
1m
1I
1t
0n
#236
0c
0Q
0-
0X
0g
0""
0Z
0m
0I
0t
0)
#241
1c
1Q
1-
1X
1g
1""
1Z
1m
1I
1t
1)
#246
0Q
0-
0X
0g
1v
1&
0Z
0)
0c
1y
0""
0m
0I
0t
#251
1c
1Q
1-
1X
1g
b01 h
1""
1Z
1m
1I
b00 >
1)
1t
#256
0c
0Q
0-
0X
0g
0""
0Z
0m
0I
0t
0)
#261
1Q
1`
1-
1X
1g
b10 h
1Z
b01 >
1)
1M
1c
1""
1*
1m
1|
1I
1t
1n
#266
0c
0Q
0-
0X
0g
0""
0Z
0m
0I
0t
0)
#271
1Q
0`
1-
1X
1g
1Z
1)
0M
1c
1""
0*
1m
0|
1I
1t
0n
#276
0c
0Q
0-
0X
0g
0""
0Z
0m
0I
0t
0)
#281
1c
1Q
1-
1X
1g
1""
1Z
1m
1I
1t
1)
#286
0Q
0-
0X
0g
0v
0&
0Z
0)
0c
0y
0""
0m
0I
0t
#291
1c
1Q
1-
1X
1g
b01 h
1""
1Z
1m
1I
b10 >
1)
1t
#296
0c
0Q
0-
0X
0g
0""
0Z
0m
0I
0t
0)
#301
1Q
1`
1-
1X
1g
b00 h
1~
1"&
1Z
b01 >
1)
1M
1c
1""
1*
1m
1I
1t
1n
#306
0c
0Q
0-
0X
0g
0""
0Z
0m
0I
0t
0)
#311
1Q
0`
1-
1X
1g
0~
0"&
1Z
1)
0M
1c
1""
0*
1m
1I
1t
0n
#316
0c
0Q
0-
0X
0g
0""
0Z
0m
0I
0t
0)
#321
1c
1Q
1-
1X
1g
1""
1Z
1m
1I
1t
1)
#326
0Q
0-
0X
0g
1v
1&
0Z
0)
0c
1y
0""
0m
0I
0t
#331
1c
1Q
1-
1X
1g
b01 h
1""
1Z
1m
1I
b00 >
1)
1t
#336
0c
0Q
0-
0X
0g
0""
0Z
0m
0I
0t
0)
#341
1Q
1`
1-
1X
1g
b10 h
1Z
b01 >
1)
1M
1c
1""
1*
1m
1|
1I
1t
1n
#346
0c
0Q
0-
0X
0g
0""
0Z
0m
0I
0t
0)
#351
1Q
0`
1-
1X
1g
1Z
1)
0M
1c
1""
0*
1m
0|
1I
1t
0n
#356
0c
0Q
0-
0X
0g
0""
0Z
0m
0I
0t
0)
#361
1c
1Q
1-
1X
1g
1""
1Z
1m
1I
1t
1)
#366
0Q
0-
0X
0g
0v
0&
0Z
0)
0c
0y
0""
0m
0I
0t
#371
1c
1Q
1-
1X
1g
b01 h
1""
1Z
1m
1I
b10 >
1)
1t
#376
0c
0Q
0-
0X
0g
0""
0Z
0m
0I
0t
0)
#381
1Q
1`
1-
1X
1g
b00 h
1~
1"&
1Z
b01 >
1)
1M
1c
1""
1*
1m
1I
1t
1n
#386
0c
0Q
0-
0X
0g
0""
0Z
0m
0I
0t
0)
#391
1Q
0`
1-
1X
1g
0~
0"&
1Z
1)
0M
1c
1""
0*
1m
1I
1t
0n
#396
0c
0Q
0-
0X
0g
0""
0Z
0m
0I
0t
0)
#401
1c
1Q
1-
1X
1g
1""
1Z
1m
1I
1t
1)
#406
0Q
0-
0X
0g
1v
1&
0Z
0)
0c
1y
0""
0m
0I
0t
#411
1c
1Q
1-
1X
1g
b01 h
1""
1Z
1m
1I
b00 >
1)
1t
#416
0c
0Q
0-
0X
0g
0""
0Z
0m
0I
0t
0)
#421
1Q
1`
1-
1X
1g
b10 h
1Z
b01 >
1)
1M
1c
1""
1*
1m
1|
1I
1t
1n
#426
0c
0Q
0-
0X
0g
0""
0Z
0m
0I
0t
0)
#431
1Q
0`
1-
1X
1g
1Z
1)
0M
1c
1""
0*
1m
0|
1I
1t
0n
#436
0c
0Q
0-
0X
0g
0""
0Z
0m
0I
0t
0)
#441
1c
1Q
1-
1X
1g
1""
1Z
1m
1I
1t
1)
#446
0Q
0-
0X
0g
0v
0&
0Z
0)
0c
0y
0""
0m
0I
0t
#451
1c
1Q
1-
1X
1g
b01 h
1""
1Z
1m
1I
b10 >
1)
1t
#456
0c
0Q
0-
0X
0g
0""
0Z
0m
0I
0t
0)
#461
1Q
1`
1-
1X
1g
b00 h
1~
1"&
1Z
b01 >
1)
1M
1c
1""
1*
1m
1I
1t
1n
#466
0c
0Q
0-
0X
0g
0""
0Z
0m
0I
0t
0)
#471
1Q
0`
1-
1X
1g
0~
0"&
1Z
1)
0M
1c
1""
0*
1m
1I
1t
0n
#476
0c
0Q
0-
0X
0g
0""
0Z
0m
0I
0t
0)
#481
1c
1Q
1-
1X
1g
1""
1Z
1m
1I
1t
1)
#486
0Q
0-
0X
0g
1v
1&
0Z
0)
0c
1y
0""
0m
0I
0t
#491
1c
1Q
1-
1X
1g
b01 h
1""
1Z
1m
1I
b00 >
1)
1t
#496
0c
0Q
0-
0X
0g
0""
0Z
0m
0I
0t
0)
#501
1Q
1`
1-
1X
1g
b10 h
1Z
b01 >
1)
1M
1c
1""
1*
1m
1|
1I
1t
1n
#506
0c
0Q
0-
0X
0g
0""
0Z
0m
0I
0t
0)
#511
1Q
0`
1-
1X
1g
1Z
1)
0M
1c
1""
0*
1m
0|
1I
1t
0n
#516
0c
0Q
0-
0X
0g
0""
0Z
0m
0I
0t
0)
#521
1c
1Q
1-
1X
1g
1""
1Z
1m
1I
1t
1)
#526
0Q
0-
0X
0g
0v
0&
0Z
0)
0c
0y
0""
0m
0I
0t
#531
1c
1Q
1-
1X
1g
b01 h
1""
1Z
1m
1I
b10 >
1)
1t
#536
0c
0Q
0-
0X
0g
0""
0Z
0m
0I
0t
0)
#541
1Q
1`
1-
1X
1g
b00 h
1~
1"&
1Z
b01 >
1)
1M
1c
1""
1*
1m
1I
1t
1n
#546
0c
0Q
0-
0X
0g
0""
0Z
0m
0I
0t
0)
#551
1Q
0`
1-
1X
1g
0~
0"&
1Z
1)
0M
1c
1""
0*
1m
1I
1t
0n
#556
0c
0Q
0-
0X
0g
0""
0Z
0m
0I
0t
0)
#561
1c
1Q
1-
1X
1g
1""
1Z
1m
1I
1t
1)
#566
0Q
0-
0X
0g
1v
1&
0Z
0)
0c
1y
0""
0m
0I
0t
#571
1c
1Q
1-
1X
1g
b01 h
1""
1Z
1m
1I
b00 >
1)
1t
#576
0c
0Q
0-
0X
0g
0""
0Z
0m
0I
0t
0)
#581
1Q
1`
1-
1X
1g
b10 h
1Z
b01 >
1)
1M
1c
1""
1*
1m
1|
1I
1t
1n
#586
0c
0Q
0-
0X
0g
0""
0Z
0m
0I
0t
0)
#591
1Q
0`
1-
1X
1g
1Z
1)
0M
1c
1""
0*
1m
0|
1I
1t
0n
#596
0c
0Q
0-
0X
0g
0""
0Z
0m
0I
0t
0)
#601
1c
1Q
1-
1X
1g
1""
1Z
1m
1I
1t
1)
#606
0Q
0-
0X
0g
0v
0&
0Z
0)
0c
0y
0""
0m
0I
0t
#611
1c
1Q
1-
1X
1g
b01 h
1""
1Z
1m
1I
b10 >
1)
1t
#616
0c
0Q
0-
0X
0g
0""
0Z
0m
0I
0t
0)
#621
1Q
1`
1-
1X
1g
b00 h
1~
1"&
1Z
b01 >
1)
1M
1c
1""
1*
1m
1I
1t
1n
#626
0c
0Q
0-
0X
0g
0""
0Z
0m
0I
0t
0)
#631
1Q
0`
1-
1X
1g
0~
0"&
1Z
1)
0M
1c
1""
0*
1m
1I
1t
0n
#636
0c
0Q
0-
0X
0g
0""
0Z
0m
0I
0t
0)
#641
1c
1Q
1-
1X
1g
1""
1Z
1m
1I
1t
1)
#646
0Q
0-
0X
0g
1v
1&
0Z
0)
0c
1y
0""
0m
0I
0t
#651
1c
1Q
1-
1X
1g
b01 h
1""
1Z
1m
1I
b00 >
1)
1t
#656
0c
0Q
0-
0X
0g
0""
0Z
0m
0I
0t
0)
#661
1Q
1`
1-
1X
1g
b10 h
1Z
b01 >
1)
1M
1c
1""
1*
1m
1|
1I
1t
1n
#666
0c
0Q
0-
0X
0g
0""
0Z
0m
0I
0t
0)
#671
1Q
0`
1-
1X
1g
1Z
1)
0M
1c
1""
0*
1m
0|
1I
1t
0n
#676
0c
0Q
0-
0X
0g
0""
0Z
0m
0I
0t
0)
#681
1c
1Q
1-
1X
1g
1""
1Z
1m
1I
1t
1)
#686
0Q
0-
0X
0g
0v
0&
0Z
0)
0c
0y
0""
0m
0I
0t
#691
1c
1Q
1-
1X
1g
b01 h
1""
1Z
1m
1I
b10 >
1)
1t
#696
0c
0Q
0-
0X
0g
0""
0Z
0m
0I
0t
0)
#701
1Q
1`
1-
1X
1g
b00 h
1~
1"&
1Z
b01 >
1)
1M
1c
1""
1*
1m
1I
1t
1n
#706
0c
0Q
0-
0X
0g
0""
0Z
0m
0I
0t
0)
#711
1Q
0`
1-
1X
1g
0~
0"&
1Z
1)
0M
1c
1""
0*
1m
1I
1t
0n
#716
0c
0Q
0-
0X
0g
0""
0Z
0m
0I
0t
0)
#721
1c
1Q
1-
1X
1g
1""
1Z
1m
1I
1t
1)
#726
0Q
0-
0X
0g
1v
1&
0Z
0)
0c
1y
0""
0m
0I
0t
#731
1c
1Q
1-
1X
1g
b01 h
1""
1Z
1m
1I
b00 >
1)
1t
#736
0c
0Q
0-
0X
0g
0""
0Z
0m
0I
0t
0)
#741
1Q
1`
1-
1X
1g
b10 h
1Z
b01 >
1)
1M
1c
1""
1*
1m
1|
1I
1t
1n
#746
0c
0Q
0-
0X
0g
0""
0Z
0m
0I
0t
0)
#751
1Q
0`
1-
1X
1g
1Z
1)
0M
1c
1""
0*
1m
0|
1I
1t
0n
#756
0c
0Q
0-
0X
0g
0""
0Z
0m
0I
0t
0)
#761
1c
1Q
1-
1X
1g
1""
1Z
1m
1I
1t
1)
#766
0Q
0-
0X
0g
0v
0&
0Z
0)
0c
0y
0""
0m
0I
0t
#771
1c
1Q
1-
1X
1g
b01 h
1""
1Z
1m
1I
b10 >
1)
1t
#776
0c
0Q
0-
0X
0g
0""
0Z
0m
0I
0t
0)
#781
1Q
1`
1-
1X
1g
b00 h
1~
1"&
1Z
b01 >
1)
1M
1c
1""
1*
1m
1I
1t
1n
#786
0c
0Q
0-
0X
0g
0""
0Z
0m
0I
0t
0)
#791
1Q
0`
1-
1X
1g
0~
0"&
1Z
1)
0M
1c
1""
0*
1m
1I
1t
0n
#796
0c
0Q
0-
0X
0g
0""
0Z
0m
0I
0t
0)
#801
1c
1Q
1-
1X
1g
1""
1Z
1m
1I
1t
1)
#806
0Q
0-
0X
0g
1v
1&
0Z
0)
0c
1y
0""
0m
0I
0t
#811
1c
1Q
1-
1X
1g
b01 h
1""
1Z
1m
1I
b00 >
1)
1t
#816
0c
0Q
0-
0X
0g
0""
0Z
0m
0I
0t
0)
#821
1Q
1`
1-
1X
1g
b10 h
1Z
b01 >
1)
1M
1c
1""
1*
1m
1|
1I
1t
1n
#826
0c
0Q
0-
0X
0g
0""
0Z
0m
0I
0t
0)
#831
1Q
0`
1-
1X
1g
1Z
1)
0M
1c
1""
0*
1m
0|
1I
1t
0n
#836
0c
0Q
0-
0X
0g
0""
0Z
0m
0I
0t
0)
#841
1c
1Q
1-
1X
1g
1""
1Z
1m
1I
1t
1)
#846
0Q
0-
0X
0g
0v
0&
0Z
0)
0c
0y
0""
0m
0I
0t
#851
1c
1Q
1-
1X
1g
b01 h
1""
1Z
1m
1I
b10 >
1)
1t
#856
0c
0Q
0-
0X
0g
0""
0Z
0m
0I
0t
0)
#861
1Q
1`
1-
1X
1g
b00 h
1~
1"&
1Z
b01 >
1)
1M
1c
1""
1*
1m
1I
1t
1n
#866
0c
0Q
0-
0X
0g
0""
0Z
0m
0I
0t
0)
#871
1Q
0`
1-
1X
1g
0~
0"&
1Z
1)
0M
1c
1""
0*
1m
1I
1t
0n
#876
0c
0Q
0-
0X
0g
0""
0Z
0m
0I
0t
0)
#881
1c
1Q
1-
1X
1g
1""
1Z
1m
1I
1t
1)
#886
0Q
0-
0X
0g
1v
1&
0Z
0)
0c
1y
0""
0m
0I
0t
#891
1c
1Q
1-
1X
1g
b01 h
1""
1Z
1m
1I
b00 >
1)
1t
#896
0c
0Q
0-
0X
0g
0""
0Z
0m
0I
0t
0)
#901
1Q
1`
1-
1X
1g
b10 h
1Z
b01 >
1)
1M
1c
1""
1*
1m
1|
1I
1t
1n
#906
0c
0Q
0-
0X
0g
0""
0Z
0m
0I
0t
0)
#911
1Q
0`
1-
1X
1g
1Z
1)
0M
1c
1""
0*
1m
0|
1I
1t
0n
#916
0c
0Q
0-
0X
0g
0""
0Z
0m
0I
0t
0)
#921
1c
1Q
1-
1X
1g
1""
1Z
1m
1I
1t
1)
#926
0Q
0-
0X
0g
0v
0&
0Z
0)
0c
0y
0""
0m
0I
0t
#931
1c
1Q
1-
1X
1g
b01 h
1""
1Z
1m
1I
b10 >
1)
1t
#936
0c
0Q
0-
0X
0g
0""
0Z
0m
0I
0t
0)
#941
1Q
1`
1-
1X
1g
b00 h
1~
1"&
1Z
b01 >
1)
1M
1c
1""
1*
1m
1I
1t
1n
#946
0c
0Q
0-
0X
0g
0""
0Z
0m
0I
0t
0)
#951
1Q
0`
1-
1X
1g
0~
0"&
1Z
1)
0M
1c
1""
0*
1m
1I
1t
0n
#956
0c
0Q
0-
0X
0g
0""
0Z
0m
0I
0t
0)
#961
1c
1Q
1-
1X
1g
1""
1Z
1m
1I
1t
1)
#966
0Q
0-
0X
0g
1v
1&
0'
0Z
0)
0c
0F
1y
0""
0m
0I
0A
0t
#971
1Q
1-
1X
1g
b10 4
b01 h
1Z
b00 >
1)
b01 b
1c
1""
1m
1I
1t
#976
0c
0Q
0-
0X
0g
0""
0Z
0m
0I
0t
0)
#981
1Q
1`
1-
1X
1g
b01 4
1Y
b10 h
1Z
b01 >
1)
1M
b00 b
1c
1""
1*
1]
1O
1m
1|
1I
1t
1;
1n
#986
0c
0Q
0-
0X
0g
0""
0Z
0m
0I
0t
0)
#991
1Q
0`
1-
1X
1g
0Y
1Z
1)
0M
1c
1""
0*
0]
1H
0O
1m
0|
1I
1t
0;
0n
#996
0c
0Q
0-
0X
0g
0""
0Z
0m
0I
0t
0)
#1001
1c
1Q
1-
1X
1g
b00000001 w
1""
1Z
1m
1I
1t
1)
#1006
0Q
0-
0X
0g
0v
0&
0Z
0)
0c
0y
0""
0m
0I
0t
#1011
1Q
1-
1X
1g
b01 h
b00000010 w
1Z
b10 >
1)
1c
1""
1m
1I
1t
#1016
0c
0Q
0-
0X
0g
0""
0Z
0m
0I
0t
0)
#1021
1Q
1`
1-
1X
1g
b00 h
b00000011 w
1~
1"&
1Z
b01 >
1)
1M
1c
1""
1*
1m
1I
1t
1n
#1026
0c
0Q
0-
0X
0g
0""
0Z
0m
0I
0t
0)
#1031
1Q
0`
1-
1X
1g
b00000100 w
0~
0"&
1Z
1)
0M
1c
1""
0*
1m
1I
1t
0n
#1036
0c
0Q
0-
0X
0g
0""
0Z
0m
0I
0t
0)
#1041
1c
1Q
1-
1X
1g
b00000101 w
1""
1Z
1m
1I
1t
1)
#1046
0Q
0-
0X
0g
1v
1&
0Z
0)
0c
1y
0""
0m
0I
0t
#1051
1Q
1-
1X
1g
b01 h
b00000110 w
1Z
b00 >
1)
1c
1""
1m
1I
1t
#1056
0c
0Q
0-
0X
0g
0""
0Z
0m
0I
0t
0)
#1061
1Q
1`
1-
1X
1g
b10 h
b00000111 w
1Z
b01 >
1)
1M
1c
1""
1*
1m
1|
1I
1t
1n
#1066
0c
0Q
0-
0X
0g
0""
0Z
0m
0I
0t
0)
#1071
1Q
0`
1-
1X
1g
b00001000 w
1Z
1)
0M
1c
1""
0*
1m
0|
1I
1t
0n
#1076
0c
0Q
0-
0X
0g
0""
0Z
0m
0I
0t
0)
#1081
1c
1Q
1-
1X
1g
b00001001 w
1""
1Z
1m
1I
1t
1)
#1086
0Q
0-
0X
0g
0v
0&
0Z
0)
0c
0y
0""
0m
0I
0t
#1091
1Q
1-
1X
1g
b01 h
b00001010 w
1Z
b10 >
1)
1c
1""
1m
1I
1t
#1096
0c
0Q
0-
0X
0g
0""
0Z
0m
0I
0t
0)
#1101
1Q
1`
1-
1X
1g
b00 h
b00001011 w
1~
1"&
1Z
b01 >
1)
1M
1c
1""
1*
1m
1I
1t
1n
#1106
0c
0Q
0-
0X
0g
0""
0Z
0m
0I
0t
0)
#1111
1Q
0`
1-
1X
1g
b00001100 w
0~
0"&
1Z
1)
0M
1c
1""
0*
1m
1I
1t
0n
#1116
0c
0Q
0-
0X
0g
0""
0Z
0m
0I
0t
0)
#1121
1c
1Q
1-
1X
1g
b00001101 w
1""
1Z
1m
1I
1t
1)
#1126
0Q
0-
0X
0g
1v
1&
0Z
0)
0c
1y
0""
0m
0I
0t
#1131
1Q
1-
1X
1g
b01 h
b00001110 w
1Z
b00 >
1)
1c
1""
1m
1I
1t
#1136
0c
0Q
0-
0X
0g
0""
0Z
0m
0I
0t
0)
#1141
1Q
1`
1-
1X
1g
b10 h
b00001111 w
1Z
b01 >
1)
1M
1c
1""
1*
1m
1|
1I
1t
1n
#1146
0c
0Q
0-
0X
0g
0""
0Z
0m
0I
0t
0)
#1151
1Q
0`
1-
1X
1g
b00010000 w
1Z
1)
0M
1c
1""
0*
1m
0|
1I
1t
0n
#1156
0c
0Q
0-
0X
0g
0""
0Z
0m
0I
0t
0)
#1161
1c
1Q
1-
1X
1g
b00010001 w
1""
1Z
1m
1I
1t
1)
#1166
0Q
0-
0X
0g
0v
0&
0Z
0)
0c
0y
0""
0m
0I
0t
#1171
1Q
1-
1X
1g
b01 h
b00010010 w
1Z
b10 >
1)
1c
1""
1m
1I
1t
#1176
0c
0Q
0-
0X
0g
0""
0Z
0m
0I
0t
0)
#1181
1Q
1`
1-
1X
1g
b00 h
b00010011 w
1~
1"&
1Z
b01 >
1)
1M
1c
1""
1*
1m
1I
1t
1n
#1186
0c
0Q
0-
0X
0g
0""
0Z
0m
0I
0t
0)
#1191
1Q
0`
1-
1X
1g
b00010100 w
0~
0"&
1Z
1)
0M
1c
1""
0*
1m
1I
1t
0n
#1196
0c
0Q
0-
0X
0g
0""
0Z
0m
0I
0t
0)
#1201
1c
1Q
1-
1X
1g
b00010101 w
1""
1Z
1m
1I
1t
1)
#1206
0Q
0-
0X
0g
1v
1&
0Z
0)
0c
1y
0""
0m
0I
0t
#1211
1Q
1-
1X
1g
b01 h
b00010110 w
1Z
b00 >
1)
1c
1""
1m
1I
1t
#1216
0c
0Q
0-
0X
0g
0""
0Z
0m
0I
0t
0)
#1221
1Q
1`
1-
1X
1g
b10 h
b00010111 w
1Z
b01 >
1)
1M
1c
1""
1*
1m
1|
1I
1t
1n
#1226
0c
0Q
0-
0X
0g
0""
0Z
0m
0I
0t
0)
#1231
1Q
0`
1-
1X
1g
b00011000 w
1Z
1)
0M
1c
1""
0*
1m
0|
1I
1t
0n
#1236
0c
0Q
0-
0X
0g
0""
0Z
0m
0I
0t
0)
#1241
1c
1Q
1-
1X
1g
b00011001 w
1""
1Z
1m
1I
1t
1)
#1246
0Q
0-
0X
0g
0v
0&
0Z
0)
0c
0y
0""
0m
0I
0t
#1251
1Q
1-
1X
1g
b01 h
b00011010 w
1Z
b10 >
1)
1c
1""
1m
1I
1t
#1256
0c
0Q
0-
0X
0g
0""
0Z
0m
0I
0t
0)
#1261
1Q
1`
1-
1X
1g
b00 h
b00011011 w
1~
1"&
1Z
b01 >
1)
1M
1c
1""
1*
1m
1I
1t
1n
#1266
0c
0Q
0-
0X
0g
0""
0Z
0m
0I
0t
0)
#1271
1Q
0`
1-
1X
1g
b00011100 w
0~
0"&
1Z
1)
0M
1c
1""
0*
1m
1I
1t
0n
