InterVox_Transmitter/test_run_dir/interVox_Encoder_should_pass/interVox_Encoder.vcd
$date
2022-09-26T15:06+0000
$end
$version
0.2
$end
$comment

$end
$timescale 1ns  $end
$scope module interVox_Encoder $end
 $var wire 8 ! BiPhase_CLK_CNTR $end
 $var wire 1 " DATA_OUT_REG $end
 $var wire 1 # io_DATA_O $end
 $var wire 2 $ current_state $end
 $var wire 1 % hasOne $end
 $var wire 1 & io_SDATA_IN $end
 $var wire 1 ' clock $end
 $var wire 1 ( reset $end
$upscope $end
$enddefinitions $end
$dumpvars
0%
0"
0&
0#
b00000000 !
b00 $
0'
0(
$end
#0
1(
#1
1'
#6
0'
0(
#11
b00000001 !
1'
#16
0'
#21
b00000000 !
1'
b10 $
#26
0'
#31
b00000001 !
1'
#36
0'
#41
b00000000 !
1"
1#
1'
#46
1&
0'
#51
b00000001 !
1'
#56
0'
#61
b00000000 !
1%
0"
0#
1'
#66
0'
#71
b00000001 !
1'
#76
0'
#81
b00000000 !
0%
1'
#86
0&
0'
#91
b00000001 !
1'
#96
0'
#101
b00000000 !
1"
1#
1'
#106
0'
#111
b00000001 !
1'
#116
0'
#121
b00000000 !
0"
0#
1'
#126
0'
#131
b00000001 !
1'
#136
0'
#141
b00000000 !
1"
1#
1'
#146
0'
#151
b00000001 !
1'
#156
0'
#161
b00000000 !
0"
0#
1'
#166
1&
0'
#171
b00000001 !
1'
#176
0'
#181
b00000000 !
1%
1"
1#
1'
#186
0'
#191
b00000001 !
1'
#196
0'
#201
b00000000 !
0%
1'
#206
0&
0'
#211
b00000001 !
1'
#216
0'
#221
b00000000 !
0"
0#
1'
#226
0'
#231
b00000001 !
1'
#236
0'
#241
b00000000 !
1"
1#
1'
#246
1&
0'
#251
b00000001 !
1'
#256
0'
#261
b00000000 !
1%
0"
0#
1'
#266
0'
#271
b00000001 !
1'
#276
0'
#281
b00000000 !
0%
1'
#286
0&
0'
#291
b00000001 !
1'
#296
0'
#301
b00000000 !
1"
1#
1'
#306
0'
#311
b00000001 !
1'
#316
0'
#321
b00000000 !
0"
0#
1'
#326
0'
#331
b00000001 !
1'
#336
0'
#341
b00000000 !
1"
1#
1'
#346
0'
#351
b00000001 !
1'
#356
0'
#361
b00000000 !
0"
0#
1'
#366
1&
0'
#371
b00000001 !
1'
#376
0'
#381
b00000000 !
1%
1"
1#
1'
#386
0'
#391
b00000001 !
1'
#396
0'
#401
b00000000 !
0%
1'
#406
0&
0'
#411
b00000001 !
1'
#416
0'
#421
b00000000 !
0"
0#
1'
#426
0'
#431
b00000001 !
1'
#436
0'
#441
b00000000 !
1"
1#
1'
#446
1&
0'
#451
b00000001 !
1'
#456
0'
#461
b00000000 !
1%
0"
0#
1'
#466
0'
#471
b00000001 !
1'
#476
0'
#481
b00000000 !
0%
1'
#486
0&
0'
#491
b00000001 !
1'
#496
0'
#501
b00000000 !
1"
1#
1'
#506
0'
#511
b00000001 !
1'
#516
0'
#521
b00000000 !
0"
0#
1'
#526
0'
#531
b00000001 !
1'
#536
0'
#541
b00000000 !
1"
1#
1'
#546
0'
#551
b00000001 !
1'
#556
0'
#561
b00000000 !
0"
0#
1'
#566
1&
0'
#571
b00000001 !
1'
#576
0'
#581
b00000000 !
1%
1"
1#
1'
#586
0'
#591
b00000001 !
1'
#596
0'
#601
b00000000 !
0%
1'
#606
0&
0'
#611
b00000001 !
1'
#616
0'
#621
b00000000 !
0"
0#
1'
#626
0'
#631
b00000001 !
1'
#636
0'
#641
b00000000 !
1"
1#
1'
#646
1&
0'
#651
b00000001 !
1'
#656
0'
#661
b00000000 !
1%
0"
0#
1'
#666
0'
#671
b00000001 !
1'
#676
0'
#681
b00000000 !
0%
1'
#686
0&
0'
#691
b00000001 !
1'
#696
0'
#701
b00000000 !
1"
1#
1'
#706
0'
#711
b00000001 !
1'
#716
0'
#721
b00000000 !
0"
0#
1'
#726
0'
#731
b00000001 !
1'
#736
0'
#741
b00000000 !
1"
1#
1'
#746
0'
#751
b00000001 !
1'
#756
0'
#761
b00000000 !
0"
0#
1'
#766
1&
0'
#771
b00000001 !
1'
#776
0'
#781
b00000000 !
1%
1"
1#
1'
#786
0'
#791
b00000001 !
1'
#796
0'
#801
b00000000 !
0%
1'
#806
0&
0'
#811
b00000001 !
1'
#816
0'
#821
b00000000 !
0"
0#
1'
#826
0'
#831
b00000001 !
1'
#836
0'
#841
b00000000 !
1"
1#
1'
#846
1&
0'
#851
b00000001 !
1'
#856
0'
#861
b00000000 !
1%
0"
0#
1'
#866
0'
#871
b00000001 !
1'
#876
0'
#881
b00000000 !
0%
1'
#886
0&
0'
#891
b00000001 !
1'
#896
0'
#901
b00000000 !
1"
1#
1'
#906
0'
#911
b00000001 !
1'
#916
0'
#921
b00000000 !
0"
0#
1'
#926
0'
#931
b00000001 !
1'
#936
0'
#941
b00000000 !
1"
1#
1'
#946
0'
#951
b00000001 !
1'
#956
0'
#961
b00000000 !
0"
0#
1'
#966
1&
0'
#971
b00000001 !
1'
#976
0'
#981
b00000000 !
1%
1"
1#
1'
#986
0'
#991
b00000001 !
1'
#996
0'
#1001
b00000000 !
0%
1'
#1006
0&
0'
#1011
b00000001 !
1'
#1016
0'
#1021
b00000000 !
0"
0#
1'
#1026
0'
#1031
b00000001 !
1'
#1036
0'
#1041
b00000000 !
1"
1#
1'
#1046
1&
0'
#1051
b00000001 !
1'
#1056
0'
#1061
b00000000 !
1%
0"
0#
1'
#1066
0'
#1071
b00000001 !
1'
#1076
0'
#1081
b00000000 !
0%
1'
#1086
0&
0'
#1091
b00000001 !
1'
#1096
0'
#1101
b00000000 !
1"
1#
1'
#1106
0'
#1111
b00000001 !
1'
#1116
0'
#1121
b00000000 !
0"
0#
1'
#1126
0'
#1131
b00000001 !
1'
#1136
0'
#1141
b00000000 !
1"
1#
1'
#1146
0'
#1151
b00000001 !
1'
#1156
0'
#1161
b00000000 !
0"
0#
1'
#1166
1&
0'
#1171
b00000001 !
1'
#1176
0'
#1181
b00000000 !
1%
1"
1#
1'
#1186
0'
#1191
b00000001 !
1'
#1196
0'
#1201
b00000000 !
0%
1'
#1206
0&
0'
#1211
b00000001 !
1'
#1216
0'
#1221
b00000000 !
0"
0#
1'
#1226
0'
#1231
b00000001 !
1'
#1236
0'
#1241
b00000000 !
1"
1#
1'
#1246
1&
0'
#1251
b00000001 !
1'
#1256
0'
#1261
b00000000 !
1%
0"
0#
1'
#1266
0'
#1271
b00000001 !
1'
#1276
0'
#1281
b00000000 !
0%
1'
#1286
0&
0'
#1291
b00000001 !
1'
#1296
0'
#1301
b00000000 !
1"
1#
1'
#1306
0'
#1311
b00000001 !
1'
#1316
0'
#1321
b00000000 !
0"
0#
1'
#1326
0'
#1331
b00000001 !
1'
#1336
0'
#1341
b00000000 !
1"
1#
1'
#1346
0'
#1351
b00000001 !
1'
#1356
0'
#1361
b00000000 !
0"
0#
1'
#1366
1&
0'
#1371
b00000001 !
1'
#1376
0'
#1381
b00000000 !
1%
1"
1#
1'
#1386
0'
#1391
b00000001 !
1'
#1396
0'
#1401
b00000000 !
0%
1'
#1406
0&
0'
#1411
b00000001 !
1'
#1416
0'
#1421
b00000000 !
0"
0#
1'
#1426
0'
#1431
b00000001 !
1'
#1436
0'
#1441
b00000000 !
1"
1#
1'
#1446
1&
0'
#1451
b00000001 !
1'
#1456
0'
#1461
b00000000 !
1%
0"
0#
1'
#1466
0'
#1471
b00000001 !
1'
#1476
0'
#1481
b00000000 !
0%
1'
#1486
0&
0'
#1491
b00000001 !
1'
#1496
0'
#1501
b00000000 !
1"
1#
1'
#1506
0'
#1511
b00000001 !
1'
#1516
0'
#1521
b00000000 !
0"
0#
1'
#1526
0'
#1531
b00000001 !
1'
#1536
0'
#1541
b00000000 !
1"
1#
1'
#1546
0'
#1551
b00000001 !
1'
#1556
0'
#1561
b00000000 !
0"
0#
1'
#1566
1&
0'
#1571
b00000001 !
1'
#1576
0'
#1581
b00000000 !
1%
1"
1#
1'
#1586
0'
#1591
b00000001 !
1'
#1596
0'
#1601
b00000000 !
0%
1'
#1606
0&
0'
#1611
b00000001 !
1'
#1616
0'
#1621
b00000000 !
0"
0#
1'
#1626
0'
#1631
b00000001 !
1'
#1636
0'
#1641
b00000000 !
1"
1#
1'
#1646
1&
0'
#1651
b00000001 !
1'
#1656
0'
#1661
b00000000 !
1%
0"
0#
1'
#1666
0'
#1671
b00000001 !
1'
#1676
0'
#1681
b00000000 !
0%
1'
#1686
0&
0'
#1691
b00000001 !
1'
#1696
0'
#1701
b00000000 !
1"
1#
1'
#1706
0'
#1711
b00000001 !
1'
#1716
0'
#1721
b00000000 !
0"
0#
1'
#1726
0'
#1731
b00000001 !
1'
#1736
0'
#1741
b00000000 !
1"
1#
1'
#1746
0'
#1751
b00000001 !
1'
#1756
0'
#1761
b00000000 !
0"
0#
1'
#1766
1&
0'
#1771
b00000001 !
1'
#1776
0'
#1781
b00000000 !
1%
1"
1#
1'
#1786
0'
#1791
b00000001 !
1'
#1796
0'
#1801
b00000000 !
0%
1'
#1806
0&
0'
#1811
b00000001 !
1'
#1816
0'
#1821
b00000000 !
0"
0#
1'
#1826
0'
#1831
b00000001 !
1'
#1836
0'
#1841
b00000000 !
1"
1#
1'
#1846
1&
0'
#1851
b00000001 !
1'
#1856
0'
#1861
b00000000 !
1%
0"
0#
1'
#1866
0'
#1871
b00000001 !
1'
#1876
0'
#1881
b00000000 !
0%
1'
#1886
0&
0'
#1891
b00000001 !
1'
#1896
0'
#1901
b00000000 !
1"
1#
1'
#1906
0'
#1911
b00000001 !
1'
#1916
0'
#1921
b00000000 !
0"
0#
1'
#1926
0'
#1931
b00000001 !
1'
#1936
0'
#1941
b00000000 !
1"
1#
1'
#1946
0'
#1951
b00000001 !
1'
#1956
0'
#1961
b00000000 !
0"
0#
1'
#1966
1&
0'
#1971
b00000001 !
1'
#1976
0'
#1981
b00000000 !
1%
1"
1#
1'
#1986
0'
#1991
b00000001 !
1'
#1996
0'
#2001
b00000000 !
0%
1'
#2006
0&
0'
#2011
b00000001 !
1'
#2016
0'
#2021
b00000000 !
0"
0#
1'
#2026
0'
#2031
b00000001 !
1'
#2036
0'
#2041
b00000000 !
1"
1#
1'
#2046
1&
0'
#2051
b00000001 !
1'
#2056
0'
#2061
b00000000 !
1%
0"
0#
1'
#2066
0'
#2071
b00000001 !
1'
#2076
0'
#2081
b00000000 !
0%
1'
#2086
0&
0'
#2091
b00000001 !
1'
#2096
0'
#2101
b00000000 !
1"
1#
1'
#2106
0'
#2111
b00000001 !
1'
#2116
0'
#2121
b00000000 !
0"
0#
1'
#2126
0'
#2131
b00000001 !
1'
#2136
0'
#2141
b00000000 !
1"
1#
1'
#2146
0'
#2151
b00000001 !
1'
#2156
0'
#2161
b00000000 !
0"
0#
1'
#2166
1&
0'
#2171
b00000001 !
1'
#2176
0'
#2181
b00000000 !
1%
1"
1#
1'
#2186
0'
#2191
b00000001 !
1'
#2196
0'
#2201
b00000000 !
0%
1'
#2206
0&
0'
#2211
b00000001 !
1'
#2216
0'
#2221
b00000000 !
0"
0#
1'
#2226
0'
#2231
b00000001 !
1'
#2236
0'
#2241
b00000000 !
1"
1#
1'
#2246
1&
0'
#2251
b00000001 !
1'
#2256
0'
#2261
b00000000 !
1%
0"
0#
1'
#2266
0'
#2271
b00000001 !
1'
#2276
0'
#2281
b00000000 !
0%
1'
#2286
0&
0'
#2291
b00000001 !
1'
#2296
0'
#2301
b00000000 !
1"
1#
1'
#2306
0'
#2311
b00000001 !
1'
#2316
0'
#2321
b00000000 !
0"
0#
1'
#2326
0'
#2331
b00000001 !
1'
#2336
0'
#2341
b00000000 !
1"
1#
1'
#2346
0'
#2351
b00000001 !
1'
#2356
0'
#2361
b00000000 !
0"
0#
1'
#2366
1&
0'
#2371
b00000001 !
1'
#2376
0'
#2381
b00000000 !
1%
1"
1#
1'
#2386
0'
#2391
b00000001 !
1'
#2396
0'
#2401
b00000000 !
0%
1'
#2406
0&
0'
#2411
b00000001 !
1'
#2416
0'
#2421
b00000000 !
0"
0#
1'
#2426
0'
#2431
b00000001 !
1'
#2436
0'
#2441
b00000000 !
1"
1#
1'
#2446
1&
0'
#2451
b00000001 !
1'
#2456
0'
#2461
b00000000 !
1%
0"
0#
1'
#2466
0'
#2471
b00000001 !
1'
#2476
0'
#2481
b00000000 !
0%
1'
#2486
0&
0'
#2491
b00000001 !
1'
#2496
0'
#2501
b00000000 !
1"
1#
1'
#2506
0'
#2511
b00000001 !
1'
#2516
0'
#2521
b00000000 !
0"
0#
1'
#2526
0'
#2531
b00000001 !
1'
#2536
0'
#2541
b00000000 !
1"
1#
1'
#2546
0'
#2551
b00000001 !
1'
#2556
0'
#2561
b00000000 !
0"
0#
1'
#2566
1&
0'
#2571
b00000001 !
1'
#2576
0'
#2581
b00000000 !
1%
1"
1#
1'
#2586
0'
#2591
b00000001 !
1'
#2596
0'
#2601
b00000000 !
0%
1'
#2606
0&
0'
#2611
b00000001 !
1'
#2616
0'
#2621
b00000000 !
0"
0#
1'
#2626
0'
#2631
b00000001 !
1'
#2636
0'
#2641
b00000000 !
1"
1#
1'
#2646
1&
0'
#2651
b00000001 !
1'
#2656
0'
#2661
b00000000 !
1%
0"
0#
1'
#2666
0'
#2671
b00000001 !
1'
#2676
0'
#2681
b00000000 !
0%
1'
#2686
0&
0'
#2691
b00000001 !
1'
#2696
0'
#2701
b00000000 !
1"
1#
1'
#2706
0'
#2711
b00000001 !
1'
#2716
0'
#2721
b00000000 !
0"
0#
1'
#2726
0'
#2731
b00000001 !
1'
#2736
0'
#2741
b00000000 !
1"
1#
1'
#2746
0'
#2751
b00000001 !
1'
#2756
0'
#2761
b00000000 !
0"
0#
1'
#2766
1&
0'
#2771
b00000001 !
1'
#2776
0'
#2781
b00000000 !
1%
1"
1#
1'
#2786
0'
#2791
b00000001 !
1'
#2796
0'
#2801
b00000000 !
0%
1'
#2806
0&
0'
#2811
b00000001 !
1'
#2816
0'
#2821
b00000000 !
0"
0#
1'
#2826
0'
#2831
b00000001 !
1'
#2836
0'
#2841
b00000000 !
1"
1#
1'
#2846
1&
0'
#2851
b00000001 !
1'
#2856
0'
#2861
b00000000 !
1%
0"
0#
1'
#2866
0'
#2871
b00000001 !
1'
#2876
0'
#2881
b00000000 !
0%
1'
#2886
0&
0'
#2891
b00000001 !
1'
#2896
0'
#2901
b00000000 !
1"
1#
1'
#2906
0'
#2911
b00000001 !
1'
#2916
0'
#2921
b00000000 !
0"
0#
1'
#2926
0'
#2931
b00000001 !
1'
#2936
0'
#2941
b00000000 !
1"
1#
1'
#2946
0'
#2951
b00000001 !
1'
#2956
0'
#2961
b00000000 !
0"
0#
1'
#2966
1&
0'
#2971
b00000001 !
1'
#2976
0'
#2981
b00000000 !
1%
1"
1#
1'
#2986
0'
#2991
b00000001 !
1'
#2996
0'
#3001
b00000000 !
0%
1'
#3006
0&
0'
