InterVox_Transmitter/test_run_dir/interVox_Encoder_should_pass/interVox_Encoder.vcd
$date
2022-11-25T16:59+0000
$end
$version
0.2
$end
$comment

$end
$timescale 1ns  $end
$scope module interVox_Encoder $end
 $var wire 1 % io_BCLK_O $end
 $var wire 1 ' io_LRCLK_O $end
 $var wire 1 ) io_MCLK_O $end
 $var wire 1 * io_NXT_FRAME $end
 $var wire 1 , io_SDATA_O $end
 $var wire 8 0 BiPhase_CLK_CNTR $end
 $var wire 1 7 synced $end
 $var wire 1 < io_LRCLK_IN $end
 $var wire 1 > BFR1 $end
 $var wire 1 @ io_DATA_O $end
 $var wire 2 B current_state $end
 $var wire 1 M BFR $end
 $var wire 1 Q io_SDATA_IN $end
 $var wire 1 V clock $end
 $var wire 1 b bi_phase_enc $end
 $var wire 8 c bitCntr $end
 $var wire 1 d io_BCLK_IN $end
 $var wire 1 g reset $end
  $scope module bi_phase_enc $end
   $var wire 16 + dspData $end
   $var wire 64 1 stereoData $end
   $var wire 1 3 outReg $end
   $var wire 64 6 io_AUDIOINPUT $end
   $var wire 1 8 io_DATA_OUT $end
   $var wire 1 C clock $end
   $var wire 6 F dataIndex $end
   $var wire 1 G hasNone $end
   $var wire 1 I ndexR $end
   $var wire 64 N io_DSPINPUT $end
   $var wire 8 R bitCntr_enc $end
   $var wire 1 \ io_ENA $end
   $var wire 64 i dspData2 $end
   $var wire 1 k reset $end
  $upscope $end
  $scope module BFR $end
   $var wire 64 " mem $end
   $var wire 1 & mem_rdwrPort_r_en_pipe_0 $end
   $var wire 1 . clock $end
   $var wire 64 = io_dataOut $end
   $var wire 64 J io_dataIn $end
   $var wire 1 Z io_enable $end
   $var wire 1 ] io_write $end
   $var wire 1 _ mem_rdwrPort_r_addr_pipe_0 $end
    $scope module mem $end
     $var wire 64 ` rdwrPort_w $end
      $scope module rdwrPort_w $end
       $var wire 1 ! mask $end
       $var wire 1 - valid $end
       $var wire 1 / en $end
       $var wire 1 : addr $end
       $var wire 1 ; pipeline_valid_0 $end
       $var wire 1 D pipeline_addr_0 $end
       $var wire 64 W data $end
       $var wire 64 f pipeline_data_0 $end
       $var wire 1 h clk $end
      $upscope $end
      $scope module rdwrPort_r $end
       $var wire 1 ? addr $end
       $var wire 1 O clk $end
       $var wire 64 Y data $end
       $var wire 1 [ en $end
      $upscope $end
    $upscope $end
  $upscope $end
  $scope module BFR1 $end
   $var wire 1 # io_enable $end
   $var wire 1 K mem_rdwrPort_r_addr_pipe_0 $end
   $var wire 1 L io_write $end
   $var wire 1 S mem_rdwrPort_r_en_pipe_0 $end
   $var wire 1 T clock $end
   $var wire 64 U mem $end
   $var wire 64 e io_dataIn $end
   $var wire 64 j io_dataOut $end
    $scope module mem $end
     $var wire 64 ^ rdwrPort_w $end
      $scope module rdwrPort_r $end
       $var wire 1 $ en $end
       $var wire 1 9 addr $end
       $var wire 1 H clk $end
       $var wire 64 X data $end
      $upscope $end
      $scope module rdwrPort_w $end
       $var wire 1 ( pipeline_addr_0 $end
       $var wire 1 2 addr $end
       $var wire 1 4 pipeline_valid_0 $end
       $var wire 64 5 pipeline_data_0 $end
       $var wire 1 A en $end
       $var wire 1 E valid $end
       $var wire 64 P data $end
       $var wire 1 a clk $end
       $var wire 1 l mask $end
      $upscope $end
    $upscope $end
  $upscope $end
$upscope $end
$enddefinitions $end
$dumpvars
0C
0;
0&
b0000000000000000 +
b00000000 0
b0000000000000000000000000000000000000000000000000000000000000000 5
0Z
b0000000000000000000000000000000000000000000000000000000000000000 i
0T
07
b0000000000000000000000000000000000000000000000000000000000000000 N
0k
0V
b0000000000000000000000000000000000000000000000000000000000000000 1
09
b0000000000000000000000000000000000000000000000000000000000000000 e
03
b0000000000000000000000000000000000000000000000000000000000000000 J
0g
0-
b0000000000000000000000000000000000000000000000000000000000000000 Y
0a
0L
b000000 F
0D
0/
0[
0)
b0000000000000000000000000000000000000000000000000000000000000000 U
0]
0H
0@
b00000000 R
b0000000000000000000000000000000000000000000000000000000000000000 W
0_
0%
0<
b00000000 c
0'
b0000000000000000000000000000000000000000000000000000000000000000 6
0S
0>
b0000000000000000000000000000000000000000000000000000000000000000 j
0!
0M
08
0#
0l
0d
0O
0:
b0000000000000000000000000000000000000000000000000000000000000000 f
02
b0000000000000000000000000000000000000000000000000000000000000000 ^
0Q
0I
04
b0000000000000000000000000000000000000000000000000000000000000000 `
0h
0K
0.
b0000000000000000000000000000000000000000000000000000000000000000 =
0b
0E
0(
0\
0G
b0000000000000000000000000000000000000000000000000000000000000000 "
0?
0*
0A
0,
b0000000000000000000000000000000000000000000000000000000000000000 X
0$
b00 B
b0000000000000000000000000000000000000000000000000000000000000000 P
$end
#0
1g
1#
1k
1Z
#1
1T
1C
1.
1&
1V
1S
1h
1$
1H
1a
1O
1[
1)
#6
1<
1%
0g
0.
0C
0h
1'
0a
0)
0T
1d
0k
0V
0H
0O
#11
b00000001 0
b10 B
1T
1C
1.
1V
1h
1H
1a
1O
1)
#16
0T
0C
0.
0V
0h
0H
0a
0O
0)
#21
b00000010 0
1T
1C
1.
1V
1h
1H
1a
1O
1)
#26
0T
0%
0C
0.
0d
0V
0h
0H
0a
0O
0)
#31
b00000011 0
1T
1C
1.
1V
1h
1H
1a
1O
1)
#36
0T
0C
0.
0V
0h
0H
0a
0O
0)
#41
b00000000 0
1T
1C
1.
1V
1h
1H
1a
1O
1)
#46
0T
1%
0C
0.
1d
0V
0h
0H
0a
0O
0)
#51
b00000001 0
1T
1C
1.
1V
1h
1H
1a
1O
1)
#56
0T
0C
0.
0V
0h
0H
0a
0O
0)
#61
b00000010 0
1T
1C
1.
1V
1h
1H
1a
1O
1)
#66
0T
0%
0C
0.
0d
0V
0h
0H
0a
0O
0)
#71
b00000011 0
1T
1C
1.
1V
1h
1H
1a
1O
1)
#76
0T
0C
0.
0V
0h
0H
0a
0O
0)
#81
b00000000 0
1T
1C
1.
1V
1h
1H
1a
1O
1)
#86
0T
1%
0C
0.
1d
0V
0h
0H
0a
0O
0)
#91
b00000001 0
1T
1C
1.
1V
1h
1H
1a
1O
1)
#96
0T
0C
0.
0V
0h
0H
0a
0O
0)
#101
b00000010 0
1T
1C
1.
1V
1h
1H
1a
1O
1)
#106
0T
0%
0C
0.
0d
0V
0h
0H
0a
0O
0)
#111
b00000011 0
1T
1C
1.
1V
1h
1H
1a
1O
1)
#116
0T
0C
0.
0V
0h
0H
0a
0O
0)
#121
b00000000 0
1T
1C
1.
1V
1h
1H
1a
1O
1)
#126
0T
1%
0C
0.
1d
0V
0h
0H
0a
0O
0)
#131
b00000001 0
1T
1C
1.
1V
1h
1H
1a
1O
1)
#136
0T
0C
0.
0V
0h
0H
0a
0O
0)
#141
b00000010 0
1T
1C
1.
1V
1h
1H
1a
1O
1)
#146
0T
0%
0C
0.
0d
0V
0h
0H
0a
0O
0)
#151
b00000011 0
1T
1C
1.
1V
1h
1H
1a
1O
1)
#156
0T
0C
0.
0V
0h
0H
0a
0O
0)
#161
b00000000 0
1T
1C
1.
1V
1h
1H
1a
1O
1)
#166
0T
1%
0C
0.
1d
0V
0h
0H
0a
0O
0)
#171
b00000001 0
1T
1C
1.
1V
1h
1H
1a
1O
1)
#176
0T
0C
0.
0V
0h
0H
0a
0O
0)
#181
b00000010 0
1T
1C
1.
1V
1h
1H
1a
1O
1)
#186
0T
0%
0C
0.
0d
0V
0h
0H
0a
0O
0)
#191
b00000011 0
1T
1C
1.
1V
1h
1H
1a
1O
1)
#196
0T
0C
0.
0V
0h
0H
0a
0O
0)
#201
b00000000 0
1T
1C
1.
1V
1h
1H
1a
1O
1)
#206
0T
1%
0C
0.
1d
0V
0h
0H
0a
0O
0)
#211
b00000001 0
1T
1C
1.
1V
1h
1H
1a
1O
1)
#216
0T
0C
0.
0V
0h
0H
0a
0O
0)
#221
b00000010 0
1T
1C
1.
1V
1h
1H
1a
1O
1)
#226
0T
0%
0C
0.
0d
0V
0h
0H
0a
0O
0)
#231
b00000011 0
1T
1C
1.
1V
1h
1H
1a
1O
1)
#236
0T
0C
0.
0V
0h
0H
0a
0O
0)
#241
b00000000 0
1T
1C
1.
1V
1h
1H
1a
1O
1)
#246
0T
1%
0C
0.
1d
0V
0h
0H
0a
0O
0)
#251
b00000001 0
1T
1C
1.
1V
1h
1H
1a
1O
1)
#256
0T
0C
0.
0V
0h
0H
0a
0O
0)
#261
b00000010 0
1T
1C
1.
1V
1h
1H
1a
1O
1)
#266
0T
0%
0C
0.
0d
0V
0h
0H
0a
0O
0)
#271
b00000011 0
1T
1C
1.
1V
1h
1H
1a
1O
1)
#276
0T
0C
0.
0V
0h
0H
0a
0O
0)
#281
b00000000 0
1T
1C
1.
1V
1h
1H
1a
1O
1)
#286
0T
1%
0C
0.
1d
0V
0h
0H
0a
0O
0)
#291
b00000001 0
1T
1C
1.
1V
1h
1H
1a
1O
1)
#296
0T
0C
0.
0V
0h
0H
0a
0O
0)
#301
b00000010 0
1T
1C
1.
1V
1h
1H
1a
1O
1)
#306
0T
0%
0C
0.
0d
0V
0h
0H
0a
0O
0)
#311
b00000011 0
1T
1C
1.
1V
1h
1H
1a
1O
1)
#316
0T
0C
0.
0V
0h
0H
0a
0O
0)
#321
b00000000 0
1T
1C
1.
1V
1h
1H
1a
1O
1)
#326
0T
1%
0C
0.
1d
0V
0h
0H
0a
0O
0)
#331
b00000001 0
1T
1C
1.
1V
1h
1H
1a
1O
1)
#336
0T
0C
0.
0V
0h
0H
0a
0O
0)
#341
b00000010 0
1T
1C
1.
1V
1h
1H
1a
1O
1)
#346
0T
0%
0C
0.
0d
0V
0h
0H
0a
0O
0)
#351
b00000011 0
1T
1C
1.
1V
1h
1H
1a
1O
1)
#356
0T
0C
0.
0V
0h
0H
0a
0O
0)
#361
b00000000 0
1T
1C
1.
1V
1h
1H
1a
1O
1)
#366
0T
1%
0C
0.
1d
0V
0h
0H
0a
0O
0)
#371
b00000001 0
1T
1C
1.
1V
1h
1H
1a
1O
1)
#376
0T
0C
0.
0V
0h
0H
0a
0O
0)
#381
b00000010 0
1T
1C
1.
1V
1h
1H
1a
1O
1)
#386
0T
0%
0C
0.
0d
0V
0h
0H
0a
0O
0)
#391
b00000011 0
1T
1C
1.
1V
1h
1H
1a
1O
1)
#396
0T
0C
0.
0V
0h
0H
0a
0O
0)
#401
b00000000 0
1T
1C
1.
1V
1h
1H
1a
1O
1)
#406
0T
1%
0C
0.
1d
0V
0h
0H
0a
0O
0)
#411
b00000001 0
1T
1C
1.
1V
1h
1H
1a
1O
1)
#416
0T
0C
0.
0V
0h
0H
0a
0O
0)
#421
b00000010 0
1T
1C
1.
1V
1h
1H
1a
1O
1)
#426
0T
0%
0C
0.
0d
0V
0h
0H
0a
0O
0)
#431
b00000011 0
1T
1C
1.
1V
1h
1H
1a
1O
1)
#436
0T
0C
0.
0V
0h
0H
0a
0O
0)
#441
b00000000 0
1T
1C
1.
1V
1h
1H
1a
1O
1)
#446
0T
1%
0C
0.
1d
0V
0h
0H
0a
0O
0)
#451
b00000001 0
1T
1C
1.
1V
1h
1H
1a
1O
1)
#456
0T
0C
0.
0V
0h
0H
0a
0O
0)
#461
b00000010 0
1T
1C
1.
1V
1h
1H
1a
1O
1)
#466
0T
0%
0C
0.
0d
0V
0h
0H
0a
0O
0)
#471
b00000011 0
1T
1C
1.
1V
1h
1H
1a
1O
1)
#476
0T
0C
0.
0V
0h
0H
0a
0O
0)
#481
b00000000 0
1T
1C
1.
1V
1h
1H
1a
1O
1)
#486
0T
0<
1%
0C
0.
1d
0V
0h
0'
0H
0a
0O
0)
#491
b00000001 0
1T
1C
1.
1V
1h
1H
1a
1O
1)
#496
0T
0C
0.
0V
0h
0H
0a
0O
0)
#501
b00000010 0
1T
1C
1.
1V
1h
1H
1a
1O
1)
#506
0T
0%
0C
0.
0d
0V
0h
0H
0a
0O
0)
#511
b00000011 0
1T
1C
1.
1V
1h
1H
1a
1O
1)
#516
0T
0C
0.
0V
0h
0H
0a
0O
0)
#521
b00000000 0
b00000001 c
1T
1C
1.
1V
1h
1H
1a
1O
1)
#526
0T
1%
0C
0.
1d
0V
0h
0H
0a
0O
0)
#531
b00000001 0
1T
1C
1.
1V
1h
1H
1a
1O
1)
#536
0T
0C
0.
0V
0h
0H
0a
0O
0)
#541
b00000010 0
1T
1C
1.
1V
1h
1H
1a
1O
1)
#546
0T
0%
0C
0.
0d
0V
0h
0H
0a
0O
0)
#551
b00000011 0
1T
1C
1.
1V
1h
1H
1a
1O
1)
#556
0T
0C
0.
0V
0h
0H
0a
0O
0)
#561
b00000000 0
b00000010 c
1T
1C
1.
1V
1h
1H
1a
1O
1)
#566
0T
1%
0C
0.
1d
0V
0h
0H
0a
0O
0)
#571
b00000001 0
1T
1C
1.
1V
1h
1H
1a
1O
1)
#576
0T
0C
0.
0V
0h
0H
0a
0O
0)
#581
b00000010 0
1T
1C
1.
1V
1h
1H
1a
1O
1)
#586
0T
0%
0C
0.
0d
0V
0h
0H
0a
0O
0)
#591
b00000011 0
1T
1C
1.
1V
1h
1H
1a
1O
1)
#596
0T
0C
0.
0V
0h
0H
0a
0O
0)
#601
b00000000 0
b00000011 c
1T
1C
1.
1V
1h
1H
1a
1O
1)
#606
0T
1%
0C
0.
1d
0V
0h
0H
0a
0O
0)
#611
b00000001 0
1T
1C
1.
1V
1h
1H
1a
1O
1)
#616
0T
0C
0.
0V
0h
0H
0a
0O
0)
#621
b00000010 0
1T
1C
1.
1V
1h
1H
1a
1O
1)
#626
0T
0%
0C
0.
0d
0V
0h
0H
0a
0O
0)
#631
b00000011 0
1T
1C
1.
1V
1h
1H
1a
1O
1)
#636
0T
0C
0.
0V
0h
0H
0a
0O
0)
#641
b00000000 0
b00000100 c
1T
1C
1.
1V
1h
1H
1a
1O
1)
#646
0T
1%
0C
0.
1d
0V
0h
0H
0a
0O
0)
#651
b00000001 0
1T
1C
1.
1V
1h
1H
1a
1O
1)
#656
0T
0C
0.
0V
0h
0H
0a
0O
0)
#661
b00000010 0
1T
1C
1.
1V
1h
1H
1a
1O
1)
#666
0T
0%
0C
0.
0d
0V
0h
0H
0a
0O
0)
#671
b00000011 0
1T
1C
1.
1V
1h
1H
1a
1O
1)
#676
0T
0C
0.
0V
0h
0H
0a
0O
0)
#681
b00000000 0
b00000101 c
1T
1C
1.
1V
1h
1H
1a
1O
1)
#686
0T
1%
0C
0.
1d
0V
0h
0H
0a
0O
0)
#691
b00000001 0
1T
1C
1.
1V
1h
1H
1a
1O
1)
#696
0T
0C
0.
0V
0h
0H
0a
0O
0)
#701
b00000010 0
1T
1C
1.
1V
1h
1H
1a
1O
1)
#706
0T
0%
0C
0.
0d
0V
0h
0H
0a
0O
0)
#711
b00000011 0
1T
1C
1.
1V
1h
1H
1a
1O
1)
#716
0T
0C
0.
0V
0h
0H
0a
0O
0)
#721
b00000000 0
b00000110 c
1T
1C
1.
1V
1h
1H
1a
1O
1)
#726
0T
1%
0C
0.
1d
0V
0h
0H
0a
0O
0)
#731
b00000001 0
1T
1C
1.
1V
1h
1H
1a
1O
1)
#736
0T
0C
0.
0V
0h
0H
0a
0O
0)
#741
b00000010 0
1T
1C
1.
1V
1h
1H
1a
1O
1)
#746
0T
0%
0C
0.
0d
0V
0h
0H
0a
0O
0)
#751
b00000011 0
1T
1C
1.
1V
1h
1H
1a
1O
1)
#756
0T
0C
0.
0V
0h
0H
0a
0O
0)
#761
b00000000 0
b00000111 c
1T
1C
1.
1V
1h
1H
1a
1O
1)
#766
0T
1%
0C
0.
1d
0V
0h
0H
0a
0O
0)
#771
b00000001 0
1T
1C
1.
1V
1h
1H
1a
1O
1)
#776
0T
0C
0.
0V
0h
0H
0a
0O
0)
#781
b00000010 0
1T
1C
1.
1V
1h
1H
1a
1O
1)
#786
0T
0%
0C
0.
0d
0V
0h
0H
0a
0O
0)
#791
b00000011 0
1T
1C
1.
1V
1h
1H
1a
1O
1)
#796
0T
0C
0.
0V
0h
0H
0a
0O
0)
#801
b00000000 0
b00001000 c
1T
1C
1.
1V
1h
1H
1a
1O
1)
#806
0T
1%
0C
0.
1d
0V
0h
0H
0a
0O
0)
#811
b00000001 0
1T
1C
1.
1V
1h
1H
1a
1O
1)
#816
0T
0C
0.
0V
0h
0H
0a
0O
0)
#821
b00000010 0
1T
1C
1.
1V
1h
1H
1a
1O
1)
#826
0T
0%
0C
0.
0d
0V
0h
0H
0a
0O
0)
#831
b00000011 0
1T
1C
1.
1V
1h
1H
1a
1O
1)
#836
0T
0C
0.
0V
0h
0H
0a
0O
0)
#841
b00000000 0
b00001001 c
1T
1C
1.
1V
1h
1H
1a
1O
1)
#846
0T
1%
0C
0.
1d
0V
0h
0H
0a
0O
0)
#851
b00000001 0
1T
1C
1.
1V
1h
1H
1a
1O
1)
#856
0T
0C
0.
0V
0h
0H
0a
0O
0)
#861
b00000010 0
1T
1C
1.
1V
1h
1H
1a
1O
1)
#866
0T
0%
0C
0.
0d
0V
0h
0H
0a
0O
0)
#871
b00000011 0
1T
1C
1.
1V
1h
1H
1a
1O
1)
#876
0T
0C
0.
0V
0h
0H
0a
0O
0)
#881
b00000000 0
b00001010 c
1T
1C
1.
1V
1h
1H
1a
1O
1)
#886
0T
1%
0C
0.
1d
0V
0h
0H
0a
0O
0)
#891
b00000001 0
1T
1C
1.
1V
1h
1H
1a
1O
1)
#896
0T
0C
0.
0V
0h
0H
0a
0O
0)
#901
b00000010 0
1T
1C
1.
1V
1h
1H
1a
1O
1)
#906
0T
0%
0C
0.
0d
0V
0h
0H
0a
0O
0)
#911
b00000011 0
1T
1C
1.
1V
1h
1H
1a
1O
1)
#916
0T
0C
0.
0V
0h
0H
0a
0O
0)
#921
b00000000 0
b00001011 c
1T
1C
1.
1V
1h
1H
1a
1O
1)
#926
0T
1%
0C
0.
1d
0V
0h
0H
0a
0O
0)
#931
b00000001 0
1T
1C
1.
1V
1h
1H
1a
1O
1)
#936
0T
0C
0.
0V
0h
0H
0a
0O
0)
#941
b00000010 0
1T
1C
1.
1V
1h
1H
1a
1O
1)
#946
0T
0%
0C
0.
0d
0V
0h
0H
0a
0O
0)
#951
b00000011 0
1T
1C
1.
1V
1h
1H
1a
1O
1)
#956
0T
0C
0.
0V
0h
0H
0a
0O
0)
#961
b00000000 0
b00001100 c
1T
1C
1.
1V
1h
1H
1a
1O
1)
#966
0T
1%
0C
0.
1d
0V
0h
0H
0a
0O
0)
#971
b00000001 0
1T
1C
1.
1V
1h
1H
1a
1O
1)
#976
0T
0C
0.
0V
0h
0H
0a
0O
0)
#981
b00000010 0
1T
1C
1.
1V
1h
1H
1a
1O
1)
#986
0T
0%
0C
0.
0d
0V
0h
0H
0a
0O
0)
#991
b00000011 0
1T
1C
1.
1V
1h
1H
1a
1O
1)
#996
0T
0C
0.
0V
0h
0H
0a
0O
0)
#1001
b00000000 0
b00001101 c
1T
1C
1.
1V
1h
1H
1a
1O
1)
#1006
0T
1%
0C
0.
1d
0V
0h
0H
0a
0O
0)
#1011
b00000001 0
1T
1C
1.
1V
1h
1H
1a
1O
1)
#1016
0T
0C
0.
0V
0h
0H
0a
0O
0)
#1021
b00000010 0
1T
1C
1.
1V
1h
1H
1a
1O
1)
#1026
0T
0%
0C
0.
0d
0V
0h
0H
0a
0O
0)
#1031
b00000011 0
1T
1C
1.
1V
1h
1H
1a
1O
1)
#1036
0T
0C
0.
0V
0h
0H
0a
0O
0)
#1041
b00000000 0
b00001110 c
1T
1C
1.
1V
1h
1H
1a
1O
1)
#1046
0T
1%
0C
0.
1d
0V
0h
0H
0a
0O
0)
#1051
b00000001 0
1T
1C
1.
1V
1h
1H
1a
1O
1)
#1056
0T
0C
0.
0V
0h
0H
0a
0O
0)
#1061
b00000010 0
1T
1C
1.
1V
1h
1H
1a
1O
1)
#1066
0T
0%
0C
0.
0d
0V
0h
0H
0a
0O
0)
#1071
b00000011 0
1T
1C
1.
1V
1h
1H
1a
1O
1)
#1076
0T
0C
0.
0V
0h
0H
0a
0O
0)
#1081
b00000000 0
b00001111 c
1T
1C
1.
1V
1h
1H
1a
1O
1)
#1086
0T
1%
0C
0.
1d
0V
0h
0H
0a
0O
0)
#1091
b00000001 0
1T
1C
1.
1V
1h
1H
1a
1O
1)
#1096
0T
0C
0.
0V
0h
0H
0a
0O
0)
#1101
b00000010 0
1T
1C
1.
1V
1h
1H
1a
1O
1)
#1106
0T
0%
0C
0.
0d
0V
0h
0H
0a
0O
0)
#1111
b00000011 0
1T
1C
1.
1V
1h
1H
1a
1O
1)
#1116
0T
0C
0.
0V
0h
0H
0a
0O
0)
#1121
b00000000 0
b00010000 c
1T
1C
1.
1V
1h
1H
1a
1O
1)
#1126
0T
1%
0C
0.
1d
0V
0h
0H
0a
0O
0)
#1131
b00000001 0
1T
1C
1.
1V
1h
1H
1a
1O
1)
#1136
0T
0C
0.
0V
0h
0H
0a
0O
0)
#1141
b00000010 0
1T
1C
1.
1V
1h
1H
1a
1O
1)
#1146
0T
0%
0C
0.
0d
0V
0h
0H
0a
0O
0)
#1151
b00000011 0
1T
1C
1.
1V
1h
1H
1a
1O
1)
#1156
0T
0C
0.
0V
0h
0H
0a
0O
0)
#1161
b00000000 0
b00010001 c
1T
1C
1.
1V
1h
1H
1a
1O
1)
#1166
0T
1%
0C
0.
1d
0V
0h
0H
0a
0O
0)
#1171
b00000001 0
1T
1C
1.
1V
1h
1H
1a
1O
1)
#1176
0T
0C
0.
0V
0h
0H
0a
0O
0)
#1181
b00000010 0
1T
1C
1.
1V
1h
1H
1a
1O
1)
#1186
0T
0%
0C
0.
0d
0V
0h
0H
0a
0O
0)
#1191
b00000011 0
1T
1C
1.
1V
1h
1H
1a
1O
1)
#1196
0T
0C
0.
0V
0h
0H
0a
0O
0)
#1201
b00000000 0
b00010010 c
1T
1C
1.
1V
1h
1H
1a
1O
1)
#1206
0T
1%
0C
0.
1d
0V
0h
0H
0a
0O
0)
#1211
b00000001 0
1T
1C
1.
1V
1h
1H
1a
1O
1)
#1216
0T
0C
0.
0V
0h
0H
0a
0O
0)
#1221
b00000010 0
1T
1C
1.
1V
1h
1H
1a
1O
1)
#1226
0T
0%
0C
0.
0d
0V
0h
0H
0a
0O
0)
#1231
b00000011 0
1T
1C
1.
1V
1h
1H
1a
1O
1)
#1236
0T
0C
0.
0V
0h
0H
0a
0O
0)
#1241
b00000000 0
b00010011 c
1T
1C
1.
1V
1h
1H
1a
1O
1)
#1246
0T
1%
0C
0.
1d
0V
0h
0H
0a
0O
0)
#1251
b00000001 0
1T
1C
1.
1V
1h
1H
1a
1O
1)
#1256
0T
0C
0.
0V
0h
0H
0a
0O
0)
#1261
b00000010 0
1T
1C
1.
1V
1h
1H
1a
1O
1)
#1266
0T
0%
0C
0.
0d
0V
0h
0H
0a
0O
0)
#1271
b00000011 0
1T
1C
1.
1V
1h
1H
1a
1O
1)
#1276
0T
0C
0.
0V
0h
0H
0a
0O
0)
#1281
b00000000 0
b00010100 c
1T
1C
1.
1V
1h
1H
1a
1O
1)
#1286
0T
1%
0C
0.
1d
0V
0h
0H
0a
0O
0)
#1291
b00000001 0
1T
1C
1.
1V
1h
1H
1a
1O
1)
#1296
0T
0C
0.
0V
0h
0H
0a
0O
0)
#1301
b00000010 0
1T
1C
1.
1V
1h
1H
1a
1O
1)
#1306
0T
0%
0C
0.
0d
0V
0h
0H
0a
0O
0)
#1311
b00000011 0
1T
1C
1.
1V
1h
1H
1a
1O
1)
#1316
0T
0C
0.
0V
0h
0H
0a
0O
0)
#1321
b00000000 0
b00010101 c
1T
1C
1.
1V
1h
1H
1a
1O
1)
#1326
0T
1%
0C
0.
1d
0V
0h
0H
0a
0O
0)
#1331
b00000001 0
1T
1C
1.
1V
1h
1H
1a
1O
1)
#1336
0T
0C
0.
0V
0h
0H
0a
0O
0)
#1341
b00000010 0
1T
1C
1.
1V
1h
1H
1a
1O
1)
#1346
0T
0%
0C
0.
0d
0V
0h
0H
0a
0O
0)
#1351
b00000011 0
1T
1C
1.
1V
1h
1H
1a
1O
1)
#1356
0T
0C
0.
0V
0h
0H
0a
0O
0)
#1361
b00000000 0
b00010110 c
1T
1C
1.
1V
1h
1H
1a
1O
1)
#1366
0T
1%
0C
0.
1d
0V
0h
0H
0a
0O
0)
#1371
b00000001 0
1T
1C
1.
1V
1h
1H
1a
1O
1)
#1376
0T
0C
0.
0V
0h
0H
0a
0O
0)
#1381
b00000010 0
1T
1C
1.
1V
1h
1H
1a
1O
1)
#1386
0T
0%
0C
0.
0d
0V
0h
0H
0a
0O
0)
#1391
b00000011 0
1T
1C
1.
1V
1h
1H
1a
1O
1)
#1396
0T
0C
0.
0V
0h
0H
0a
0O
0)
#1401
b00000000 0
b00010111 c
1T
1C
1.
1V
1h
1H
1a
1O
1)
#1406
0T
1%
0C
0.
1d
0V
0h
0H
0a
0O
0)
#1411
b00000001 0
1T
1C
1.
1V
1h
1H
1a
1O
1)
#1416
0T
0C
0.
0V
0h
0H
0a
0O
0)
#1421
b00000010 0
1T
1C
1.
1V
1h
1H
1a
1O
1)
#1426
0T
0%
0C
0.
0d
0V
0h
0H
0a
0O
0)
#1431
b00000011 0
1T
1C
1.
1V
1h
1H
1a
1O
1)
#1436
0T
0C
0.
0V
0h
0H
0a
0O
0)
#1441
b00000000 0
b00011000 c
1T
1C
1.
1V
1h
1H
1a
1O
1)
#1446
0T
1%
0C
0.
1d
0V
0h
0H
0a
0O
0)
#1451
b00000001 0
1T
1C
1.
1V
1h
1H
1a
1O
1)
#1456
0T
0C
0.
0V
0h
0H
0a
0O
0)
#1461
b00000010 0
1T
1C
1.
1V
1h
1H
1a
1O
1)
#1466
0T
0%
0C
0.
0d
0V
0h
0H
0a
0O
0)
#1471
b00000011 0
1T
1C
1.
1V
1h
1H
1a
1O
1)
#1476
0T
0C
0.
0V
0h
0H
0a
0O
0)
#1481
b00000000 0
b00011001 c
1T
1C
1.
1V
1h
1H
1a
1O
1)
#1486
0T
1%
0C
0.
1d
0V
0h
0H
0a
0O
0)
#1491
b00000001 0
1T
1C
1.
1V
1h
1H
1a
1O
1)
#1496
0T
0C
0.
0V
0h
0H
0a
0O
0)
#1501
b00000010 0
1T
1C
1.
1V
1h
1H
1a
1O
1)
#1506
0T
0%
0C
0.
0d
0V
0h
0H
0a
0O
0)
#1511
b00000011 0
1T
1C
1.
1V
1h
1H
1a
1O
1)
#1516
0T
0C
0.
0V
0h
0H
0a
0O
0)
#1521
b00000000 0
b00011010 c
1T
1C
1.
1V
1h
1H
1a
1O
1)
#1526
0T
1%
0C
0.
1d
0V
0h
0H
0a
0O
0)
#1531
b00000001 0
1T
1C
1.
1V
1h
1H
1a
1O
1)
#1536
0T
0C
0.
0V
0h
0H
0a
0O
0)
#1541
b00000010 0
1T
1C
1.
1V
1h
1H
1a
1O
1)
#1546
0T
0%
0C
0.
0d
0V
0h
0H
0a
0O
0)
#1551
b00000011 0
1T
1C
1.
1V
1h
1H
1a
1O
1)
#1556
0T
0C
0.
0V
0h
0H
0a
0O
0)
#1561
b00000000 0
b00011011 c
1T
1C
1.
1V
1h
1H
1a
1O
1)
#1566
0T
1%
0C
0.
1d
0V
0h
0H
0a
0O
0)
#1571
b00000001 0
1T
1C
1.
1V
1h
1H
1a
1O
1)
#1576
0T
0C
0.
0V
0h
0H
0a
0O
0)
#1581
b00000010 0
1T
1C
1.
1V
1h
1H
1a
1O
1)
#1586
0T
0%
0C
0.
0d
0V
0h
0H
0a
0O
0)
#1591
b00000011 0
1T
1C
1.
1V
1h
1H
1a
1O
1)
#1596
0T
0C
0.
0V
0h
0H
0a
0O
0)
#1601
b00000000 0
b00011100 c
1T
1C
1.
1V
1h
1H
1a
1O
1)
#1606
0T
1%
0C
0.
1d
0V
0h
0H
0a
0O
0)
#1611
b00000001 0
1T
1C
1.
1V
1h
1H
1a
1O
1)
#1616
0T
0C
0.
0V
0h
0H
0a
0O
0)
#1621
b00000010 0
1T
1C
1.
1V
1h
1H
1a
1O
1)
#1626
0T
0%
0C
0.
0d
0V
0h
0H
0a
0O
0)
#1631
b00000011 0
1T
1C
1.
1V
1h
1H
1a
1O
1)
#1636
0T
0C
0.
0V
0h
0H
0a
0O
0)
#1641
b00000000 0
b00011101 c
1T
1C
1.
1V
1h
1H
1a
1O
1)
#1646
0T
1%
0C
0.
1d
0V
0h
0H
0a
0O
0)
#1651
b00000001 0
1T
1C
1.
1V
1h
1H
1a
1O
1)
#1656
0T
0C
0.
0V
0h
0H
0a
0O
0)
#1661
b00000010 0
1T
1C
1.
1V
1h
1H
1a
1O
1)
#1666
0T
0%
0C
0.
0d
0V
0h
0H
0a
0O
0)
#1671
b00000011 0
1T
1C
1.
1V
1h
1H
1a
1O
1)
#1676
0T
0C
0.
0V
0h
0H
0a
0O
0)
#1681
b00000000 0
b00011110 c
1T
1C
1.
1V
1h
1H
1a
1O
1)
#1686
0T
1%
0C
0.
1d
0V
0h
0H
0a
0O
0)
#1691
b00000001 0
1T
1C
1.
1V
1h
1H
1a
1O
1)
#1696
0T
0C
0.
0V
0h
0H
0a
0O
0)
#1701
b00000010 0
1T
1C
1.
1V
1h
1H
1a
1O
1)
#1706
0T
0%
0C
0.
0d
0V
0h
0H
0a
0O
0)
#1711
b00000011 0
1T
1C
1.
1V
1h
1H
1a
1O
1)
#1716
0T
0C
0.
0V
0h
0H
0a
0O
0)
#1721
b00000000 0
b00011111 c
1T
1C
1.
1V
1h
1H
1a
1O
1)
#1726
0T
1%
0C
0.
1d
0V
0h
0H
0a
0O
0)
#1731
b00000001 0
1T
1C
1.
1V
1h
1H
1a
1O
1)
#1736
0T
0C
0.
0V
0h
0H
0a
0O
0)
#1741
b00000010 0
1T
1C
1.
1V
1h
1H
1a
1O
1)
