InterVox_Transmitter/test_run_dir/interVox_Encoder_should_pass/interVox_Encoder.vcd
$date
2022-10-25T15:21+0000
$end
$version
0.2
$end
$comment

$end
$timescale 1ns  $end
$scope module interVox_Encoder $end
 $var wire 1 % io_BCLK_O $end
 $var wire 1 ' io_LRCLK_O $end
 $var wire 1 ) io_MCLK_O $end
 $var wire 1 * io_NXT_FRAME $end
 $var wire 1 , io_SDATA_O $end
 $var wire 8 0 BiPhase_CLK_CNTR $end
 $var wire 1 < io_LRCLK_IN $end
 $var wire 1 > BFR1 $end
 $var wire 1 @ io_DATA_O $end
 $var wire 1 A DATA_OUT_REG_1B $end
 $var wire 2 C current_state $end
 $var wire 1 J io_MCLK_IN $end
 $var wire 1 P BFR $end
 $var wire 1 S io_SDATA_IN $end
 $var wire 1 W clock $end
 $var wire 1 c bi_phase_enc $end
 $var wire 8 d bitCntr $end
 $var wire 1 e io_BCLK_IN $end
 $var wire 1 h reset $end
  $scope module bi_phase_enc $end
   $var wire 16 + dspData $end
   $var wire 8 1 bitCntr $end
   $var wire 64 2 stereoData $end
   $var wire 1 4 outReg $end
   $var wire 64 7 io_AUDIOINPUT $end
   $var wire 1 8 io_DATA_OUT $end
   $var wire 1 D next $end
   $var wire 1 E clock $end
   $var wire 1 G io_NEXT $end
   $var wire 6 I dataIndex $end
   $var wire 1 K hasNone $end
   $var wire 1 Y io_TICK $end
   $var wire 1 k reset $end
  $upscope $end
  $scope module BFR $end
   $var wire 64 " mem $end
   $var wire 1 & mem_rdwrPort_r_en_pipe_0 $end
   $var wire 1 . clock $end
   $var wire 64 = io_dataOut $end
   $var wire 64 M io_dataIn $end
   $var wire 1 \ io_enable $end
   $var wire 1 ^ io_write $end
   $var wire 1 ` mem_rdwrPort_r_addr_pipe_0 $end
    $scope module mem $end
     $var wire 64 a rdwrPort_w $end
      $scope module rdwrPort_w $end
       $var wire 1 ! mask $end
       $var wire 1 - valid $end
       $var wire 1 / en $end
       $var wire 1 : addr $end
       $var wire 1 ; pipeline_valid_0 $end
       $var wire 1 F pipeline_addr_0 $end
       $var wire 64 X data $end
       $var wire 64 g pipeline_data_0 $end
       $var wire 1 i clk $end
      $upscope $end
      $scope module rdwrPort_r $end
       $var wire 1 ? addr $end
       $var wire 1 Q clk $end
       $var wire 64 [ data $end
       $var wire 1 ] en $end
      $upscope $end
    $upscope $end
  $upscope $end
  $scope module BFR1 $end
   $var wire 1 # io_enable $end
   $var wire 1 N mem_rdwrPort_r_addr_pipe_0 $end
   $var wire 1 O io_write $end
   $var wire 1 T mem_rdwrPort_r_en_pipe_0 $end
   $var wire 1 U clock $end
   $var wire 64 V mem $end
   $var wire 64 f io_dataIn $end
   $var wire 64 j io_dataOut $end
    $scope module mem $end
     $var wire 64 _ rdwrPort_w $end
      $scope module rdwrPort_r $end
       $var wire 1 $ en $end
       $var wire 1 9 addr $end
       $var wire 1 L clk $end
       $var wire 64 Z data $end
      $upscope $end
      $scope module rdwrPort_w $end
       $var wire 1 ( pipeline_addr_0 $end
       $var wire 1 3 addr $end
       $var wire 1 5 pipeline_valid_0 $end
       $var wire 64 6 pipeline_data_0 $end
       $var wire 1 B en $end
       $var wire 1 H valid $end
       $var wire 64 R data $end
       $var wire 1 b clk $end
       $var wire 1 l mask $end
      $upscope $end
    $upscope $end
  $upscope $end
$upscope $end
$enddefinitions $end
$dumpvars
0;
0&
b0000000000000000000000000000000000000000000000000000000000000000 g
b0000000000000000000000000000000000000000000000000000000000000000 R
b0000000000000000 +
b00000000 0
b00000000 d
b0000000000000000000000000000000000000000000000000000000000000000 7
0i
0T
0k
0N
09
0e
0P
03
b0000000000000000000000000000000000000000000000000000000000000000 _
0J
05
b0000000000000000000000000000000000000000000000000000000000000000 a
0-
0L
0D
0/
b0000000000000000000000000000000000000000000000000000000000000000 [
0c
0F
0)
0]
0H
0@
0W
0B
b00 C
0%
0Y
0<
0'
b00000000 1
b0000000000000000000000000000000000000000000000000000000000000000 6
0S
0>
b0000000000000000000000000000000000000000000000000000000000000000 j
0!
b0000000000000000000000000000000000000000000000000000000000000000 M
0U
08
0#
b0000000000000000000000000000000000000000000000000000000000000000 2
0l
0O
0:
b0000000000000000000000000000000000000000000000000000000000000000 f
0Q
04
0h
0`
0K
0.
b0000000000000000000000000000000000000000000000000000000000000000 Z
b0000000000000000000000000000000000000000000000000000000000000000 =
0b
0E
0(
b000000 I
0G
0\
b0000000000000000000000000000000000000000000000000000000000000000 "
0?
0*
b0000000000000000000000000000000000000000000000000000000000000000 V
0^
0A
0,
b0000000000000000000000000000000000000000000000000000000000000000 X
0$
$end
#0
1#
1h
1k
1\
#1
1T
1Q
1U
1.
1&
1]
1$
1W
1i
1E
1L
1b
#6
0Q
0U
0.
0k
0h
0W
0i
0E
0L
0b
#11
1Q
b10 C
1U
1.
1W
1i
1E
1L
1b
#16
0Q
0U
0.
0W
0i
0E
0L
0b
#21
b00000001 0
1Q
1U
1.
1Y
1*
1W
1i
1E
1L
1b
#26
0Q
0U
0.
0W
0i
0E
0L
0b
#31
b00000010 0
1Q
1U
1.
b00000001 1
0Y
0*
1W
1i
1E
1L
b000001 I
1b
#36
0Q
0U
0.
0W
0i
0E
0L
0b
#41
b00000011 0
1Q
1U
1.
1Y
1*
1W
1i
1E
1L
1b
#46
0Q
1<
1-
1%
0.
1'
0i
0E
0L
1/
0b
1!
0U
1e
0W
1^
#51
1Q
1.
0&
0Y
1i
1E
1L
1b
b00000100 0
1U
b00000001 d
b00000010 1
0*
0]
1W
1;
#56
0Q
0U
0.
0W
0i
0E
0L
0b
#61
b00000101 0
1Q
1U
b00000010 d
1.
1Y
1*
1W
1i
1E
1L
1b
#66
0Q
0-
0%
0.
0i
0E
0L
0/
0b
0!
0U
0e
0W
0^
#71
1Q
1.
1&
0Y
1i
1E
1L
1b
b00000110 0
1U
b00000011 1
0*
1]
1W
b000010 I
0;
#76
0Q
0U
0.
0W
0i
0E
0L
0b
#81
b00000111 0
1Q
1U
1.
1Y
1*
1W
1i
1E
1L
1b
#86
0Q
1-
1%
0.
0i
0E
0L
1/
0b
1!
0U
1e
0W
1^
#91
1Q
1.
0&
0Y
1i
1E
1L
1b
b00000000 0
1U
b00000011 d
b00000100 1
0*
0]
1W
1;
#96
0Q
0U
0.
0W
0i
0E
0L
0b
#101
b00000001 0
1Q
1U
b00000100 d
1.
1Y
1*
1W
1i
1E
1L
1b
#106
0Q
0-
0%
0.
0i
0E
0L
0/
0b
0!
0U
0e
0W
0^
#111
1Q
1.
1&
0Y
1i
1E
1L
1b
b00000010 0
1U
b00000101 1
0*
1]
1W
b000011 I
0;
#116
0Q
0U
0.
0W
0i
0E
0L
0b
#121
b00000011 0
1Q
1U
1.
1Y
1*
1W
1i
1E
1L
1b
#126
0Q
1-
1%
0.
0i
0E
0L
1/
0b
1!
0U
1e
0W
1^
#131
1Q
1.
0&
0Y
1i
1E
1L
1b
b00000100 0
1U
b00000101 d
b00000110 1
0*
0]
1W
1;
#136
0Q
0U
0.
0W
0i
0E
0L
0b
#141
b00000101 0
1Q
1U
b00000110 d
1.
1Y
1*
1W
1i
1E
1L
1b
#146
0Q
0-
0%
0.
0i
0E
0L
0/
0b
0!
0U
0e
0W
0^
#151
1Q
14
1.
1&
0Y
1i
1E
1L
1b
b00000110 0
1U
b00000111 1
18
0*
1]
1W
b000100 I
0;
#156
0Q
0U
0.
0W
0i
0E
0L
0b
#161
b00000111 0
1Q
1U
1@
1.
1Y
1*
1W
1i
1E
1L
1A
1b
#166
0Q
1-
1%
0.
0i
0E
0L
1/
0b
1!
0U
1e
0W
1^
#171
1Q
1.
0&
0Y
1i
1E
1L
1b
b00000000 0
1U
b00000111 d
b00001000 1
0*
0]
1W
1;
#176
0Q
0U
0.
0W
0i
0E
0L
0b
#181
b00000001 0
1Q
1U
b00001000 d
1.
1Y
1*
1W
1i
1E
1L
1b
#186
0Q
0-
0%
0.
0i
0E
0L
0/
0b
0!
0U
0e
0W
0^
#191
1Q
04
1.
1&
0Y
1K
1i
1E
1L
1b
b00000010 0
1U
b00001001 1
08
0*
1]
1W
b000101 I
0;
#196
0Q
0U
0.
0W
0i
0E
0L
0b
#201
b00000011 0
1Q
1U
0@
1.
1Y
1*
1W
1i
1E
1L
0A
1b
#206
0Q
1-
1%
0.
0i
0E
0L
1/
0b
1!
0U
1e
0W
1^
#211
1Q
1.
0&
0Y
0K
1i
1E
1L
1b
b00000100 0
1U
b00001001 d
b00001010 1
0*
0]
1W
1;
#216
0Q
0U
0.
0W
0i
0E
0L
0b
#221
b00000101 0
1Q
1U
b00001010 d
1.
1Y
1*
1W
1i
1E
1L
1b
#226
0Q
0-
0%
0.
0i
0E
0L
0/
0b
0!
0U
0e
0W
0^
#231
1Q
14
1.
1&
0Y
1K
1i
1E
1L
1b
b00000110 0
1U
b00001011 1
18
0*
1]
1W
b000110 I
0;
#236
0Q
0U
0.
0W
0i
0E
0L
0b
#241
b00000111 0
1Q
1U
1@
1.
1Y
1*
1W
1i
1E
1L
1A
1b
#246
0Q
1-
1%
0.
0i
0E
0L
1/
0b
1!
0U
1e
0W
1^
#251
1Q
1.
0&
0Y
0K
1i
1E
1L
1b
b00000000 0
1U
b00001011 d
b00001100 1
0*
0]
1W
1;
#256
0Q
0U
0.
0W
0i
0E
0L
0b
#261
b00000001 0
1Q
1U
b00001100 d
1.
1Y
1*
1W
1i
1E
1L
1b
#266
0Q
0-
0%
0.
0i
0E
0L
0/
0b
0!
0U
0e
0W
0^
#271
1Q
04
1.
1&
0Y
1K
1i
1E
1L
1b
b00000010 0
1U
b00001101 1
08
0*
1]
1W
b000111 I
0;
#276
0Q
0U
0.
0W
0i
0E
0L
0b
#281
b00000011 0
1Q
1U
0@
1.
1Y
1*
1W
1i
1E
1L
0A
1b
#286
0Q
1-
1%
0.
0i
0E
0L
1/
0b
1!
0U
1e
0W
1^
#291
1Q
1.
0&
0Y
0K
1i
1E
1L
1b
b00000100 0
1U
b00001101 d
b00001110 1
0*
0]
1W
1;
#296
0Q
0U
0.
0W
0i
0E
0L
0b
#301
b00000101 0
1Q
1U
b00001110 d
1.
1Y
1*
1W
1i
1E
1L
1b
#306
0Q
0-
0%
0.
0i
0E
0L
0/
0b
0!
0U
0e
0W
0^
#311
1Q
14
1.
1&
0Y
1K
1i
1E
1L
1b
b00000110 0
1U
b00001111 1
18
0*
1]
1W
b001000 I
0;
#316
0Q
0U
0.
0W
0i
0E
0L
0b
#321
b00000111 0
1Q
1U
1@
1.
1Y
1*
1W
1i
1E
1L
1A
1b
#326
0Q
1-
1%
0.
0i
0E
0L
1/
0b
1!
0U
1e
0W
1^
#331
1Q
1.
0&
0Y
0K
1i
1E
1L
1b
b00000000 0
1U
b00001111 d
b00010000 1
0*
0]
1W
1;
#336
0Q
0U
0.
0W
0i
0E
0L
0b
#341
b00000001 0
1Q
1U
b00010000 d
1.
1Y
1*
1W
1i
1E
1L
1b
#346
0Q
0-
0%
0.
0i
0E
0L
0/
0b
0!
0U
0e
0W
0^
#351
1Q
04
1.
1&
0Y
1K
1i
1E
1L
1b
b00000010 0
1U
b00010001 1
08
0*
1]
1W
b001001 I
0;
#356
0Q
0U
0.
0W
0i
0E
0L
0b
#361
b00000011 0
1Q
1U
0@
1.
1Y
1*
1W
1i
1E
1L
0A
1b
#366
0Q
1-
1%
0.
0i
0E
0L
1/
0b
1!
0U
1e
0W
1^
#371
1Q
1.
0&
0Y
0K
1i
1E
1L
1b
b00000100 0
1U
b00010001 d
b00010010 1
0*
0]
1W
1;
#376
0Q
0U
0.
0W
0i
0E
0L
0b
#381
b00000101 0
1Q
1U
b00010010 d
1.
1Y
1*
1W
1i
1E
1L
1b
#386
0Q
0-
0%
0.
0i
0E
0L
0/
0b
0!
0U
0e
0W
0^
#391
1Q
14
1.
1&
0Y
1K
1i
1E
1L
1b
b00000110 0
1U
b00010011 1
18
0*
1]
1W
b001010 I
0;
#396
0Q
0U
0.
0W
0i
0E
0L
0b
#401
b00000111 0
1Q
1U
1@
1.
1Y
1*
1W
1i
1E
1L
1A
1b
#406
0Q
1-
1%
0.
0i
0E
0L
1/
0b
1!
0U
1e
0W
1^
#411
1Q
1.
0&
0Y
0K
1i
1E
1L
1b
b00000000 0
1U
b00010011 d
b00010100 1
0*
0]
1W
1;
#416
0Q
0U
0.
0W
0i
0E
0L
0b
#421
b00000001 0
1Q
1U
b00010100 d
1.
1Y
1*
1W
1i
1E
1L
1b
#426
0Q
0-
0%
0.
0i
0E
0L
0/
0b
0!
0U
0e
0W
0^
#431
1Q
04
1.
1&
0Y
1K
1i
1E
1L
1b
b00000010 0
1U
b00010101 1
08
0*
1]
1W
b001011 I
0;
#436
0Q
0U
0.
0W
0i
0E
0L
0b
#441
b00000011 0
1Q
1U
0@
1.
1Y
1*
1W
1i
1E
1L
0A
1b
#446
0Q
1-
1%
0.
0i
0E
0L
1/
0b
1!
0U
1e
0W
1^
#451
1Q
1.
0&
0Y
0K
1i
1E
1L
1b
b00000100 0
1U
b00010101 d
b00010110 1
0*
0]
1W
1;
#456
0Q
0U
0.
0W
0i
0E
0L
0b
#461
b00000101 0
1Q
1U
b00010110 d
1.
1Y
1*
1W
1i
1E
1L
1b
#466
0Q
0-
0%
0.
0i
0E
0L
0/
0b
0!
0U
0e
0W
0^
#471
1Q
14
1.
1&
0Y
1K
1i
1E
1L
1b
b00000110 0
1U
b00010111 1
18
0*
1]
1W
b001100 I
0;
#476
0Q
0U
0.
0W
0i
0E
0L
0b
#481
b00000111 0
1Q
1U
1@
1.
1Y
1*
1W
1i
1E
1L
1A
1b
#486
0Q
1-
1%
0.
0i
0E
0L
1/
0b
1!
0U
1e
0W
1^
#491
1Q
1.
0&
0Y
0K
1i
1E
1L
1b
b00000000 0
1U
b00010111 d
b00011000 1
0*
0]
1W
1;
#496
0Q
0U
0.
0W
0i
0E
0L
0b
#501
b00000001 0
1Q
1U
b00011000 d
1.
1Y
1*
1W
1i
1E
1L
1b
#506
0Q
0-
0%
0.
0i
0E
0L
0/
0b
0!
0U
0e
0W
0^
#511
1Q
04
1.
1&
0Y
1K
1i
1E
1L
1b
b00000010 0
1U
b00011001 1
08
0*
1]
1W
b001101 I
0;
#516
0Q
0U
0.
0W
0i
0E
0L
0b
#521
b00000011 0
1Q
1U
0@
1.
1Y
1*
1W
1i
1E
1L
0A
1b
#526
0Q
1-
1%
0.
0i
0E
0L
1/
0b
1!
0U
1e
0W
1^
#531
1Q
1.
0&
0Y
0K
1i
1E
1L
1b
b00000100 0
1U
b00011001 d
b00011010 1
0*
0]
1W
1;
#536
0Q
0U
0.
0W
0i
0E
0L
0b
#541
b00000101 0
1Q
1U
b00011010 d
1.
1Y
1*
1W
1i
1E
1L
1b
#546
0Q
0-
0%
0.
0i
0E
0L
0/
0b
0!
0U
0e
0W
0^
#551
1Q
14
1.
1&
0Y
1K
1i
1E
1L
1b
b00000110 0
1U
b00011011 1
18
0*
1]
1W
b001110 I
0;
#556
0Q
0U
0.
0W
0i
0E
0L
0b
#561
b00000111 0
1Q
1U
1@
1.
1Y
1*
1W
1i
1E
1L
1A
1b
#566
0Q
1-
1%
0.
0i
0E
0L
1/
0b
1!
0U
1e
0W
1^
#571
1Q
1.
0&
0Y
0K
1i
1E
1L
1b
b00000000 0
1U
b00011011 d
b00011100 1
0*
0]
1W
1;
#576
0Q
0U
0.
0W
0i
0E
0L
0b
#581
b00000001 0
1Q
1U
b00011100 d
1.
1Y
1*
1W
1i
1E
1L
1b
#586
0Q
0-
0%
0.
0i
0E
0L
0/
0b
0!
0U
0e
0W
0^
#591
1Q
04
1.
1&
0Y
1K
1i
1E
1L
1b
b00000010 0
1U
b00011101 1
08
0*
1]
1W
b001111 I
0;
#596
0Q
0U
0.
0W
0i
0E
0L
0b
#601
b00000011 0
1Q
1U
0@
1.
1Y
1*
1W
1i
1E
1L
0A
1b
#606
0Q
1-
1%
0.
0i
0E
0L
1/
0b
1!
0U
1e
0W
1^
#611
1Q
1.
0&
0Y
0K
1i
1E
1L
1b
b00000100 0
1U
b00011101 d
b00011110 1
0*
0]
1W
1;
#616
0Q
0U
0.
0W
0i
0E
0L
0b
#621
b00000101 0
1Q
1U
b00011110 d
1.
1Y
1*
1W
1i
1E
1L
1b
#626
0Q
0-
0%
0.
0i
0E
0L
0/
0b
0!
0U
0e
0W
0^
#631
1Q
14
1.
1&
0Y
1K
1i
1E
1L
1b
b00000110 0
1U
b00011111 1
18
0*
1]
1W
b010000 I
0;
#636
0Q
0U
0.
0W
0i
0E
0L
0b
#641
b00000111 0
1Q
1U
1@
1.
1Y
1*
1W
1i
1E
1L
1A
1b
#646
0Q
1-
1%
0.
0i
0E
0L
1/
0b
1!
0U
1e
0W
1^
#651
1Q
1.
0&
0Y
0K
1i
1E
1L
1b
b00000000 0
1U
b00011111 d
b00100000 1
0*
0]
1W
1;
#656
0Q
0U
0.
0W
0i
0E
0L
0b
#661
b00000001 0
1Q
1U
b00100000 d
1.
1Y
1*
1W
1i
1E
1L
1b
#666
0Q
0-
0%
0.
0i
0E
0L
0/
0b
0!
0U
0e
0W
0^
#671
1Q
04
1.
1&
0Y
1K
1i
1E
1L
1b
b00000010 0
1U
b00100001 1
08
0*
1]
1W
b010001 I
0;
#676
0Q
0U
0.
0W
0i
0E
0L
0b
#681
b00000011 0
1Q
1U
0@
1.
1Y
1*
1W
1i
1E
1L
0A
1b
#686
0Q
1-
1%
0.
0i
0E
0L
1/
0b
1!
0U
1e
0W
1^
#691
1Q
1.
0&
0Y
0K
1i
1E
1L
1b
b00000100 0
1U
b00100001 d
b00100010 1
0*
0]
1W
1;
#696
0Q
0U
0.
0W
0i
0E
0L
0b
#701
b00000101 0
1Q
1U
b00100010 d
1.
1Y
1*
1W
1i
1E
1L
1b
#706
0Q
0-
0%
0.
0i
0E
0L
0/
0b
0!
0U
0e
0W
0^
#711
1Q
14
1.
1&
0Y
1K
1i
1E
1L
1b
b00000110 0
1U
b00100011 1
18
0*
1]
1W
b010010 I
0;
#716
0Q
0U
0.
0W
0i
0E
0L
0b
#721
b00000111 0
1Q
1U
1@
1.
1Y
1*
1W
1i
1E
1L
1A
1b
#726
0Q
1-
1%
0.
0i
0E
0L
1/
0b
1!
0U
1e
0W
1^
#731
1Q
1.
0&
0Y
0K
1i
1E
1L
1b
b00000000 0
1U
b00100011 d
b00100100 1
0*
0]
1W
1;
#736
0Q
0U
0.
0W
0i
0E
0L
0b
#741
b00000001 0
1Q
1U
b00100100 d
1.
1Y
1*
1W
1i
1E
1L
1b
#746
0Q
0-
0%
0.
0i
0E
0L
0/
0b
0!
0U
0e
0W
0^
#751
1Q
04
1.
1&
0Y
1K
1i
1E
1L
1b
b00000010 0
1U
b00100101 1
08
0*
1]
1W
b010011 I
0;
#756
0Q
0U
0.
0W
0i
0E
0L
0b
#761
b00000011 0
1Q
1U
0@
1.
1Y
1*
1W
1i
1E
1L
0A
1b
#766
0Q
1-
1%
0.
0i
0E
0L
1/
0b
1!
0U
1e
0W
1^
#771
1Q
1.
0&
0Y
0K
1i
1E
1L
1b
b00000100 0
1U
b00100101 d
b00100110 1
0*
0]
1W
1;
#776
0Q
0U
0.
0W
0i
0E
0L
0b
#781
b00000101 0
1Q
1U
b00100110 d
1.
1Y
1*
1W
1i
1E
1L
1b
#786
0Q
0-
0%
0.
0i
0E
0L
0/
0b
0!
0U
0e
0W
0^
#791
1Q
14
1.
1&
0Y
1K
1i
1E
1L
1b
b00000110 0
1U
b00100111 1
18
0*
1]
1W
b010100 I
0;
#796
0Q
0U
0.
0W
0i
0E
0L
0b
#801
b00000111 0
1Q
1U
1@
1.
1Y
1*
1W
1i
1E
1L
1A
1b
#806
0Q
1-
1%
0.
0i
0E
0L
1/
0b
1!
0U
1e
0W
1^
#811
1Q
1.
0&
0Y
0K
1i
1E
1L
1b
b00000000 0
1U
b00100111 d
b00101000 1
0*
0]
1W
1;
#816
0Q
0U
0.
0W
0i
0E
0L
0b
#821
b00000001 0
1Q
1U
b00101000 d
1.
1Y
1*
1W
1i
1E
1L
1b
#826
0Q
0-
0%
0.
0i
0E
0L
0/
0b
0!
0U
0e
0W
0^
#831
1Q
04
1.
1&
0Y
1K
1i
1E
1L
1b
b00000010 0
1U
b00101001 1
08
0*
1]
1W
b010101 I
0;
#836
0Q
0U
0.
0W
0i
0E
0L
0b
#841
b00000011 0
1Q
1U
0@
1.
1Y
1*
1W
1i
1E
1L
0A
1b
#846
0Q
1-
1%
0.
0i
0E
0L
1/
0b
1!
0U
1e
0W
1^
#851
1Q
1.
0&
0Y
0K
1i
1E
1L
1b
b00000100 0
1U
b00101001 d
b00101010 1
0*
0]
1W
1;
#856
0Q
0U
0.
0W
0i
0E
0L
0b
#861
b00000101 0
1Q
1U
b00101010 d
1.
1Y
1*
1W
1i
1E
1L
1b
#866
0Q
0-
0%
0.
0i
0E
0L
0/
0b
0!
0U
0e
0W
0^
#871
1Q
14
1.
1&
0Y
1K
1i
1E
1L
1b
b00000110 0
1U
b00101011 1
18
0*
1]
1W
b010110 I
0;
#876
0Q
0U
0.
0W
0i
0E
0L
0b
#881
b00000111 0
1Q
1U
1@
1.
1Y
1*
1W
1i
1E
1L
1A
1b
#886
0Q
1-
1%
0.
0i
0E
0L
1/
0b
1!
0U
1e
0W
1^
#891
1Q
1.
0&
0Y
0K
1i
1E
1L
1b
b00000000 0
1U
b00101011 d
b00101100 1
0*
0]
1W
1;
#896
0Q
0U
0.
0W
0i
0E
0L
0b
#901
b00000001 0
1Q
1U
b00101100 d
1.
1Y
1*
1W
1i
1E
1L
1b
#906
0Q
0-
0%
0.
0i
0E
0L
0/
0b
0!
0U
0e
0W
0^
#911
1Q
04
1.
1&
0Y
1K
1i
1E
1L
1b
b00000010 0
1U
b00101101 1
08
0*
1]
1W
b010111 I
0;
#916
0Q
0U
0.
0W
0i
0E
0L
0b
#921
b00000011 0
1Q
1U
0@
1.
1Y
1*
1W
1i
1E
1L
0A
1b
#926
0Q
1-
1%
0.
0i
0E
0L
1/
0b
1!
0U
1e
0W
1^
#931
1Q
1.
0&
0Y
0K
1i
1E
1L
1b
b00000100 0
1U
b00101101 d
b00101110 1
0*
0]
1W
1;
#936
0Q
0U
0.
0W
0i
0E
0L
0b
#941
b00000101 0
1Q
1U
b00101110 d
1.
1Y
1*
1W
1i
1E
1L
1b
#946
0Q
0-
0%
0.
0i
0E
0L
0/
0b
0!
0U
0e
0W
0^
#951
1Q
14
1.
1&
0Y
1K
1i
1E
1L
1b
b00000110 0
1U
b00101111 1
18
0*
1]
1W
b011000 I
0;
#956
0Q
0U
0.
0W
0i
0E
0L
0b
#961
b00000111 0
1Q
1U
1@
1.
1Y
1*
1W
1i
1E
1L
1A
1b
#966
0Q
1-
1%
0.
0i
0E
0L
1/
0b
1!
0U
1e
0W
1^
#971
1Q
1.
0&
0Y
0K
1i
1E
1L
1b
b00000000 0
1U
b00101111 d
b00110000 1
0*
0]
1W
1;
#976
0Q
0U
0.
0W
0i
0E
0L
0b
#981
b00000001 0
1Q
1U
b00110000 d
1.
1Y
1*
1W
1i
1E
1L
1b
#986
0Q
0-
0%
0.
0i
0E
0L
0/
0b
0!
0U
0e
0W
0^
#991
1Q
04
1.
1&
0Y
1K
1i
1E
1L
1b
b00000010 0
1U
b00110001 1
08
0*
1]
1W
b011001 I
0;
#996
0Q
0U
0.
0W
0i
0E
0L
0b
#1001
b00000011 0
1Q
1U
0@
1.
1Y
1*
1W
1i
1E
1L
0A
1b
#1006
0Q
1-
1%
0.
0i
0E
0L
1/
0b
1!
0U
1e
0W
1^
#1011
1Q
1.
0&
0Y
0K
1i
1E
1L
1b
b00000100 0
1U
b00110001 d
b00110010 1
0*
0]
1W
1;
#1016
0Q
0U
0.
0W
0i
0E
0L
0b
#1021
b00000101 0
1Q
1U
b00110010 d
1.
1Y
1*
1W
1i
1E
1L
1b
#1026
0Q
0-
0%
0.
0i
0E
0L
0/
0b
0!
0U
0e
0W
0^
#1031
1Q
14
1.
1&
0Y
1K
1i
1E
1L
1b
b00000110 0
1U
b00110011 1
18
0*
1]
1W
b011010 I
0;
#1036
0Q
0U
0.
0W
0i
0E
0L
0b
#1041
b00000111 0
1Q
1U
1@
1.
1Y
1*
1W
1i
1E
1L
1A
1b
#1046
0Q
1-
1%
0.
0i
0E
0L
1/
0b
1!
0U
1e
0W
1^
#1051
1Q
1.
0&
0Y
0K
1i
1E
1L
1b
b00000000 0
1U
b00110011 d
b00110100 1
0*
0]
1W
1;
#1056
0Q
0U
0.
0W
0i
0E
0L
0b
#1061
b00000001 0
1Q
1U
b00110100 d
1.
1Y
1*
1W
1i
1E
1L
1b
#1066
0Q
0-
0%
0.
0i
0E
0L
0/
0b
0!
0U
0e
0W
0^
#1071
1Q
04
1.
1&
0Y
1K
1i
1E
1L
1b
b00000010 0
1U
b00110101 1
08
0*
1]
1W
b011011 I
0;
#1076
0Q
0U
0.
0W
0i
0E
0L
0b
#1081
b00000011 0
1Q
1U
0@
1.
1Y
1*
1W
1i
1E
1L
0A
1b
#1086
0Q
1-
1%
0.
0i
0E
0L
1/
0b
1!
0U
1e
0W
1^
#1091
1Q
1.
0&
0Y
0K
1i
1E
1L
1b
b00000100 0
1U
b00110101 d
b00110110 1
0*
0]
1W
1;
#1096
0Q
0U
0.
0W
0i
0E
0L
0b
#1101
b00000101 0
1Q
1U
b00110110 d
1.
1Y
1*
1W
1i
1E
1L
1b
#1106
0Q
0-
0%
0.
0i
0E
0L
0/
0b
0!
0U
0e
0W
0^
#1111
1Q
14
1.
1&
0Y
1K
1i
1E
1L
1b
b00000110 0
1U
b00110111 1
18
0*
1]
1W
b011100 I
0;
#1116
0Q
0U
0.
0W
0i
0E
0L
0b
#1121
b00000111 0
1Q
1U
1@
1.
1Y
1*
1W
1i
1E
1L
1A
1b
#1126
0Q
1-
1%
0.
0i
0E
0L
1/
0b
1!
0U
1e
0W
1^
#1131
1Q
1.
0&
0Y
0K
1i
1E
1L
1b
b00000000 0
1U
b00110111 d
b00111000 1
0*
0]
1W
1;
#1136
0Q
0U
0.
0W
0i
0E
0L
0b
#1141
b00000001 0
1Q
1U
b00111000 d
1.
1Y
1*
1W
1i
1E
1L
1b
#1146
0Q
0-
0%
0.
0i
0E
0L
0/
0b
0!
0U
0e
0W
0^
#1151
1Q
04
1.
1&
0Y
1K
1i
1E
1L
1b
b00000010 0
1U
b00111001 1
08
0*
1]
1W
b011101 I
0;
#1156
0Q
0U
0.
0W
0i
0E
0L
0b
#1161
b00000011 0
1Q
1U
0@
1.
1Y
1*
1W
1i
1E
1L
0A
1b
#1166
0Q
1-
1%
0.
0i
0E
0L
1/
0b
1!
0U
1e
0W
1^
#1171
1Q
1.
0&
0Y
0K
1i
1E
1L
1b
b00000100 0
1U
b00111001 d
b00111010 1
0*
0]
1W
1;
#1176
0Q
0U
0.
0W
0i
0E
0L
0b
#1181
b00000101 0
1Q
1U
b00111010 d
1.
1Y
1*
1W
1i
1E
1L
1b
#1186
0Q
0-
0%
0.
0i
0E
0L
0/
0b
0!
0U
0e
0W
0^
#1191
1Q
14
1.
1&
0Y
1K
1i
1E
1L
1b
b00000110 0
1U
b00111011 1
18
0*
1]
1W
b011110 I
0;
#1196
0Q
0U
0.
0W
0i
0E
0L
0b
#1201
b00000111 0
1Q
1U
1@
1.
1Y
1*
1W
1i
1E
1L
1A
1b
#1206
0Q
1-
1%
0.
0i
0E
0L
1/
0b
1!
0U
1e
0W
1^
#1211
1Q
1.
0&
0Y
0K
1i
1E
1L
1b
b00000000 0
1U
b00111011 d
b00111100 1
0*
0]
1W
1;
#1216
0Q
0U
0.
0W
0i
0E
0L
0b
#1221
b00000001 0
1Q
1U
b00111100 d
1.
1Y
1*
1W
1i
1E
1L
1b
#1226
0Q
0-
0%
0.
0i
0E
0L
0/
0b
0!
0U
0e
0W
0^
#1231
1Q
04
1.
1&
0Y
1K
1i
1E
1L
1b
b00000010 0
1U
b00111101 1
08
0*
1]
1W
b011111 I
0;
#1236
0Q
0U
0.
0W
0i
0E
0L
0b
#1241
b00000011 0
1Q
1U
0@
1.
1Y
1*
1W
1i
1E
1L
0A
1b
#1246
0Q
1-
1%
0.
0i
0E
0L
1/
0b
1!
0U
1e
0W
1^
#1251
1Q
1.
0&
0Y
0K
1i
1E
1L
1b
b00000100 0
1U
b00111101 d
b00111110 1
0*
0]
1W
1;
#1256
0Q
0U
0.
0W
0i
0E
0L
0b
#1261
b00000101 0
1Q
1U
b00111110 d
1.
1Y
1*
1W
1i
1E
1L
1b
#1266
0Q
0-
0%
0.
0i
0E
0L
0/
0b
0!
0U
0e
0W
0^
#1271
1Q
14
1.
1&
0Y
1K
1i
1E
1L
1b
b00000110 0
1U
b00111111 1
18
0*
1]
1W
b100000 I
0;
#1276
0Q
0U
0.
0W
0i
0E
0L
0b
#1281
b00000111 0
1Q
1U
1@
1.
1Y
1*
1W
1i
1E
1L
1A
1b
#1286
0Q
1-
1%
0.
0i
0E
0L
1/
0b
1!
0U
1e
0W
1^
#1291
1B
1Q
1.
0&
0Y
0K
1i
1E
1L
1b
b00000000 0
1U
b00111111 d
b01000000 1
0*
0]
1l
1W
1H
1O
1;
#1296
0Q
0U
0.
0W
0i
0E
0L
0b
#1301
0B
1Q
1.
15
1Y
1i
1E
1L
1b
b00000001 0
0T
1U
b00000000 d
1*
0$
1W
0l
0H
0O
#1306
0Q
0-
0%
0.
0i
0E
0L
0/
0b
0!
0U
0e
0W
0^
#1311
1Q
04
1.
1&
05
0Y
1K
1i
1E
1L
1b
b00000010 0
1T
1U
b01000001 1
08
0*
1]
1$
1W
b100001 I
0;
#1316
0Q
0U
0.
0W
0i
0E
0L
0b
