InterVox_Transmitter/test_run_dir/interVox_Encoder_should_pass/interVox_Encoder.vcd
$date
2023-01-12T12:13+0000
$end
$version
0.2
$end
$comment

$end
$timescale 1ns  $end
$scope module interVox_Encoder $end
 $var wire 1 % io_BCLK_O $end
 $var wire 1 ' io_LRCLK_O $end
 $var wire 1 ) io_MCLK_O $end
 $var wire 1 * io_NXT_FRAME $end
 $var wire 1 + io_SDATA_O $end
 $var wire 8 / BiPhase_CLK_CNTR $end
 $var wire 12 0 io_sw $end
 $var wire 1 5 encoderClk $end
 $var wire 1 8 synced $end
 $var wire 1 = io_LRCLK_IN $end
 $var wire 1 ? BFR1 $end
 $var wire 1 A io_DATA_O $end
 $var wire 2 C current_state $end
 $var wire 1 N BFR $end
 $var wire 1 Q io_SDATA_IN $end
 $var wire 1 V clock $end
 $var wire 1 c bi_phase_enc $end
 $var wire 8 d bitCntr $end
 $var wire 1 e io_BCLK_IN $end
 $var wire 1 h reset $end
  $scope module bi_phase_enc $end
   $var wire 64 1 stereoData $end
   $var wire 1 3 outReg $end
   $var wire 64 7 io_AUDIOINPUT $end
   $var wire 1 9 io_DATA_OUT $end
   $var wire 1 D clock $end
   $var wire 6 G dataIndex $end
   $var wire 1 H hasNone $end
   $var wire 1 J ndexR $end
   $var wire 8 R bitCntr_enc $end
   $var wire 1 X io_TICK $end
   $var wire 1 ] io_ENA $end
   $var wire 1 k reset $end
  $upscope $end
  $scope module BFR $end
   $var wire 64 " mem $end
   $var wire 1 & mem_rdwrPort_r_en_pipe_0 $end
   $var wire 1 - clock $end
   $var wire 64 > io_dataOut $end
   $var wire 64 K io_dataIn $end
   $var wire 1 [ io_enable $end
   $var wire 1 ^ io_write $end
   $var wire 1 ` mem_rdwrPort_r_addr_pipe_0 $end
    $scope module mem $end
     $var wire 64 a rdwrPort_w $end
      $scope module rdwrPort_w $end
       $var wire 1 ! mask $end
       $var wire 1 , valid $end
       $var wire 1 . en $end
       $var wire 1 ; addr $end
       $var wire 1 < pipeline_valid_0 $end
       $var wire 1 E pipeline_addr_0 $end
       $var wire 64 W data $end
       $var wire 64 g pipeline_data_0 $end
       $var wire 1 i clk $end
      $upscope $end
      $scope module rdwrPort_r $end
       $var wire 1 @ addr $end
       $var wire 1 O clk $end
       $var wire 64 Z data $end
       $var wire 1 \ en $end
      $upscope $end
    $upscope $end
  $upscope $end
  $scope module BFR1 $end
   $var wire 1 # io_enable $end
   $var wire 1 L mem_rdwrPort_r_addr_pipe_0 $end
   $var wire 1 M io_write $end
   $var wire 1 S mem_rdwrPort_r_en_pipe_0 $end
   $var wire 1 T clock $end
   $var wire 64 U mem $end
   $var wire 64 f io_dataIn $end
   $var wire 64 j io_dataOut $end
    $scope module mem $end
     $var wire 64 _ rdwrPort_w $end
      $scope module rdwrPort_r $end
       $var wire 1 $ en $end
       $var wire 1 : addr $end
       $var wire 1 I clk $end
       $var wire 64 Y data $end
      $upscope $end
      $scope module rdwrPort_w $end
       $var wire 1 ( pipeline_addr_0 $end
       $var wire 1 2 addr $end
       $var wire 1 4 pipeline_valid_0 $end
       $var wire 64 6 pipeline_data_0 $end
       $var wire 1 B en $end
       $var wire 1 F valid $end
       $var wire 64 P data $end
       $var wire 1 b clk $end
       $var wire 1 l mask $end
      $upscope $end
    $upscope $end
  $upscope $end
$upscope $end
$enddefinitions $end
$dumpvars
0X
0;
0&
b0000000000000000000000000000000000000000000000000000000000000000 g
0=
b00000000 d
b000000000000 0
b0000000000000000000000000000000000000000000000000000000000000000 7
0i
0T
0k
0V
b0000000000000000000000000000000000000000000000000000000000000000 1
0N
09
0e
03
b0000000000000000000000000000000000000000000000000000000000000000 _
0J
05
b0000000000000000000000000000000000000000000000000000000000000000 a
0-
b0000000000000000000000000000000000000000000000000000000000000000 Y
0L
0D
b0000000000000000000000000000000000000000000000000000000000000000 >
0c
0[
0F
0)
b0000000000000000000000000000000000000000000000000000000000000000 U
0]
0H
0@
0+
b00000000 R
b0000000000000000000000000000000000000000000000000000000000000000 W
0B
b00 C
0%
b00000000 /
0<
0'
b0000000000000000000000000000000000000000000000000000000000000000 K
b0000000000000000000000000000000000000000000000000000000000000000 6
0S
b0000000000000000000000000000000000000000000000000000000000000000 j
0!
0M
08
0#
0l
0O
0:
b0000000000000000000000000000000000000000000000000000000000000000 f
02
0Q
0I
04
0h
0`
0.
b0000000000000000000000000000000000000000000000000000000000000000 Z
0b
b000000 G
0E
0(
0\
b0000000000000000000000000000000000000000000000000000000000000000 "
0?
0*
0^
0A
0,
0$
b0000000000000000000000000000000000000000000000000000000000000000 P
$end
#0
1#
1h
1k
1[
#1
1T
1-
1&
1V
1S
1D
1$
1i
1O
1I
1b
1)
1\
#6
0-
1%
0h
0D
1'
0i
1=
0b
0)
0T
0k
0V
1e
0O
0I
#11
1T
1-
b10 C
1V
1D
1i
1O
1I
b00000001 /
1b
1)
#16
0T
0-
0V
0D
0i
0O
0I
0b
0)
#21
1T
1-
1V
1D
1i
1O
1I
b00000010 /
1b
1)
#26
0T
0-
0%
0V
0D
0e
0i
0O
0I
0b
0)
#31
1T
1-
1V
1D
1i
1O
1I
b00000011 /
1b
1)
#36
0T
0-
0V
0D
0i
0O
0I
0b
0)
#41
1T
1-
1V
1D
1i
1O
1I
b00000000 /
1b
1)
#46
0T
0-
1%
0V
0D
1e
0i
0O
0I
0b
0)
#51
1T
1-
1V
1D
1i
1O
1I
b00000001 /
1b
1)
#56
0T
0-
0V
0D
0i
0O
0I
0b
0)
#61
1T
1-
1V
1D
1i
1O
1I
b00000010 /
1b
1)
#66
0T
0-
0%
0V
0D
0e
0i
0O
0I
0b
0)
#71
1T
1-
1V
1D
1i
1O
1I
b00000011 /
1b
1)
#76
0T
0-
0V
0D
0i
0O
0I
0b
0)
#81
1T
1-
1V
1D
1i
1O
1I
b00000000 /
1b
1)
#86
0T
0-
1%
0V
0D
1e
0i
0O
0I
0b
0)
#91
1T
1-
1V
1D
1i
1O
1I
b00000001 /
1b
1)
#96
0T
0-
0V
0D
0i
0O
0I
0b
0)
#101
1T
1-
1V
1D
1i
1O
1I
b00000010 /
1b
1)
#106
0T
0-
0%
0V
0D
0e
0i
0O
0I
0b
0)
#111
1T
1-
1V
1D
1i
1O
1I
b00000011 /
1b
1)
#116
0T
0-
0V
0D
0i
0O
0I
0b
0)
#121
1T
1-
1V
1D
1i
1O
1I
b00000000 /
1b
1)
#126
0T
0-
1%
0V
0D
1e
0i
0O
0I
0b
0)
#131
1T
1-
1V
1D
1i
1O
1I
b00000001 /
1b
1)
#136
0T
0-
0V
0D
0i
0O
0I
0b
0)
#141
1T
1-
1V
1D
1i
1O
1I
b00000010 /
1b
1)
#146
0T
0-
0%
0V
0D
0e
0i
0O
0I
0b
0)
#151
1T
1-
1V
1D
1i
1O
1I
b00000011 /
1b
1)
#156
0T
0-
0V
0D
0i
0O
0I
0b
0)
#161
1T
1-
1V
1D
1i
1O
1I
b00000000 /
1b
1)
#166
0T
0-
1%
0V
0D
1e
0i
0O
0I
0b
0)
#171
1T
1-
1V
1D
1i
1O
1I
b00000001 /
1b
1)
#176
0T
0-
0V
0D
0i
0O
0I
0b
0)
#181
1T
1-
1V
1D
1i
1O
1I
b00000010 /
1b
1)
#186
0T
0-
0%
0V
0D
0e
0i
0O
0I
0b
0)
#191
1T
1-
1V
1D
1i
1O
1I
b00000011 /
1b
1)
#196
0T
0-
0V
0D
0i
0O
0I
0b
0)
#201
1T
1-
1V
1D
1i
1O
1I
b00000000 /
1b
1)
#206
0T
0-
1%
0V
0D
1e
0i
0O
0I
0b
0)
#211
1T
1-
1V
1D
1i
1O
1I
b00000001 /
1b
1)
#216
0T
0-
0V
0D
0i
0O
0I
0b
0)
#221
1T
1-
1V
1D
1i
1O
1I
b00000010 /
1b
1)
#226
0T
0-
0%
0V
0D
0e
0i
0O
0I
0b
0)
#231
1T
1-
1V
1D
1i
1O
1I
b00000011 /
1b
1)
#236
0T
0-
0V
0D
0i
0O
0I
0b
0)
#241
1T
1-
1V
1D
1i
1O
1I
b00000000 /
1b
1)
#246
0T
0-
1%
0V
0D
1e
0i
0O
0I
0b
0)
#251
1T
1-
1V
1D
1i
1O
1I
b00000001 /
1b
1)
#256
0T
0-
0V
0D
0i
0O
0I
0b
0)
#261
1T
1-
1V
1D
1i
1O
1I
b00000010 /
1b
1)
#266
0T
0-
0%
0V
0D
0e
0i
0O
0I
0b
0)
#271
1T
1-
1V
1D
1i
1O
1I
b00000011 /
1b
1)
#276
0T
0-
0V
0D
0i
0O
0I
0b
0)
#281
1T
1-
1V
1D
1i
1O
1I
b00000000 /
1b
1)
#286
0T
0-
1%
0V
0D
1e
0i
0O
0I
0b
0)
#291
1T
1-
1V
1D
1i
1O
1I
b00000001 /
1b
1)
#296
0T
0-
0V
0D
0i
0O
0I
0b
0)
#301
1T
1-
1V
1D
1i
1O
1I
b00000010 /
1b
1)
#306
0T
0-
0%
0V
0D
0e
0i
0O
0I
0b
0)
#311
1T
1-
1V
1D
1i
1O
1I
b00000011 /
1b
1)
#316
0T
0-
0V
0D
0i
0O
0I
0b
0)
#321
1T
1-
1V
1D
1i
1O
1I
b00000000 /
1b
1)
#326
0T
0-
1%
0V
0D
1e
0i
0O
0I
0b
0)
#331
1T
1-
1V
1D
1i
1O
1I
b00000001 /
1b
1)
#336
0T
0-
0V
0D
0i
0O
0I
0b
0)
#341
1T
1-
1V
1D
1i
1O
1I
b00000010 /
1b
1)
#346
0T
0-
0%
0V
0D
0e
0i
0O
0I
0b
0)
#351
1T
1-
1V
1D
1i
1O
1I
b00000011 /
1b
1)
#356
0T
0-
0V
0D
0i
0O
0I
0b
0)
#361
1T
1-
1V
1D
1i
1O
1I
b00000000 /
1b
1)
#366
0T
0-
1%
0V
0D
1e
0i
0O
0I
0b
0)
#371
1T
1-
1V
1D
1i
1O
1I
b00000001 /
1b
1)
#376
0T
0-
0V
0D
0i
0O
0I
0b
0)
#381
1T
1-
1V
1D
1i
1O
1I
b00000010 /
1b
1)
#386
0T
0-
0%
0V
0D
0e
0i
0O
0I
0b
0)
#391
1T
1-
1V
1D
1i
1O
1I
b00000011 /
1b
1)
#396
0T
0-
0V
0D
0i
0O
0I
0b
0)
#401
1T
1-
1V
1D
1i
1O
1I
b00000000 /
1b
1)
#406
0T
0-
1%
0V
0D
1e
0i
0O
0I
0b
0)
#411
1T
1-
1V
1D
1i
1O
1I
b00000001 /
1b
1)
#416
0T
0-
0V
0D
0i
0O
0I
0b
0)
#421
1T
1-
1V
1D
1i
1O
1I
b00000010 /
1b
1)
#426
0T
0-
0%
0V
0D
0e
0i
0O
0I
0b
0)
#431
1T
1-
1V
1D
1i
1O
1I
b00000011 /
1b
1)
#436
0T
0-
0V
0D
0i
0O
0I
0b
0)
#441
1T
1-
1V
1D
1i
1O
1I
b00000000 /
1b
1)
#446
0T
0-
1%
0V
0D
1e
0i
0O
0I
0b
0)
#451
1T
1-
1V
1D
1i
1O
1I
b00000001 /
1b
1)
#456
0T
0-
0V
0D
0i
0O
0I
0b
0)
#461
1T
1-
1V
1D
1i
1O
1I
b00000010 /
1b
1)
#466
0T
0-
0%
0V
0D
0e
0i
0O
0I
0b
0)
#471
1T
1-
1V
1D
1i
1O
1I
b00000011 /
1b
1)
#476
0T
0-
0V
0D
0i
0O
0I
0b
0)
#481
1T
1-
1V
1D
1i
1O
1I
b00000000 /
1b
1)
#486
0T
0-
1%
0V
0D
1e
0'
0i
0O
0=
0I
0b
0)
#491
1T
1-
1V
1D
1i
1O
1I
b00000001 /
1b
1)
#496
0T
0-
0V
0D
0i
0O
0I
0b
0)
#501
1T
1-
1V
1D
1i
1O
1I
b00000010 /
1b
1)
#506
0T
0-
0%
0V
0D
0e
0i
0O
0I
0b
0)
#511
1T
1-
1V
1D
1i
1O
1I
b00000011 /
1b
1)
#516
0T
0-
0V
0D
0i
0O
0I
0b
0)
#521
1T
1-
b00000001 d
1V
1D
1i
1O
1I
b00000000 /
1b
1)
#526
0T
0-
1%
0V
0D
1e
0i
0O
0I
0b
0)
#531
1T
1-
1V
1D
1i
1O
1I
b00000001 /
1b
1)
#536
0T
0-
0V
0D
0i
0O
0I
0b
0)
#541
1T
1-
1V
1D
1i
1O
1I
b00000010 /
1b
1)
#546
0T
0-
0%
0V
0D
0e
0i
0O
0I
0b
0)
#551
1T
1-
1V
1D
1i
1O
1I
b00000011 /
1b
1)
#556
0T
0-
0V
0D
0i
0O
0I
0b
0)
#561
1T
1-
b00000010 d
1V
1D
1i
1O
1I
b00000000 /
1b
1)
#566
0T
0-
1%
0V
0D
1e
0i
0O
0I
0b
0)
#571
1T
1-
1V
1D
1i
1O
1I
b00000001 /
1b
1)
#576
0T
0-
0V
0D
0i
0O
0I
0b
0)
#581
1T
1-
1V
1D
1i
1O
1I
b00000010 /
1b
1)
#586
0T
0-
0%
0V
0D
0e
0i
0O
0I
0b
0)
#591
1T
1-
1V
1D
1i
1O
1I
b00000011 /
1b
1)
#596
0T
0-
0V
0D
0i
0O
0I
0b
0)
#601
1T
1-
b00000011 d
1V
1D
1i
1O
1I
b00000000 /
1b
1)
#606
0T
0-
1%
0V
0D
1e
0i
0O
0I
0b
0)
#611
1T
1-
1V
1D
1i
1O
1I
b00000001 /
1b
1)
#616
0T
0-
0V
0D
0i
0O
0I
0b
0)
#621
1T
1-
1V
1D
1i
1O
1I
b00000010 /
1b
1)
#626
0T
0-
0%
0V
0D
0e
0i
0O
0I
0b
0)
#631
1T
1-
1V
1D
1i
1O
1I
b00000011 /
1b
1)
#636
0T
0-
0V
0D
0i
0O
0I
0b
0)
#641
1T
1-
b00000100 d
1V
1D
1i
1O
1I
b00000000 /
1b
1)
#646
0T
0-
1%
0V
0D
1e
0i
0O
0I
0b
0)
#651
1T
1-
1V
1D
1i
1O
1I
b00000001 /
1b
1)
#656
0T
0-
0V
0D
0i
0O
0I
0b
0)
#661
1T
1-
1V
1D
1i
1O
1I
b00000010 /
1b
1)
#666
0T
0-
0%
0V
0D
0e
0i
0O
0I
0b
0)
#671
1T
1-
1V
1D
1i
1O
1I
b00000011 /
1b
1)
#676
0T
0-
0V
0D
0i
0O
0I
0b
0)
#681
1T
1-
b00000101 d
1V
1D
1i
1O
1I
b00000000 /
1b
1)
#686
0T
0-
1%
0V
0D
1e
0i
0O
0I
0b
0)
#691
1T
1-
1V
1D
1i
1O
1I
b00000001 /
1b
1)
#696
0T
0-
0V
0D
0i
0O
0I
0b
0)
#701
1T
1-
1V
1D
1i
1O
1I
b00000010 /
1b
1)
#706
0T
0-
0%
0V
0D
0e
0i
0O
0I
0b
0)
#711
1T
1-
1V
1D
1i
1O
1I
b00000011 /
1b
1)
#716
0T
0-
0V
0D
0i
0O
0I
0b
0)
#721
1T
1-
b00000110 d
1V
1D
1i
1O
1I
b00000000 /
1b
1)
#726
0T
0-
1%
0V
0D
1e
0i
0O
0I
0b
0)
#731
1T
1-
1V
1D
1i
1O
1I
b00000001 /
1b
1)
#736
0T
0-
0V
0D
0i
0O
0I
0b
0)
#741
1T
1-
1V
1D
1i
1O
1I
b00000010 /
1b
1)
#746
0T
0-
0%
0V
0D
0e
0i
0O
0I
0b
0)
#751
1T
1-
1V
1D
1i
1O
1I
b00000011 /
1b
1)
#756
0T
0-
0V
0D
0i
0O
0I
0b
0)
#761
1T
1-
b00000111 d
1V
1D
1i
1O
1I
b00000000 /
1b
1)
#766
0T
0-
1%
0V
0D
1e
0i
0O
0I
0b
0)
#771
1T
1-
1V
1D
1i
1O
1I
b00000001 /
1b
1)
#776
0T
0-
0V
0D
0i
0O
0I
0b
0)
#781
1T
1-
1V
1D
1i
1O
1I
b00000010 /
1b
1)
#786
0T
0-
0%
0V
0D
0e
0i
0O
0I
0b
0)
#791
1T
1-
1V
1D
1i
1O
1I
b00000011 /
1b
1)
#796
0T
0-
0V
0D
0i
0O
0I
0b
0)
#801
1T
1-
b00001000 d
1V
1D
1i
1O
1I
b00000000 /
1b
1)
#806
0T
0-
1%
0V
0D
1e
0i
0O
0I
0b
0)
#811
1T
1-
1V
1D
1i
1O
1I
b00000001 /
1b
1)
#816
0T
0-
0V
0D
0i
0O
0I
0b
0)
#821
1T
1-
1V
1D
1i
1O
1I
b00000010 /
1b
1)
#826
0T
0-
0%
0V
0D
0e
0i
0O
0I
0b
0)
#831
1T
1-
1V
1D
1i
1O
1I
b00000011 /
1b
1)
#836
0T
0-
0V
0D
0i
0O
0I
0b
0)
#841
1T
1-
b00001001 d
1V
1D
1i
1O
1I
b00000000 /
1b
1)
#846
0T
0-
1%
0V
0D
1e
0i
0O
0I
0b
0)
#851
1T
1-
1V
1D
1i
1O
1I
b00000001 /
1b
1)
#856
0T
0-
0V
0D
0i
0O
0I
0b
0)
#861
1T
1-
1V
1D
1i
1O
1I
b00000010 /
1b
1)
#866
0T
0-
0%
0V
0D
0e
0i
0O
0I
0b
0)
#871
1T
1-
1V
1D
1i
1O
1I
b00000011 /
1b
1)
#876
0T
0-
0V
0D
0i
0O
0I
0b
0)
#881
1T
1-
b00001010 d
1V
1D
1i
1O
1I
b00000000 /
1b
1)
#886
0T
0-
1%
0V
0D
1e
0i
0O
0I
0b
0)
#891
1T
1-
1V
1D
1i
1O
1I
b00000001 /
1b
1)
#896
0T
0-
0V
0D
0i
0O
0I
0b
0)
#901
1T
1-
1V
1D
1i
1O
1I
b00000010 /
1b
1)
#906
0T
0-
0%
0V
0D
0e
0i
0O
0I
0b
0)
#911
1T
1-
1V
1D
1i
1O
1I
b00000011 /
1b
1)
#916
0T
0-
0V
0D
0i
0O
0I
0b
0)
#921
1T
1-
b00001011 d
1V
1D
1i
1O
1I
b00000000 /
1b
1)
#926
0T
0-
1%
0V
0D
1e
0i
0O
0I
0b
0)
#931
1T
1-
1V
1D
1i
1O
1I
b00000001 /
1b
1)
#936
0T
0-
0V
0D
0i
0O
0I
0b
0)
#941
1T
1-
1V
1D
1i
1O
1I
b00000010 /
1b
1)
#946
0T
0-
0%
0V
0D
0e
0i
0O
0I
0b
0)
#951
1T
1-
1V
1D
1i
1O
1I
b00000011 /
1b
1)
#956
0T
0-
0V
0D
0i
0O
0I
0b
0)
#961
1T
1-
b00001100 d
1V
1D
1i
1O
1I
b00000000 /
1b
1)
#966
0T
0-
1%
0V
0D
1e
0i
0O
0I
0b
0)
#971
1T
1-
1V
1D
1i
1O
1I
b00000001 /
1b
1)
#976
0T
0-
0V
0D
0i
0O
0I
0b
0)
#981
1T
1-
1V
1D
1i
1O
1I
b00000010 /
1b
1)
#986
0T
0-
0%
0V
0D
0e
0i
0O
0I
0b
0)
#991
1T
1-
1V
1D
1i
1O
1I
b00000011 /
1b
1)
#996
0T
0-
0V
0D
0i
0O
0I
0b
0)
#1001
1T
1-
b00001101 d
1V
1D
1i
1O
1I
b00000000 /
1b
1)
#1006
0T
0-
1%
0V
0D
1e
0i
0O
0I
0b
0)
#1011
1T
1-
1V
1D
1i
1O
1I
b00000001 /
1b
1)
#1016
0T
0-
0V
0D
0i
0O
0I
0b
0)
#1021
1T
1-
1V
1D
1i
1O
1I
b00000010 /
1b
1)
#1026
0T
0-
0%
0V
0D
0e
0i
0O
0I
0b
0)
#1031
1T
1-
1V
1D
1i
1O
1I
b00000011 /
1b
1)
#1036
0T
0-
0V
0D
0i
0O
0I
0b
0)
#1041
1T
1-
b00001110 d
1V
1D
1i
1O
1I
b00000000 /
1b
1)
#1046
0T
0-
1%
0V
0D
1e
0i
0O
0I
0b
0)
#1051
1T
1-
1V
1D
1i
1O
1I
b00000001 /
1b
1)
#1056
0T
0-
0V
0D
0i
0O
0I
0b
0)
#1061
1T
1-
1V
1D
1i
1O
1I
b00000010 /
1b
1)
#1066
0T
0-
0%
0V
0D
0e
0i
0O
0I
0b
0)
#1071
1T
1-
1V
1D
1i
1O
1I
b00000011 /
1b
1)
#1076
0T
0-
0V
0D
0i
0O
0I
0b
0)
#1081
1T
1-
b00001111 d
1V
1D
1i
1O
1I
b00000000 /
1b
1)
#1086
0T
0-
1%
0V
0D
1e
0i
0O
0I
0b
0)
#1091
1T
1-
1V
1D
1i
1O
1I
b00000001 /
1b
1)
#1096
0T
0-
0V
0D
0i
0O
0I
0b
0)
#1101
1T
1-
1V
1D
1i
1O
1I
b00000010 /
1b
1)
#1106
0T
0-
0%
0V
0D
0e
0i
0O
0I
0b
0)
#1111
1T
1-
1V
1D
1i
1O
1I
b00000011 /
1b
1)
#1116
0T
0-
0V
0D
0i
0O
0I
0b
0)
#1121
1T
1-
b00010000 d
1V
1D
1i
1O
1I
b00000000 /
1b
1)
#1126
0T
0-
1%
0V
0D
1e
0i
0O
0I
0b
0)
#1131
1T
1-
1V
1D
1i
1O
1I
b00000001 /
1b
1)
#1136
0T
0-
0V
0D
0i
0O
0I
0b
0)
#1141
1T
1-
1V
1D
1i
1O
1I
b00000010 /
1b
1)
#1146
0T
0-
0%
0V
0D
0e
0i
0O
0I
0b
0)
#1151
1T
1-
1V
1D
1i
1O
1I
b00000011 /
1b
1)
#1156
0T
0-
0V
0D
0i
0O
0I
0b
0)
#1161
1T
1-
b00010001 d
1V
1D
1i
1O
1I
b00000000 /
1b
1)
#1166
0T
0-
1%
0V
0D
1e
0i
0O
0I
0b
0)
#1171
1T
1-
1V
1D
1i
1O
1I
b00000001 /
1b
1)
#1176
0T
0-
0V
0D
0i
0O
0I
0b
0)
#1181
1T
1-
1V
1D
1i
1O
1I
b00000010 /
1b
1)
#1186
0T
0-
0%
0V
0D
0e
0i
0O
0I
0b
0)
#1191
1T
1-
1V
1D
1i
1O
1I
b00000011 /
1b
1)
#1196
0T
0-
0V
0D
0i
0O
0I
0b
0)
#1201
1T
1-
b00010010 d
1V
1D
1i
1O
1I
b00000000 /
1b
1)
#1206
0T
0-
1%
0V
0D
1e
0i
0O
0I
0b
0)
#1211
1T
1-
1V
1D
1i
1O
1I
b00000001 /
1b
1)
#1216
0T
0-
0V
0D
0i
0O
0I
0b
0)
#1221
1T
1-
1V
1D
1i
1O
1I
b00000010 /
1b
1)
#1226
0T
0-
0%
0V
0D
0e
0i
0O
0I
0b
0)
#1231
1T
1-
1V
1D
1i
1O
1I
b00000011 /
1b
1)
#1236
0T
0-
0V
0D
0i
0O
0I
0b
0)
#1241
1T
1-
b00010011 d
1V
1D
1i
1O
1I
b00000000 /
1b
1)
#1246
0T
0-
1%
0V
0D
1e
0i
0O
0I
0b
0)
#1251
1T
1-
1V
1D
1i
1O
1I
b00000001 /
1b
1)
#1256
0T
0-
0V
0D
0i
0O
0I
0b
0)
#1261
1T
1-
1V
1D
1i
1O
1I
b00000010 /
1b
1)
#1266
0T
0-
0%
0V
0D
0e
0i
0O
0I
0b
0)
#1271
1T
1-
1V
1D
1i
1O
1I
b00000011 /
1b
1)
#1276
0T
0-
0V
0D
0i
0O
0I
0b
0)
#1281
1T
1-
b00010100 d
1V
1D
1i
1O
1I
b00000000 /
1b
1)
#1286
0T
0-
1%
0V
0D
1e
0i
0O
0I
0b
0)
#1291
1T
1-
1V
1D
1i
1O
1I
b00000001 /
1b
1)
#1296
0T
0-
0V
0D
0i
0O
0I
0b
0)
#1301
1T
1-
1V
1D
1i
1O
1I
b00000010 /
1b
1)
#1306
0T
0-
0%
0V
0D
0e
0i
0O
0I
0b
0)
#1311
1T
1-
1V
1D
1i
1O
1I
b00000011 /
1b
1)
#1316
0T
0-
0V
0D
0i
0O
0I
0b
0)
#1321
1T
1-
b00010101 d
1V
1D
1i
1O
1I
b00000000 /
1b
1)
#1326
0T
0-
1%
0V
0D
1e
0i
0O
0I
0b
0)
#1331
1T
1-
1V
1D
1i
1O
1I
b00000001 /
1b
1)
#1336
0T
0-
0V
0D
0i
0O
0I
0b
0)
#1341
1T
1-
1V
1D
1i
1O
1I
b00000010 /
1b
1)
#1346
0T
0-
0%
0V
0D
0e
0i
0O
0I
0b
0)
#1351
1T
1-
1V
1D
1i
1O
1I
b00000011 /
1b
1)
#1356
0T
0-
0V
0D
0i
0O
0I
0b
0)
#1361
1T
1-
b00010110 d
1V
1D
1i
1O
1I
b00000000 /
1b
1)
#1366
0T
0-
1%
0V
0D
1e
0i
0O
0I
0b
0)
#1371
1T
1-
1V
1D
1i
1O
1I
b00000001 /
1b
1)
#1376
0T
0-
0V
0D
0i
0O
0I
0b
0)
#1381
1T
1-
1V
1D
1i
1O
1I
b00000010 /
1b
1)
#1386
0T
0-
0%
0V
0D
0e
0i
0O
0I
0b
0)
#1391
1T
1-
1V
1D
1i
1O
1I
b00000011 /
1b
1)
#1396
0T
0-
0V
0D
0i
0O
0I
0b
0)
#1401
1T
1-
b00010111 d
1V
1D
1i
1O
1I
b00000000 /
1b
1)
#1406
0T
0-
1%
0V
0D
1e
0i
0O
0I
0b
0)
#1411
1T
1-
1V
1D
1i
1O
1I
b00000001 /
1b
1)
#1416
0T
0-
0V
0D
0i
0O
0I
0b
0)
#1421
1T
1-
1V
1D
1i
1O
1I
b00000010 /
1b
1)
#1426
0T
0-
0%
0V
0D
0e
0i
0O
0I
0b
0)
#1431
1T
1-
1V
1D
1i
1O
1I
b00000011 /
1b
1)
#1436
0T
0-
0V
0D
0i
0O
0I
0b
0)
#1441
1T
1-
b00011000 d
1V
1D
1i
1O
1I
b00000000 /
1b
1)
#1446
0T
0-
1%
0V
0D
1e
0i
0O
0I
0b
0)
#1451
1T
1-
1V
1D
1i
1O
1I
b00000001 /
1b
1)
#1456
0T
0-
0V
0D
0i
0O
0I
0b
0)
#1461
1T
1-
1V
1D
1i
1O
1I
b00000010 /
1b
1)
#1466
0T
0-
0%
0V
0D
0e
0i
0O
0I
0b
0)
#1471
1T
1-
1V
1D
1i
1O
1I
b00000011 /
1b
1)
#1476
0T
0-
0V
0D
0i
0O
0I
0b
0)
#1481
1T
1-
b00011001 d
1V
1D
1i
1O
1I
b00000000 /
1b
1)
#1486
0T
0-
1%
0V
0D
1e
0i
0O
0I
0b
0)
#1491
1T
1-
1V
1D
1i
1O
1I
b00000001 /
1b
1)
#1496
0T
0-
0V
0D
0i
0O
0I
0b
0)
#1501
1T
1-
1V
1D
1i
1O
1I
b00000010 /
1b
1)
#1506
0T
0-
0%
0V
0D
0e
0i
0O
0I
0b
0)
#1511
1T
1-
1V
1D
1i
1O
1I
b00000011 /
1b
1)
#1516
0T
0-
0V
0D
0i
0O
0I
0b
0)
#1521
1T
1-
b00011010 d
1V
1D
1i
1O
1I
b00000000 /
1b
1)
#1526
0T
0-
1%
0V
0D
1e
0i
0O
0I
0b
0)
#1531
1T
1-
1V
1D
1i
1O
1I
b00000001 /
1b
1)
#1536
0T
0-
0V
0D
0i
0O
0I
0b
0)
#1541
1T
1-
1V
1D
1i
1O
1I
b00000010 /
1b
1)
#1546
0T
0-
0%
0V
0D
0e
0i
0O
0I
0b
0)
#1551
1T
1-
1V
1D
1i
1O
1I
b00000011 /
1b
1)
#1556
0T
0-
0V
0D
0i
0O
0I
0b
0)
#1561
1T
1-
b00011011 d
1V
1D
1i
1O
1I
b00000000 /
1b
1)
#1566
0T
0-
1%
0V
0D
1e
0i
0O
0I
0b
0)
#1571
1T
1-
1V
1D
1i
1O
1I
b00000001 /
1b
1)
#1576
0T
0-
0V
0D
0i
0O
0I
0b
0)
#1581
1T
1-
1V
1D
1i
1O
1I
b00000010 /
1b
1)
#1586
0T
0-
0%
0V
0D
0e
0i
0O
0I
0b
0)
#1591
1T
1-
1V
1D
1i
1O
1I
b00000011 /
1b
1)
#1596
0T
0-
0V
0D
0i
0O
0I
0b
0)
#1601
1T
1-
b00011100 d
1V
1D
1i
1O
1I
b00000000 /
1b
1)
#1606
0T
0-
1%
0V
0D
1e
0i
0O
0I
0b
0)
#1611
1T
1-
1V
1D
1i
1O
1I
b00000001 /
1b
1)
#1616
0T
0-
0V
0D
0i
0O
0I
0b
0)
#1621
1T
1-
1V
1D
1i
1O
1I
b00000010 /
1b
1)
#1626
0T
0-
0%
0V
0D
0e
0i
0O
0I
0b
0)
#1631
1T
1-
1V
1D
1i
1O
1I
b00000011 /
1b
1)
#1636
0T
0-
0V
0D
0i
0O
0I
0b
0)
#1641
1T
1-
b00011101 d
1V
1D
1i
1O
1I
b00000000 /
1b
1)
#1646
0T
0-
1%
0V
0D
1e
0i
0O
0I
0b
0)
#1651
1T
1-
1V
1D
1i
1O
1I
b00000001 /
1b
1)
#1656
0T
0-
0V
0D
0i
0O
0I
0b
0)
#1661
1T
1-
1V
1D
1i
1O
1I
b00000010 /
1b
1)
#1666
0T
0-
0%
0V
0D
0e
0i
0O
0I
0b
0)
#1671
1T
1-
1V
1D
1i
1O
1I
b00000011 /
1b
1)
#1676
0T
0-
0V
0D
0i
0O
0I
0b
0)
#1681
1T
1-
b00011110 d
1V
1D
1i
1O
1I
b00000000 /
1b
1)
#1686
0T
0-
1%
0V
0D
1e
0i
0O
0I
0b
0)
#1691
1T
1-
1V
1D
1i
1O
1I
b00000001 /
1b
1)
#1696
0T
0-
0V
0D
0i
0O
0I
0b
0)
#1701
1T
1-
1V
1D
1i
1O
1I
b00000010 /
1b
1)
#1706
0T
0-
0%
0V
0D
0e
0i
0O
0I
0b
0)
#1711
1T
1-
1V
1D
1i
1O
1I
b00000011 /
1b
1)
#1716
0T
0-
0V
0D
0i
0O
0I
0b
0)
#1721
1T
1-
b00011111 d
1V
1D
1i
1O
1I
b00000000 /
1b
1)
#1726
0T
0-
1%
0V
0D
1e
0i
0O
0I
0b
0)
#1731
1T
1-
1V
1D
1i
1O
1I
b00000001 /
1b
1)
#1736
0T
0-
0V
0D
0i
0O
0I
0b
0)
#1741
1T
1-
1V
1D
1i
1O
1I
b00000010 /
1b
1)
#1746
0T
0-
0%
0V
0D
0e
0i
0O
0I
0b
0)
