InterVox_Transmitter/test_run_dir/interVox_Encoder_should_pass/interVox_Encoder.vcd
$date
2022-10-19T21:06+0000
$end
$version
0.2
$end
$comment

$end
$timescale 1ns  $end
$scope module interVox_Encoder $end
 $var wire 1 % io_BCLK_O $end
 $var wire 1 ' io_LRCLK_O $end
 $var wire 1 ) io_NXT_FRAME $end
 $var wire 1 + io_SDATA_O $end
 $var wire 8 / BiPhase_CLK_CNTR $end
 $var wire 1 ; io_LRCLK_IN $end
 $var wire 1 = BFR1 $end
 $var wire 1 ? io_DATA_O $end
 $var wire 1 @ DATA_OUT_REG_1B $end
 $var wire 2 B current_state $end
 $var wire 1 N BFR $end
 $var wire 1 Q io_SDATA_IN $end
 $var wire 1 U clock $end
 $var wire 1 a bi_phase_enc $end
 $var wire 8 b bitCntr $end
 $var wire 1 c io_BCLK_IN $end
 $var wire 1 f reset $end
  $scope module bi_phase_enc $end
   $var wire 16 * dspData $end
   $var wire 8 0 bitCntr $end
   $var wire 64 1 stereoData $end
   $var wire 1 3 outReg $end
   $var wire 64 6 io_AUDIOINPUT $end
   $var wire 1 7 io_DATA_OUT $end
   $var wire 1 C next $end
   $var wire 1 D clock $end
   $var wire 1 F io_NEXT $end
   $var wire 6 H dataIndex $end
   $var wire 1 I hasNone $end
   $var wire 1 W io_TICK $end
   $var wire 1 i reset $end
  $upscope $end
  $scope module BFR $end
   $var wire 64 " mem $end
   $var wire 1 & mem_rdwrPort_r_en_pipe_0 $end
   $var wire 1 - clock $end
   $var wire 64 < io_dataOut $end
   $var wire 64 K io_dataIn $end
   $var wire 1 Z io_enable $end
   $var wire 1 \ io_write $end
   $var wire 1 ^ mem_rdwrPort_r_addr_pipe_0 $end
    $scope module mem $end
     $var wire 64 _ rdwrPort_w $end
      $scope module rdwrPort_w $end
       $var wire 1 ! mask $end
       $var wire 1 , valid $end
       $var wire 1 . en $end
       $var wire 1 9 addr $end
       $var wire 1 : pipeline_valid_0 $end
       $var wire 1 E pipeline_addr_0 $end
       $var wire 64 V data $end
       $var wire 64 e pipeline_data_0 $end
       $var wire 1 g clk $end
      $upscope $end
      $scope module rdwrPort_r $end
       $var wire 1 > addr $end
       $var wire 1 O clk $end
       $var wire 64 Y data $end
       $var wire 1 [ en $end
      $upscope $end
    $upscope $end
  $upscope $end
  $scope module BFR1 $end
   $var wire 1 # io_enable $end
   $var wire 1 L mem_rdwrPort_r_addr_pipe_0 $end
   $var wire 1 M io_write $end
   $var wire 1 R mem_rdwrPort_r_en_pipe_0 $end
   $var wire 1 S clock $end
   $var wire 64 T mem $end
   $var wire 64 d io_dataIn $end
   $var wire 64 h io_dataOut $end
    $scope module mem $end
     $var wire 64 ] rdwrPort_w $end
      $scope module rdwrPort_r $end
       $var wire 1 $ en $end
       $var wire 1 8 addr $end
       $var wire 1 J clk $end
       $var wire 64 X data $end
      $upscope $end
      $scope module rdwrPort_w $end
       $var wire 1 ( pipeline_addr_0 $end
       $var wire 1 2 addr $end
       $var wire 1 4 pipeline_valid_0 $end
       $var wire 64 5 pipeline_data_0 $end
       $var wire 1 A en $end
       $var wire 1 G valid $end
       $var wire 64 P data $end
       $var wire 1 ` clk $end
       $var wire 1 j mask $end
      $upscope $end
    $upscope $end
  $upscope $end
$upscope $end
$enddefinitions $end
$dumpvars
0C
0;
b00000000 b
0&
b00000000 0
b0000000000000000000000000000000000000000000000000000000000000000 5
0Z
0R
0=
0i
07
b0000000000000000000000000000000000000000000000000000000000000000 1
0N
09
b0000000000000000000000000000000000000000000000000000000000000000 e
03
b0000000000000000000000000000000000000000000000000000000000000000 _
0g
0J
0-
b0000000000000000000000000000000000000000000000000000000000000000 Y
0a
0L
0D
0c
b000000 H
0F
0[
b0000000000000000000000000000000000000000000000000000000000000000 ]
0)
0@
0+
0W
b0000000000000000 *
0%
b0000000000000000000000000000000000000000000000000000000000000000 <
b00000000 /
0'
b0000000000000000000000000000000000000000000000000000000000000000 h
b0000000000000000000000000000000000000000000000000000000000000000 K
b0000000000000000000000000000000000000000000000000000000000000000 6
0S
0>
0!
0j
0U
0M
08
0#
b0000000000000000000000000000000000000000000000000000000000000000 d
0O
0:
02
0f
0Q
0I
04
0`
0.
0E
0(
b0000000000000000000000000000000000000000000000000000000000000000 T
0\
0G
b0000000000000000000000000000000000000000000000000000000000000000 "
0?
b0000000000000000000000000000000000000000000000000000000000000000 V
0^
0A
0,
b0000000000000000000000000000000000000000000000000000000000000000 X
0$
b00 B
b0000000000000000000000000000000000000000000000000000000000000000 P
$end
#0
1f
1#
1Z
1i
#1
1-
1`
1U
1R
1g
1J
1&
1D
1S
1$
1O
1[
#6
0f
0-
0`
1%
0g
0J
0D
0S
1'
0i
1c
0U
0O
1;
#11
b10 B
1-
1`
1U
1g
1J
1D
1S
1O
#16
0-
0`
0U
0g
0J
0D
0S
0O
#21
1-
1`
1U
1g
1J
1D
1S
1W
1O
b00000001 /
1)
#26
0-
0`
0U
0g
0J
0D
0S
0O
#31
b00000001 0
1-
1`
1U
1g
1J
1D
1S
0W
1O
b00000010 /
0)
#36
0-
0`
0U
0g
0J
0D
0S
0O
#41
1-
1`
1U
1g
1J
1D
1S
1W
1O
b00000011 /
1)
#46
0-
0`
0c
0%
0U
0g
0J
0D
0S
0O
#51
b00000010 0
1-
1`
1U
1g
1J
1D
1S
b000001 H
0W
1O
b00000100 /
0)
#56
0-
0`
0U
0g
0J
0D
0S
0O
#61
1-
1`
1U
1g
1J
1D
1S
1W
1O
b00000101 /
1)
#66
0-
0`
0U
0g
0J
0D
0S
0O
#71
b00000011 0
1-
1`
1U
1g
1J
1D
1S
0W
1O
b00000110 /
0)
#76
0-
0`
0U
0g
0J
0D
0S
0O
#81
1-
1`
1g
1.
1J
1D
1S
b00000111 /
1)
1\
1!
1U
1W
1O
1,
#86
0-
0`
1Q
1%
0g
0J
0D
0S
b0000000000000000000000000000000000000000000000000000000000000001 K
1c
0U
b0000000000000000000000000000000000000000000000000000000000000001 V
0O
1+
#91
1-
1`
b0000000000000000000000000000000000000000000000000000000000000001 <
1g
0.
1J
0&
b0000000000000000000000000000000000000000000000000000000000000001 Y
1S
1D
b0000000000000000000000000000000000000000000000000000000000000000 K
0[
b00000000 /
b00000001 b
0)
0\
0!
b00000100 0
1U
b0000000000000000000000000000000000000000000000000000000000000000 V
b0000000000000000000000000000000000000000000000000000000000000001 e
b000010 H
0W
1O
1:
0,
#96
0-
0`
0U
0g
0J
0D
0S
0O
#101
1-
1`
1g
1J
1&
1D
1S
1[
b00000001 /
1)
1U
b0000000000000000000000000000000000000000000000000000000000000000 e
1W
1O
0:
#106
0-
0`
0U
0g
0J
0D
0S
0O
#111
b00000101 0
1-
1`
1U
1g
1J
1D
1S
0W
1O
b00000010 /
0)
#116
0-
0`
0U
0g
0J
0D
0S
0O
#121
1-
1`
1U
1g
1J
1D
1S
1W
1O
b00000011 /
1)
#126
0-
0`
0c
0%
0U
0g
0J
0D
0S
0O
#131
b00000110 0
1-
1`
1U
1g
1J
1D
1S
b000011 H
0W
1O
b00000100 /
0)
#136
0-
0`
0U
0g
0J
0D
0S
0O
#141
1-
1`
1U
1g
1J
1D
1S
1W
1O
b00000101 /
1)
#146
0-
0`
0U
0g
0J
0D
0S
0O
#151
13
1-
1`
1g
1J
1D
1S
17
b00000110 /
0)
b00000111 0
1U
0W
1O
#156
0-
0`
0U
0g
0J
0D
0S
0O
#161
1-
1`
1g
1.
1J
1D
1S
b0000000000000000000000000000000000000000000000000000000000000011 K
b00000111 /
1)
1\
1!
1?
1U
1@
b0000000000000000000000000000000000000000000000000000000000000011 V
1W
1O
1,
#166
0-
0`
0Q
1%
0g
0J
0D
0S
b0000000000000000000000000000000000000000000000000000000000000001 K
1c
0U
b0000000000000000000000000000000000000000000000000000000000000001 V
0O
0+
#171
1-
1`
1g
0.
1J
0&
1D
1S
b0000000000000000000000000000000000000000000000000000000000000000 K
0[
b00000000 /
b00000010 b
0)
0\
0!
b00001000 0
1U
b0000000000000000000000000000000000000000000000000000000000000000 V
b0000000000000000000000000000000000000000000000000000000000000001 e
b000100 H
0W
1O
1:
0,
#176
0-
0`
0U
0g
0J
0D
0S
0O
#181
1-
1`
1g
1J
1&
1D
1S
1[
b00000001 /
1)
1U
b0000000000000000000000000000000000000000000000000000000000000000 e
1W
1O
0:
#186
0-
0`
0U
0g
0J
0D
0S
0O
#191
03
1-
1`
1g
1J
1D
1S
07
b00000010 /
0)
b00001001 0
1U
0W
1O
1I
#196
0-
0`
0U
0g
0J
0D
0S
0O
#201
0?
1`
1-
1U
0@
1g
1J
1D
1S
1W
1O
b00000011 /
1)
#206
0-
0`
0c
0%
0U
0g
0J
0D
0S
0O
#211
1-
1`
1g
1J
1D
1S
b00000100 /
0)
b00001010 0
1U
b000101 H
0W
1O
0I
#216
0-
0`
0U
0g
0J
0D
0S
0O
#221
1-
1`
1U
1g
1J
1D
1S
1W
1O
b00000101 /
1)
#226
0-
0`
0U
0g
0J
0D
0S
0O
#231
13
1-
1`
1g
1J
1D
1S
17
b00000110 /
0)
b00001011 0
1U
0W
1O
1I
#236
0-
0`
0U
0g
0J
0D
0S
0O
#241
1-
1`
1g
1.
1J
1D
1S
b0000000000000000000000000000000000000000000000000000000000000001 K
b00000111 /
1)
1\
1!
1?
1U
1@
b0000000000000000000000000000000000000000000000000000000000000001 V
1W
1O
1,
#246
0-
0`
1Q
1%
0g
0J
0D
0S
b0000000000000000000000000000000000000000000000000000000000000101 K
1c
0U
b0000000000000000000000000000000000000000000000000000000000000101 V
0O
1+
#251
1-
1`
b0000000000000000000000000000000000000000000000000000000000000101 <
1g
0.
1J
0&
b0000000000000000000000000000000000000000000000000000000000000101 Y
1S
1D
b0000000000000000000000000000000000000000000000000000000000000000 K
0[
b00000000 /
b00000011 b
0)
0\
0!
b00001100 0
1U
b0000000000000000000000000000000000000000000000000000000000000000 V
b0000000000000000000000000000000000000000000000000000000000000101 e
b000110 H
0W
1O
1:
0I
0,
#256
0-
0`
0U
0g
0J
0D
0S
0O
#261
1-
1`
1g
1J
1&
1D
1S
1[
b00000001 /
1)
1U
b0000000000000000000000000000000000000000000000000000000000000000 e
1W
1O
0:
#266
0-
0`
0U
0g
0J
0D
0S
0O
#271
03
1-
1`
1g
1J
1D
1S
07
b00000010 /
0)
b00001101 0
1U
0W
1O
1I
#276
0-
0`
0U
0g
0J
0D
0S
0O
#281
0?
1`
1-
1U
0@
1g
1J
1D
1S
1W
1O
b00000011 /
1)
#286
0-
0`
0c
0%
0U
0g
0J
0D
0S
0O
#291
1-
1`
1g
1J
1D
1S
b00000100 /
0)
b00001110 0
1U
b000111 H
0W
1O
0I
#296
0-
0`
0U
0g
0J
0D
0S
0O
#301
1-
1`
1U
1g
1J
1D
1S
1W
1O
b00000101 /
1)
#306
0-
0`
0U
0g
0J
0D
0S
0O
#311
13
1-
1`
1g
1J
1D
1S
17
b00000110 /
0)
b00001111 0
1U
0W
1O
1I
#316
0-
0`
0U
0g
0J
0D
0S
0O
#321
1-
1`
1g
1.
1J
1D
1S
b0000000000000000000000000000000000000000000000000000000000001101 K
b00000111 /
1)
1\
1!
1?
1U
1@
b0000000000000000000000000000000000000000000000000000000000001101 V
1W
1O
1,
#326
0-
0`
1c
1%
0U
0g
0J
0D
0S
0O
#331
1-
1`
b0000000000000000000000000000000000000000000000000000000000001101 <
1g
0.
1J
0&
b0000000000000000000000000000000000000000000000000000000000001101 Y
1S
1D
b0000000000000000000000000000000000000000000000000000000000000000 K
0[
b00000000 /
b00000100 b
0)
0\
0!
b00010000 0
1U
b0000000000000000000000000000000000000000000000000000000000000000 V
b0000000000000000000000000000000000000000000000000000000000001101 e
b001000 H
0W
1O
1:
0I
0,
#336
0-
0`
0U
0g
0J
0D
0S
0O
#341
1-
1`
1g
1J
1&
1D
1S
1[
b00000001 /
1)
1U
b0000000000000000000000000000000000000000000000000000000000000000 e
1W
1O
0:
#346
0-
0`
0U
0g
0J
0D
0S
0O
#351
03
1-
1`
1g
1J
1D
1S
07
b00000010 /
0)
b00010001 0
1U
0W
1O
1I
#356
0-
0`
0U
0g
0J
0D
0S
0O
#361
0?
1`
1-
1U
0@
1g
1J
1D
1S
1W
1O
b00000011 /
1)
#366
0-
0`
0c
0%
0U
0g
0J
0D
0S
0O
#371
1-
1`
1g
1J
1D
1S
b00000100 /
0)
b00010010 0
1U
b001001 H
0W
1O
0I
#376
0-
0`
0U
0g
0J
0D
0S
0O
#381
1-
1`
1U
1g
1J
1D
1S
1W
1O
b00000101 /
1)
#386
0-
0`
0U
0g
0J
0D
0S
0O
#391
13
1-
1`
1g
1J
1D
1S
17
b00000110 /
0)
b00010011 0
1U
0W
1O
1I
#396
0-
0`
0U
0g
0J
0D
0S
0O
#401
1-
1`
1g
1.
1J
1D
1S
b0000000000000000000000000000000000000000000000000000000000011101 K
b00000111 /
1)
1\
1!
1?
1U
1@
b0000000000000000000000000000000000000000000000000000000000011101 V
1W
1O
1,
#406
0-
0`
1c
1%
0U
0g
0J
0D
0S
0O
#411
1-
1`
b0000000000000000000000000000000000000000000000000000000000011101 <
1g
0.
1J
0&
b0000000000000000000000000000000000000000000000000000000000011101 Y
1S
1D
b0000000000000000000000000000000000000000000000000000000000000000 K
0[
b00000000 /
b00000101 b
0)
0\
0!
b00010100 0
1U
b0000000000000000000000000000000000000000000000000000000000000000 V
b0000000000000000000000000000000000000000000000000000000000011101 e
b001010 H
0W
1O
1:
0I
0,
#416
0-
0`
0U
0g
0J
0D
0S
0O
#421
1-
1`
1g
1J
1&
1D
1S
1[
b00000001 /
1)
1U
b0000000000000000000000000000000000000000000000000000000000000000 e
1W
1O
0:
#426
0-
0`
0U
0g
0J
0D
0S
0O
#431
03
1-
1`
1g
1J
1D
1S
07
b00000010 /
0)
b00010101 0
1U
0W
1O
1I
#436
0-
0`
0U
0g
0J
0D
0S
0O
#441
0?
1`
1-
1U
0@
1g
1J
1D
1S
1W
1O
b00000011 /
1)
#446
0-
0`
0c
0%
0U
0g
0J
0D
0S
0O
#451
1-
1`
1g
1J
1D
1S
b00000100 /
0)
b00010110 0
1U
b001011 H
0W
1O
0I
#456
0-
0`
0U
0g
0J
0D
0S
0O
#461
1-
1`
1U
1g
1J
1D
1S
1W
1O
b00000101 /
1)
#466
0-
0`
0U
0g
0J
0D
0S
0O
#471
13
1-
1`
1g
1J
1D
1S
17
b00000110 /
0)
b00010111 0
1U
0W
1O
1I
#476
0-
0`
0U
0g
0J
0D
0S
0O
#481
1-
1`
1g
1.
1J
1D
1S
b0000000000000000000000000000000000000000000000000000000000111101 K
b00000111 /
1)
1\
1!
1?
1U
1@
b0000000000000000000000000000000000000000000000000000000000111101 V
1W
1O
1,
#486
0-
0`
1c
1%
0U
0g
0J
0D
0S
0O
#491
1-
1`
b0000000000000000000000000000000000000000000000000000000000111101 <
1g
0.
1J
0&
b0000000000000000000000000000000000000000000000000000000000111101 Y
1S
1D
b0000000000000000000000000000000000000000000000000000000000000000 K
0[
b00000000 /
b00000110 b
0)
0\
0!
b00011000 0
1U
b0000000000000000000000000000000000000000000000000000000000000000 V
b0000000000000000000000000000000000000000000000000000000000111101 e
b001100 H
0W
1O
1:
0I
0,
#496
0-
0`
0U
0g
0J
0D
0S
0O
#501
1-
1`
1g
1J
1&
1D
1S
1[
b00000001 /
1)
1U
b0000000000000000000000000000000000000000000000000000000000000000 e
1W
1O
0:
#506
0-
0`
0U
0g
0J
0D
0S
0O
#511
03
1-
1`
1g
1J
1D
1S
07
b00000010 /
0)
b00011001 0
1U
0W
1O
1I
#516
0-
0`
0U
0g
0J
0D
0S
0O
#521
0?
1`
1-
1U
0@
1g
1J
1D
1S
1W
1O
b00000011 /
1)
#526
0-
0`
0c
0%
0U
0g
0J
0D
0S
0O
#531
1-
1`
1g
1J
1D
1S
b00000100 /
0)
b00011010 0
1U
b001101 H
0W
1O
0I
#536
0-
0`
0U
0g
0J
0D
0S
0O
#541
1-
1`
1U
1g
1J
1D
1S
1W
1O
b00000101 /
1)
#546
0-
0`
0U
0g
0J
0D
0S
0O
#551
13
1-
1`
1g
1J
1D
1S
17
b00000110 /
0)
b00011011 0
1U
0W
1O
1I
#556
0-
0`
0U
0g
0J
0D
0S
0O
#561
1-
1`
1g
1.
1J
1D
1S
b0000000000000000000000000000000000000000000000000000000001111101 K
b00000111 /
1)
1\
1!
1?
1U
1@
b0000000000000000000000000000000000000000000000000000000001111101 V
1W
1O
1,
#566
0-
0`
0Q
1%
0g
0J
0D
0S
b0000000000000000000000000000000000000000000000000000000000111101 K
1c
0U
b0000000000000000000000000000000000000000000000000000000000111101 V
0O
0+
#571
1-
1`
1g
0.
1J
0&
1D
1S
b0000000000000000000000000000000000000000000000000000000000000000 K
0[
b00000000 /
b00000111 b
0)
0\
0!
b00011100 0
1U
b0000000000000000000000000000000000000000000000000000000000000000 V
b0000000000000000000000000000000000000000000000000000000000111101 e
b001110 H
0W
1O
1:
0I
0,
#576
0-
0`
0U
0g
0J
0D
0S
0O
#581
1-
1`
1g
1J
1&
1D
1S
1[
b00000001 /
1)
1U
b0000000000000000000000000000000000000000000000000000000000000000 e
1W
1O
0:
#586
0-
0`
0U
0g
0J
0D
0S
0O
#591
03
1-
1`
1g
1J
1D
1S
07
b00000010 /
0)
b00011101 0
1U
0W
1O
1I
#596
0-
0`
0U
0g
0J
0D
0S
0O
#601
0?
1`
1-
1U
0@
1g
1J
1D
1S
1W
1O
b00000011 /
1)
#606
0-
0`
0c
0%
0U
0g
0J
0D
0S
0O
#611
1-
1`
1g
1J
1D
1S
b00000100 /
0)
b00011110 0
1U
b001111 H
0W
1O
0I
#616
0-
0`
0U
0g
0J
0D
0S
0O
#621
1-
1`
1U
1g
1J
1D
1S
1W
1O
b00000101 /
1)
#626
0-
0`
0U
0g
0J
0D
0S
0O
#631
13
1-
1`
1g
1J
1D
1S
17
b00000110 /
0)
b00011111 0
1U
0W
1O
1I
#636
0-
0`
0U
0g
0J
0D
0S
0O
#641
1-
1`
1g
1.
1J
1D
1S
b0000000000000000000000000000000000000000000000000000000000111101 K
b00000111 /
1)
1\
1!
1?
1U
1@
b0000000000000000000000000000000000000000000000000000000000111101 V
1W
1O
1,
#646
0-
0`
1c
1%
0U
0g
0J
0D
0S
0O
#651
1-
1`
1g
0.
1J
0&
1D
1S
b0000000000000000000000000000000000000000000000000000000000000000 K
0[
b00000000 /
b00001000 b
0)
0\
0!
b00100000 0
1U
b0000000000000000000000000000000000000000000000000000000000000000 V
b0000000000000000000000000000000000000000000000000000000000111101 e
b010000 H
0W
1O
1:
0I
0,
#656
0-
0`
0U
0g
0J
0D
0S
0O
#661
1-
1`
1g
1J
1&
1D
1S
1[
b00000001 /
1)
1U
b0000000000000000000000000000000000000000000000000000000000000000 e
1W
1O
0:
#666
0-
0`
0U
0g
0J
0D
0S
0O
#671
03
1-
1`
1g
1J
1D
1S
07
b00000010 /
0)
b00100001 0
1U
0W
1O
1I
#676
0-
0`
0U
0g
0J
0D
0S
0O
#681
0?
1`
1-
1U
0@
1g
1J
1D
1S
1W
1O
b00000011 /
1)
#686
0-
0`
0c
0%
0U
0g
0J
0D
0S
0O
#691
1-
1`
1g
1J
1D
1S
b00000100 /
0)
b00100010 0
1U
b010001 H
0W
1O
0I
#696
0-
0`
0U
0g
0J
0D
0S
0O
#701
1-
1`
1U
1g
1J
1D
1S
1W
1O
b00000101 /
1)
#706
0-
0`
0U
0g
0J
0D
0S
0O
#711
13
1-
1`
1g
1J
1D
1S
17
b00000110 /
0)
b00100011 0
1U
0W
1O
1I
#716
0-
0`
0U
0g
0J
0D
0S
0O
#721
1-
1`
1g
1.
1J
1D
1S
b0000000000000000000000000000000000000000000000000000000000111101 K
b00000111 /
1)
1\
1!
1?
1U
1@
b0000000000000000000000000000000000000000000000000000000000111101 V
1W
1O
1,
#726
0-
0`
1c
1%
0U
0g
0J
0D
0S
0O
#731
1-
1`
1g
0.
1J
0&
1D
1S
b0000000000000000000000000000000000000000000000000000000000000000 K
0[
b00000000 /
b00001001 b
0)
0\
0!
b00100100 0
1U
b0000000000000000000000000000000000000000000000000000000000000000 V
b0000000000000000000000000000000000000000000000000000000000111101 e
b010010 H
0W
1O
1:
0I
0,
#736
0-
0`
0U
0g
0J
0D
0S
0O
#741
1-
1`
1g
1J
1&
1D
1S
1[
b00000001 /
1)
1U
b0000000000000000000000000000000000000000000000000000000000000000 e
1W
1O
0:
#746
0-
0`
0U
0g
0J
0D
0S
0O
#751
03
1-
1`
1g
1J
1D
1S
07
b00000010 /
0)
b00100101 0
1U
0W
1O
1I
#756
0-
0`
0U
0g
0J
0D
0S
0O
#761
0?
1`
1-
1U
0@
1g
1J
1D
1S
1W
1O
b00000011 /
1)
#766
0-
0`
0c
0%
0U
0g
0J
0D
0S
0O
#771
1-
1`
1g
1J
1D
1S
b00000100 /
0)
b00100110 0
1U
b010011 H
0W
1O
0I
#776
0-
0`
0U
0g
0J
0D
0S
0O
#781
1-
1`
1U
1g
1J
1D
1S
1W
1O
b00000101 /
1)
#786
0-
0`
0U
0g
0J
0D
0S
0O
#791
13
1-
1`
1g
1J
1D
1S
17
b00000110 /
0)
b00100111 0
1U
0W
1O
1I
#796
0-
0`
0U
0g
0J
0D
0S
0O
#801
1-
1`
1g
1.
1J
1D
1S
b0000000000000000000000000000000000000000000000000000000000111101 K
b00000111 /
1)
1\
1!
1?
1U
1@
b0000000000000000000000000000000000000000000000000000000000111101 V
1W
1O
1,
#806
0-
0`
1c
1%
0U
0g
0J
0D
0S
0O
#811
1-
1`
1g
0.
1J
0&
1D
1S
b0000000000000000000000000000000000000000000000000000000000000000 K
0[
b00000000 /
b00001010 b
0)
0\
0!
b00101000 0
1U
b0000000000000000000000000000000000000000000000000000000000000000 V
b0000000000000000000000000000000000000000000000000000000000111101 e
b010100 H
0W
1O
1:
0I
0,
#816
0-
0`
0U
0g
0J
0D
0S
0O
#821
1-
1`
1g
1J
1&
1D
1S
1[
b00000001 /
1)
1U
b0000000000000000000000000000000000000000000000000000000000000000 e
1W
1O
0:
#826
0-
0`
0U
0g
0J
0D
0S
0O
#831
03
1-
1`
1g
1J
1D
1S
07
b00000010 /
0)
b00101001 0
1U
0W
1O
1I
#836
0-
0`
0U
0g
0J
0D
0S
0O
#841
0?
1`
1-
1U
0@
1g
1J
1D
1S
1W
1O
b00000011 /
1)
#846
0-
0`
0c
0%
0U
0g
0J
0D
0S
0O
#851
1-
1`
1g
1J
1D
1S
b00000100 /
0)
b00101010 0
1U
b010101 H
0W
1O
0I
#856
0-
0`
0U
0g
0J
0D
0S
0O
#861
1-
1`
1U
1g
1J
1D
1S
1W
1O
b00000101 /
1)
#866
0-
0`
0U
0g
0J
0D
0S
0O
#871
13
1-
1`
1g
1J
1D
1S
17
b00000110 /
0)
b00101011 0
1U
0W
1O
1I
#876
0-
0`
0U
0g
0J
0D
0S
0O
#881
1-
1`
1g
1.
1J
1D
1S
b0000000000000000000000000000000000000000000000000000000000111101 K
b00000111 /
1)
1\
1!
1?
1U
1@
b0000000000000000000000000000000000000000000000000000000000111101 V
1W
1O
1,
#886
0-
0`
1c
1%
0U
0g
0J
0D
0S
0O
#891
1-
1`
1g
0.
1J
0&
1D
1S
b0000000000000000000000000000000000000000000000000000000000000000 K
0[
b00000000 /
b00001011 b
0)
0\
0!
b00101100 0
1U
b0000000000000000000000000000000000000000000000000000000000000000 V
b0000000000000000000000000000000000000000000000000000000000111101 e
b010110 H
0W
1O
1:
0I
0,
#896
0-
0`
0U
0g
0J
0D
0S
0O
#901
1-
1`
1g
1J
1&
1D
1S
1[
b00000001 /
1)
1U
b0000000000000000000000000000000000000000000000000000000000000000 e
1W
1O
0:
#906
0-
0`
0U
0g
0J
0D
0S
0O
#911
03
1-
1`
1g
1J
1D
1S
07
b00000010 /
0)
b00101101 0
1U
0W
1O
1I
#916
0-
0`
0U
0g
0J
0D
0S
0O
#921
0?
1`
1-
1U
0@
1g
1J
1D
1S
1W
1O
b00000011 /
1)
#926
0-
0`
0c
0%
0U
0g
0J
0D
0S
0O
#931
1-
1`
1g
1J
1D
1S
b00000100 /
0)
b00101110 0
1U
b010111 H
0W
1O
0I
#936
0-
0`
0U
0g
0J
0D
0S
0O
#941
1-
1`
1U
1g
1J
1D
1S
1W
1O
b00000101 /
1)
#946
0-
0`
0U
0g
0J
0D
0S
0O
#951
13
1-
1`
1g
1J
1D
1S
17
b00000110 /
0)
b00101111 0
1U
0W
1O
1I
#956
0-
0`
0U
0g
0J
0D
0S
0O
#961
1-
1`
1g
1.
1J
1D
1S
b0000000000000000000000000000000000000000000000000000000000111101 K
b00000111 /
1)
1\
1!
1?
1U
1@
b0000000000000000000000000000000000000000000000000000000000111101 V
1W
1O
1,
#966
0-
0`
1c
1%
0U
0g
0J
0D
0S
0O
#971
1-
1`
1g
0.
1J
0&
1D
1S
b0000000000000000000000000000000000000000000000000000000000000000 K
0[
b00000000 /
b00001100 b
0)
0\
0!
b00110000 0
1U
b0000000000000000000000000000000000000000000000000000000000000000 V
b0000000000000000000000000000000000000000000000000000000000111101 e
b011000 H
0W
1O
1:
0I
0,
#976
0-
0`
0U
0g
0J
0D
0S
0O
#981
1-
1`
1g
1J
1&
1D
1S
1[
b00000001 /
1)
1U
b0000000000000000000000000000000000000000000000000000000000000000 e
1W
1O
0:
#986
0-
0`
0U
0g
0J
0D
0S
0O
#991
03
1-
1`
1g
1J
1D
1S
07
b00000010 /
0)
b00110001 0
1U
0W
1O
#996
0-
0`
0U
0g
0J
0D
0S
0O
#1001
0?
1`
1-
1U
0@
1g
1J
1D
1S
1W
1O
b00000011 /
1)
#1006
0-
0`
0c
0%
0U
0g
0J
0D
0S
0O
#1011
13
1-
1`
1g
1J
1D
1S
17
b00000100 /
0)
b00110010 0
1U
b011001 H
0W
1O
1I
#1016
0-
0`
0U
0g
0J
0D
0S
0O
#1021
1?
1`
1-
1U
1@
1g
1J
1D
1S
1W
1O
b00000101 /
1)
#1026
0-
0`
0U
0g
0J
0D
0S
0O
#1031
b00110011 0
1-
1`
1U
1g
1J
1D
1S
0W
1O
0I
b00000110 /
0)
#1036
0-
0`
0U
0g
0J
0D
0S
0O
#1041
1-
1`
1g
1.
1J
1D
1S
b0000000000000000000000000000000000000000000000000000000000111101 K
b00000111 /
1)
1\
1!
1U
b0000000000000000000000000000000000000000000000000000000000111101 V
1W
1O
1,
#1046
0-
0`
1c
1%
0U
0g
0J
0D
0S
0O
#1051
03
1-
1`
1g
0.
1J
0&
1D
1S
b0000000000000000000000000000000000000000000000000000000000000000 K
0[
07
b00000000 /
b00001101 b
0)
0\
0!
b00110100 0
1U
b0000000000000000000000000000000000000000000000000000000000000000 V
b0000000000000000000000000000000000000000000000000000000000111101 e
b011010 H
0W
1O
1:
1I
0,
#1056
0-
0`
0U
0g
0J
0D
0S
0O
#1061
1-
1`
1g
1J
1&
1D
1S
1[
b00000001 /
1)
0?
1U
0@
b0000000000000000000000000000000000000000000000000000000000000000 e
1W
1O
0:
#1066
0-
0`
0U
0g
0J
0D
0S
0O
#1071
b00110101 0
1-
1`
1U
1g
1J
1D
1S
0W
1O
0I
b00000010 /
0)
#1076
0-
0`
0U
0g
0J
0D
0S
0O
#1081
1-
1`
1U
1g
1J
1D
1S
1W
1O
b00000011 /
1)
#1086
0-
0`
0c
0%
0U
0g
0J
0D
0S
0O
#1091
13
1-
1`
1g
1J
1D
1S
17
b00000100 /
0)
b00110110 0
1U
b011011 H
0W
1O
1I
#1096
0-
0`
0U
0g
0J
0D
0S
0O
#1101
1?
1`
1-
1U
1@
1g
1J
1D
1S
1W
1O
b00000101 /
1)
#1106
0-
0`
0U
0g
0J
0D
0S
0O
#1111
b00110111 0
1-
1`
1U
1g
1J
1D
1S
0W
1O
0I
b00000110 /
0)
#1116
0-
0`
0U
0g
0J
0D
0S
0O
#1121
1-
1`
1g
1.
1J
1D
1S
b0000000000000000000000000000000000000000000000000000000000111101 K
b00000111 /
1)
1\
1!
1U
b0000000000000000000000000000000000000000000000000000000000111101 V
1W
1O
1,
#1126
0-
0`
1c
1%
0U
0g
0J
0D
0S
0O
#1131
03
1-
1`
1g
0.
1J
0&
1D
1S
b0000000000000000000000000000000000000000000000000000000000000000 K
0[
07
b00000000 /
b00001110 b
0)
0\
0!
b00111000 0
1U
b0000000000000000000000000000000000000000000000000000000000000000 V
b0000000000000000000000000000000000000000000000000000000000111101 e
b011100 H
0W
1O
1:
1I
0,
#1136
0-
0`
0U
0g
0J
0D
0S
0O
#1141
1-
1`
1g
1J
1&
1D
1S
1[
b00000001 /
1)
0?
1U
0@
b0000000000000000000000000000000000000000000000000000000000000000 e
1W
1O
0:
#1146
0-
0`
0U
0g
0J
0D
0S
0O
#1151
b00111001 0
1-
1`
1U
1g
1J
1D
1S
0W
1O
0I
b00000010 /
0)
#1156
0-
0`
0U
0g
0J
0D
0S
0O
#1161
1-
1`
1U
1g
1J
1D
1S
1W
1O
b00000011 /
1)
#1166
0-
0`
0c
0%
0U
0g
0J
0D
0S
0O
#1171
13
1-
1`
1g
1J
1D
1S
17
b00000100 /
0)
b00111010 0
1U
b011101 H
0W
1O
1I
#1176
0-
0`
0U
0g
0J
0D
0S
0O
#1181
1?
1`
1-
1U
1@
1g
1J
1D
1S
1W
1O
b00000101 /
1)
#1186
0-
0`
0U
0g
0J
0D
0S
0O
#1191
b00111011 0
1-
1`
1U
1g
1J
1D
1S
0W
1O
0I
b00000110 /
0)
#1196
0-
0`
0U
0g
0J
0D
0S
0O
#1201
1-
1`
1g
1.
1J
1D
1S
b0000000000000000000000000000000000000000000000000000000000111101 K
b00000111 /
1)
1\
1!
1U
b0000000000000000000000000000000000000000000000000000000000111101 V
1W
1O
1,
