Intervox_Reciever/test_run_dir/interVox_Reciever_should_pass/interVox_Reciever.vcd
$date
2022-11-20T21:45+0000
$end
$version
0.2
$end
$comment

$end
$timescale 1ns  $end
$scope module interVox_Reciever $end
 $var wire 1 % io_INTERVOX_IN $end
 $var wire 1 * io_DATA_OUT $end
 $var wire 1 + io_CLK_REC $end
 $var wire 1 , pll $end
 $var wire 1 - io_DBUG $end
 $var wire 1 1 io_NEXT_FRAME $end
 $var wire 1 6 clockRec $end
 $var wire 1 7 clock $end
 $var wire 1 : io_DBUG1 $end
 $var wire 1 = reset $end
  $scope module clockRec $end
   $var wire 1 ! io_DATA_OUT $end
   $var wire 8 " pllCntr $end
   $var wire 16 # bitIn $end
   $var wire 5 $ expected_cycles_one $end
   $var wire 5 & oversampling_factor $end
   $var wire 1 ' sync_hi $end
   $var wire 8 ( clkCntr1 $end
   $var wire 8 ) bufCntr $end
   $var wire 1 . enaBuf $end
   $var wire 1 / nextFrame $end
   $var wire 1 0 reset $end
   $var wire 1 2 outReg $end
   $var wire 1 5 io_CLK_OUT $end
   $var wire 8 8 clkCntr $end
   $var wire 1 9 io_DATA_IN $end
   $var wire 1 ; sync_lo $end
   $var wire 1 > io_NEXT_FRAME $end
   $var wire 1 ? change $end
   $var wire 1 @ clock $end
  $upscope $end
  $scope module pll $end
   $var wire 1 3 locked $end
   $var wire 1 4 PLL_IN $end
   $var wire 1 < PLL_MCLK $end
  $upscope $end
$upscope $end
$enddefinitions $end
$dumpvars
0%
0;
0<
0'
0=
0>
06
0!
07
09
0:
02
03
b0000000000000000 #
04
b00000000 (
05
b00000000 )
b00000 $
0-
0.
b00000000 "
b00000 &
b00000000 8
0/
00
01
0?
0*
0@
0+
0,
$end
#0
10
b01111 &
b01111 $
1=
#1
1@
17
#6
00
0@
0=
07
#11
b00000001 "
1@
b00000001 (
17
#16
0@
07
#21
b00000010 "
1@
b00000010 (
17
#26
0@
07
#31
b00000011 "
1@
b00000011 (
17
#36
0@
07
#41
b00000100 "
1@
b00000100 (
17
#46
0@
07
#51
b00000101 "
1@
b00000101 (
17
#56
0@
07
#61
b00000110 "
1@
b00000110 (
17
#66
0@
07
#71
b00000111 "
1@
b00000111 (
17
#76
0@
07
#81
1-
14
b00000000 "
1@
15
12
b00001000 (
17
#86
0@
07
#91
b00000001 "
1@
b00001001 (
17
#96
0@
07
#101
b00000010 "
1@
b00001010 (
17
#106
0@
07
#111
b00000011 "
1@
b00001011 (
17
#116
0@
07
#121
b00000100 "
1@
b00001100 (
17
#126
0@
07
#131
b00000101 "
1@
b00001101 (
17
#136
0@
07
#141
b00000110 "
1@
b00001110 (
17
#146
0@
07
#151
b00000111 "
1@
b00001111 (
17
#156
0@
07
#161
0-
04
b00000000 "
1@
05
02
b00010000 (
17
#166
0@
07
#171
b00000001 "
1@
b00010001 (
17
#176
0@
07
#181
b00000010 "
1@
b00010010 (
17
#186
0@
07
#191
b00000011 "
1@
b00010011 (
17
#196
0@
07
#201
b00000100 "
1@
b00010100 (
17
#206
0@
07
#211
b00000101 "
1@
b00010101 (
17
#216
0@
07
#221
b00000110 "
1@
b00010110 (
17
#226
0@
07
#231
b00000111 "
1@
b00010111 (
17
#236
0@
07
#241
1-
14
b00000000 "
1@
15
12
b00011000 (
17
#246
0@
07
#251
b00000001 "
1@
b00011001 (
17
#256
0@
07
#261
b00000010 "
1@
b00011010 (
17
#266
0@
07
#271
b00000011 "
1@
b00011011 (
17
#276
0@
07
#281
b00000100 "
1@
b00011100 (
17
#286
0@
07
#291
b00000101 "
1@
b00011101 (
17
#296
0@
07
#301
b00000110 "
1@
b00011110 (
17
#306
0@
07
#311
b00000111 "
1@
b00011111 (
17
#316
0@
07
#321
0-
04
b00000000 "
1@
05
02
b00100000 (
17
#326
0@
07
#331
b00000001 "
1@
b00100001 (
17
#336
0@
07
#341
b00000010 "
1@
b00100010 (
17
#346
0@
07
#351
b00000011 "
1@
b00100011 (
17
#356
0@
07
#361
b00000100 "
1@
b00100100 (
17
#366
0@
07
#371
b00000101 "
1@
b00100101 (
17
#376
0@
07
#381
b00000110 "
1@
b00100110 (
17
#386
0@
07
#391
b00000111 "
1@
b00100111 (
17
#396
0@
07
#401
1-
14
b00000000 "
1@
15
12
b00101000 (
17
#406
0@
07
#411
b00000001 "
1@
b00101001 (
17
#416
0@
07
#421
b00000010 "
1@
b00101010 (
17
#426
0@
07
#431
b00000011 "
1@
b00101011 (
17
#436
0@
07
#441
b00000100 "
1@
b00101100 (
17
#446
0@
07
#451
b00000101 "
1@
b00101101 (
17
#456
0@
07
#461
b00000110 "
1@
b00101110 (
17
#466
0@
07
#471
b00000111 "
1@
b00101111 (
17
#476
0@
07
#481
0-
04
11
1@
b00000000 "
05
02
b00000000 (
17
1/
1>
1;
#486
1%
0@
19
07
#491
b00000001 "
1@
b00000001 (
17
#496
0@
07
#501
b00000010 "
1@
b00000010 (
17
#506
0@
07
#511
b00000011 "
1@
b00000011 (
17
#516
0@
07
#521
b00000100 "
1@
b00000100 (
17
#526
0@
07
#531
b00000101 "
1@
b00000101 (
17
#536
0@
07
#541
b00000110 "
1@
b00000110 (
17
#546
0@
07
#551
b00000111 "
1@
b00000111 (
17
#556
0@
07
#561
1-
14
b00000000 "
1@
15
12
b00001000 (
17
#566
0@
07
#571
b00000001 "
1@
b00001001 (
17
#576
0@
07
#581
b00000010 "
1@
b00001010 (
17
#586
0@
07
#591
b00000011 "
1@
b00001011 (
17
#596
0@
07
#601
b00000100 "
1@
b00001100 (
17
#606
0@
07
#611
b00000101 "
1@
b00001101 (
17
#616
0@
07
#621
b00000110 "
1@
b00001110 (
17
#626
0@
07
#631
b00000111 "
1@
b00001111 (
17
#636
0@
07
#641
0-
04
01
1@
b00000000 "
05
02
1'
b00000000 (
17
0/
0>
0;
#646
0%
0@
09
07
#651
b00000001 "
1@
b00000001 8
b00000001 (
17
#656
0@
07
#661
b00000010 "
1@
b00000010 8
b00000010 (
17
#666
0@
07
#671
b00000011 "
1@
b00000011 8
b00000011 (
17
#676
0@
07
#681
b00000100 "
1@
b00000100 8
b00000100 (
17
#686
0@
07
#691
b00000101 "
1@
b00000101 8
b00000101 (
17
#696
0@
07
#701
b00000110 "
1@
b00000110 8
b00000110 (
17
#706
0@
07
#711
b00000111 "
1@
b00000111 8
b00000111 (
17
#716
0@
07
#721
1-
14
b00000000 "
1@
b00001000 8
15
12
b00001000 (
17
#726
1%
0@
19
07
#731
b00000001 "
1@
b00001001 8
b0000000100000000 #
17
#736
0@
07
#741
b00000010 "
1@
b00001010 8
b0000001100000000 #
17
#746
0@
07
#751
b00000011 "
1@
b00001011 8
b0000011100000000 #
17
#756
0@
07
#761
b00000100 "
1@
b00001100 8
b0000111100000000 #
17
#766
0@
07
#771
b00000101 "
1@
b00001101 8
b0001111100000000 #
17
#776
0@
07
#781
b00000110 "
1@
b00001110 8
b0011111100000000 #
17
#786
0@
07
#791
b00000111 "
1@
b00001111 8
b0111111100000000 #
17
#796
0@
07
#801
0-
04
b00000000 "
1@
1.
b00000000 8
05
02
b0000000000000000 #
17
#806
0%
0@
09
07
#811
b00000001 "
1@
b00000001 8
b00001001 (
17
b00000001 )
#816
0@
07
#821
b00000010 "
1@
b00000010 8
b00001010 (
17
b00000010 )
#826
0@
07
#831
b00000011 "
1@
b00000011 8
b00001011 (
17
b00000011 )
#836
0@
07
#841
b00000100 "
1@
b00000100 8
b00001100 (
17
b00000100 )
#846
0@
07
#851
b00000101 "
1@
b00000101 8
b00001101 (
17
b00000101 )
#856
0@
07
#861
b00000110 "
1@
b00000110 8
b00001110 (
17
b00000110 )
#866
0@
07
#871
b00000111 "
1@
b00000111 8
b00001111 (
17
b00000111 )
#876
0@
07
#881
1-
14
b00000000 "
1@
b00001000 8
15
12
b00010000 (
17
b00001000 )
#886
1%
0@
19
07
#891
b00000001 "
1@
b00001001 8
b0000000100000000 #
17
b00001001 )
#896
0@
07
#901
b00000010 "
1@
b00001010 8
b0000001100000000 #
17
b00001010 )
#906
0@
07
#911
b00000011 "
1@
b00001011 8
b0000011100000000 #
17
b00001011 )
#916
0@
07
#921
b00000100 "
1@
b00001100 8
b0000111100000000 #
17
b00001100 )
#926
0@
07
#931
b00000101 "
1@
b00001101 8
b0001111100000000 #
17
b00001101 )
#936
0@
07
#941
b00000110 "
1@
b00001110 8
b0011111100000000 #
17
b00001110 )
#946
0@
07
#951
b00000111 "
1@
b00001111 8
b0111111100000000 #
17
b00001111 )
#956
0@
07
#961
1!
1?
0-
04
b00000000 "
1@
b00000000 8
05
02
b0000000000000000 #
1*
17
b00000000 )
#966
0%
0@
09
07
#971
b00000001 "
1@
b00000001 8
b00010001 (
17
b00000001 )
#976
0@
07
#981
b00000010 "
1@
b00000010 8
b00010010 (
17
b00000010 )
#986
0@
07
#991
b00000011 "
1@
b00000011 8
b00010011 (
17
b00000011 )
#996
0@
07
#1001
b00000100 "
1@
b00000100 8
b00010100 (
17
b00000100 )
#1006
0@
07
#1011
b00000101 "
1@
b00000101 8
b00010101 (
17
b00000101 )
#1016
0@
07
#1021
b00000110 "
1@
b00000110 8
b00010110 (
17
b00000110 )
#1026
0@
07
#1031
b00000111 "
1@
b00000111 8
b00010111 (
17
b00000111 )
#1036
0@
07
#1041
1-
14
b00000000 "
1@
b00001000 8
15
12
b00011000 (
17
b00001000 )
#1046
1%
0@
19
07
#1051
b00000001 "
1@
b00001001 8
b0000000100000000 #
17
b00001001 )
#1056
0@
07
#1061
b00000010 "
1@
b00001010 8
b0000001100000000 #
17
b00001010 )
#1066
0@
07
#1071
b00000011 "
1@
b00001011 8
b0000011100000000 #
17
b00001011 )
#1076
0@
07
#1081
b00000100 "
1@
b00001100 8
b0000111100000000 #
17
b00001100 )
#1086
0@
07
#1091
b00000101 "
1@
b00001101 8
b0001111100000000 #
17
b00001101 )
#1096
0@
07
#1101
b00000110 "
1@
b00001110 8
b0011111100000000 #
17
b00001110 )
#1106
0@
07
#1111
b00000111 "
1@
b00001111 8
b0111111100000000 #
17
b00001111 )
#1116
0@
07
#1121
0-
04
b00000000 "
1@
b00000000 8
05
02
b0000000000000000 #
17
b00000000 )
#1126
0%
0@
09
07
#1131
b00000001 "
1@
b00000001 8
b00011001 (
17
b00000001 )
#1136
0@
07
#1141
b00000010 "
1@
b00000010 8
b00011010 (
17
b00000010 )
#1146
0@
07
#1151
b00000011 "
1@
b00000011 8
b00011011 (
17
b00000011 )
#1156
0@
07
#1161
b00000100 "
1@
b00000100 8
b00011100 (
17
b00000100 )
#1166
0@
07
#1171
b00000101 "
1@
b00000101 8
b00011101 (
17
b00000101 )
#1176
0@
07
#1181
b00000110 "
1@
b00000110 8
b00011110 (
17
b00000110 )
#1186
0@
07
#1191
b00000111 "
1@
b00000111 8
b00011111 (
17
b00000111 )
#1196
0@
07
#1201
1-
14
b00000000 "
1@
b00001000 8
15
12
b00100000 (
17
b00001000 )
#1206
1%
0@
19
07
#1211
b00000001 "
1@
b00001001 8
b0000000100000000 #
17
b00001001 )
#1216
0@
07
#1221
b00000010 "
1@
b00001010 8
b0000001100000000 #
17
b00001010 )
#1226
0@
07
#1231
b00000011 "
1@
b00001011 8
b0000011100000000 #
17
b00001011 )
#1236
0@
07
#1241
b00000100 "
1@
b00001100 8
b0000111100000000 #
17
b00001100 )
#1246
0@
07
#1251
b00000101 "
1@
b00001101 8
b0001111100000000 #
17
b00001101 )
#1256
0@
07
#1261
b00000110 "
1@
b00001110 8
b0011111100000000 #
17
b00001110 )
#1266
0@
07
#1271
b00000111 "
1@
b00001111 8
b0111111100000000 #
17
b00001111 )
#1276
0@
07
#1281
0-
04
b00000000 "
1@
b00000000 8
05
02
b0000000000000000 #
17
b00000000 )
#1286
0%
0@
09
07
#1291
b00000001 "
1@
b00000001 8
b00100001 (
17
b00000001 )
#1296
0@
07
#1301
b00000010 "
1@
b00000010 8
b00100010 (
17
b00000010 )
#1306
0@
07
#1311
b00000011 "
1@
b00000011 8
b00100011 (
17
b00000011 )
#1316
0@
07
#1321
b00000100 "
1@
b00000100 8
b00100100 (
17
b00000100 )
#1326
0@
07
#1331
b00000101 "
1@
b00000101 8
b00100101 (
17
b00000101 )
#1336
0@
07
#1341
b00000110 "
1@
b00000110 8
b00100110 (
17
b00000110 )
#1346
0@
07
#1351
b00000111 "
1@
b00000111 8
b00100111 (
17
b00000111 )
#1356
0@
07
#1361
1-
14
b00000000 "
1@
b00001000 8
15
12
b00101000 (
17
b00001000 )
#1366
0@
07
#1371
b00000001 "
1@
b00001001 8
b00101001 (
17
b00001001 )
#1376
0@
07
#1381
b00000010 "
1@
b00001010 8
b00101010 (
17
b00001010 )
#1386
0@
07
#1391
b00000011 "
1@
b00001011 8
b00101011 (
17
b00001011 )
#1396
0@
07
#1401
b00000100 "
1@
b00001100 8
b00101100 (
17
b00001100 )
#1406
0@
07
#1411
b00000101 "
1@
b00001101 8
b00101101 (
17
b00001101 )
#1416
0@
07
#1421
b00000110 "
1@
b00001110 8
b00101110 (
17
b00001110 )
#1426
0@
07
#1431
b00000111 "
1@
b00001111 8
b00101111 (
17
b00001111 )
#1436
0@
07
#1441
0-
04
05
b00000000 (
17
1/
1>
b00000000 )
0!
0?
b00000000 "
11
1@
b00000000 8
02
0*
1;
#1446
1%
0@
19
07
#1451
b00000001 "
1@
b00000001 8
b0000000000000001 #
b00000001 (
17
b00000001 )
#1456
0@
07
#1461
b00000010 "
1@
b00000010 8
b0000000000000011 #
b00000010 (
17
b00000010 )
#1466
0@
07
#1471
b00000011 "
1@
b00000011 8
b0000000000000111 #
b00000011 (
17
b00000011 )
#1476
0@
07
#1481
b00000100 "
1@
b00000100 8
b0000000000001111 #
b00000100 (
17
b00000100 )
#1486
0@
07
#1491
b00000101 "
1@
b00000101 8
b0000000000011111 #
b00000101 (
17
b00000101 )
#1496
0@
07
#1501
b00000110 "
1@
b00000110 8
b0000000000111111 #
b00000110 (
17
b00000110 )
#1506
0@
07
#1511
b00000111 "
1@
b00000111 8
b0000000001111111 #
b00000111 (
17
b00000111 )
#1516
0@
07
#1521
1-
14
b00000000 "
1@
b00001000 8
15
12
b0000000011111111 #
b00001000 (
17
b00001000 )
#1526
0@
07
#1531
b00000001 "
1@
b00001001 8
b0000000111111111 #
b00001001 (
17
b00001001 )
#1536
0@
07
#1541
b00000010 "
1@
b00001010 8
b0000001111111111 #
b00001010 (
17
b00001010 )
#1546
0@
07
#1551
b00000011 "
1@
b00001011 8
b0000011111111111 #
b00001011 (
17
b00001011 )
#1556
0@
07
#1561
b00000100 "
1@
b00001100 8
b0000111111111111 #
b00001100 (
17
b00001100 )
#1566
0@
07
#1571
b00000101 "
1@
b00001101 8
b0001111111111111 #
b00001101 (
17
b00001101 )
#1576
0@
07
#1581
b00000110 "
1@
b00001110 8
b0011111111111111 #
b00001110 (
17
b00001110 )
#1586
0@
07
#1591
b00000111 "
1@
b00001111 8
b0111111111111111 #
b00001111 (
17
b00001111 )
#1596
0@
07
#1601
0-
04
05
b00000000 (
17
0/
0>
b00000000 )
b00000000 "
01
1@
b00000000 8
b0000000000000000 #
02
0;
#1606
0%
0@
09
07
#1611
b00000001 "
1@
b00000001 8
b00000001 (
17
b00000001 )
#1616
0@
07
#1621
b00000010 "
1@
b00000010 8
b00000010 (
17
b00000010 )
#1626
0@
07
#1631
b00000011 "
1@
b00000011 8
b00000011 (
17
b00000011 )
#1636
0@
07
#1641
b00000100 "
1@
b00000100 8
b00000100 (
17
b00000100 )
#1646
0@
07
#1651
b00000101 "
1@
b00000101 8
b00000101 (
17
b00000101 )
#1656
0@
07
#1661
b00000110 "
1@
b00000110 8
b00000110 (
17
b00000110 )
#1666
0@
07
#1671
b00000111 "
1@
b00000111 8
b00000111 (
17
b00000111 )
#1676
0@
07
#1681
1-
14
b00000000 "
1@
b00001000 8
15
12
b00001000 (
17
b00001000 )
#1686
0@
07
#1691
b00000001 "
1@
b00001001 8
b00001001 (
17
b00001001 )
#1696
0@
07
#1701
b00000010 "
1@
b00001010 8
b00001010 (
17
b00001010 )
#1706
0@
07
#1711
b00000011 "
1@
b00001011 8
b00001011 (
17
b00001011 )
#1716
0@
07
#1721
b00000100 "
1@
b00001100 8
b00001100 (
17
b00001100 )
#1726
0@
07
#1731
b00000101 "
1@
b00001101 8
b00001101 (
17
b00001101 )
#1736
0@
07
#1741
b00000110 "
1@
b00001110 8
b00001110 (
17
b00001110 )
#1746
0@
07
#1751
b00000111 "
1@
b00001111 8
b00001111 (
17
b00001111 )
#1756
0@
07
#1761
0-
04
b00000000 "
1@
b00000000 8
05
02
b00010000 (
17
b00000000 )
#1766
1%
0@
19
07
#1771
b00000001 "
1@
b00000001 8
b0000000000000001 #
17
b00000001 )
#1776
0@
07
#1781
b00000010 "
1@
b00000010 8
b0000000000000011 #
17
b00000010 )
#1786
0@
07
#1791
b00000011 "
1@
b00000011 8
b0000000000000111 #
17
b00000011 )
#1796
0@
07
#1801
b00000100 "
1@
b00000100 8
b0000000000001111 #
17
b00000100 )
#1806
0@
07
#1811
b00000101 "
1@
b00000101 8
b0000000000011111 #
17
b00000101 )
#1816
0@
07
#1821
b00000110 "
1@
b00000110 8
b0000000000111111 #
17
b00000110 )
#1826
0@
07
#1831
b00000111 "
1@
b00000111 8
b0000000001111111 #
17
b00000111 )
#1836
0@
07
#1841
1-
14
b00000000 "
1@
b00001000 8
15
12
b0000000011111111 #
17
b00001000 )
#1846
0@
07
#1851
b00000001 "
1@
b00001001 8
b0000000111111111 #
17
b00001001 )
#1856
0@
07
#1861
b00000010 "
1@
b00001010 8
b0000001111111111 #
17
b00001010 )
#1866
0@
07
#1871
b00000011 "
1@
b00001011 8
b0000011111111111 #
17
b00001011 )
#1876
0@
07
#1881
b00000100 "
1@
b00001100 8
b0000111111111111 #
17
b00001100 )
#1886
0@
07
#1891
b00000101 "
1@
b00001101 8
b0001111111111111 #
17
b00001101 )
#1896
0@
07
#1901
b00000110 "
1@
b00001110 8
b0011111111111111 #
17
b00001110 )
#1906
0@
07
#1911
b00000111 "
1@
b00001111 8
b0111111111111111 #
17
b00001111 )
#1916
0@
07
#1921
0-
04
b00000000 "
1@
b00000000 8
05
02
b0000000000000000 #
17
b00000000 )
#1926
0%
0@
09
07
#1931
b00000001 "
1@
b00000001 8
b00010001 (
17
b00000001 )
#1936
0@
07
#1941
b00000010 "
1@
b00000010 8
b00010010 (
17
b00000010 )
#1946
0@
07
#1951
b00000011 "
1@
b00000011 8
b00010011 (
17
b00000011 )
#1956
0@
07
#1961
b00000100 "
1@
b00000100 8
b00010100 (
17
b00000100 )
#1966
0@
07
#1971
b00000101 "
1@
b00000101 8
b00010101 (
17
b00000101 )
#1976
0@
07
#1981
b00000110 "
1@
b00000110 8
b00010110 (
17
b00000110 )
#1986
0@
07
#1991
b00000111 "
1@
b00000111 8
b00010111 (
17
b00000111 )
#1996
0@
07
#2001
1-
14
b00000000 "
1@
b00001000 8
15
12
b00011000 (
17
b00001000 )
#2006
1%
0@
19
07
#2011
b00000001 "
1@
b00001001 8
b0000000100000000 #
17
b00001001 )
#2016
0@
07
#2021
b00000010 "
1@
b00001010 8
b0000001100000000 #
17
b00001010 )
#2026
0@
07
#2031
b00000011 "
1@
b00001011 8
b0000011100000000 #
17
b00001011 )
#2036
0@
07
#2041
b00000100 "
1@
b00001100 8
b0000111100000000 #
17
b00001100 )
#2046
0@
07
#2051
b00000101 "
1@
b00001101 8
b0001111100000000 #
17
b00001101 )
#2056
0@
07
#2061
b00000110 "
1@
b00001110 8
b0011111100000000 #
17
b00001110 )
#2066
0@
07
#2071
b00000111 "
1@
b00001111 8
b0111111100000000 #
17
b00001111 )
#2076
0@
07
#2081
1!
1?
0-
04
b00000000 "
1@
b00000000 8
05
02
b0000000000000000 #
1*
17
b00000000 )
#2086
0%
0@
09
07
#2091
b00000001 "
1@
b00000001 8
b00011001 (
17
b00000001 )
#2096
0@
07
#2101
b00000010 "
1@
b00000010 8
b00011010 (
17
b00000010 )
#2106
0@
07
#2111
b00000011 "
1@
b00000011 8
b00011011 (
17
b00000011 )
#2116
0@
07
#2121
b00000100 "
1@
b00000100 8
b00011100 (
17
b00000100 )
#2126
0@
07
#2131
b00000101 "
1@
b00000101 8
b00011101 (
17
b00000101 )
#2136
0@
07
#2141
b00000110 "
1@
b00000110 8
b00011110 (
17
b00000110 )
#2146
0@
07
#2151
b00000111 "
1@
b00000111 8
b00011111 (
17
b00000111 )
#2156
0@
07
#2161
1-
14
b00000000 "
1@
b00001000 8
15
12
b00100000 (
17
b00001000 )
#2166
1%
0@
19
07
#2171
b00000001 "
1@
b00001001 8
b0000000100000000 #
17
b00001001 )
#2176
0@
07
#2181
b00000010 "
1@
b00001010 8
b0000001100000000 #
17
b00001010 )
#2186
0@
07
#2191
b00000011 "
1@
b00001011 8
b0000011100000000 #
17
b00001011 )
#2196
0@
07
#2201
b00000100 "
1@
b00001100 8
b0000111100000000 #
17
b00001100 )
#2206
0@
07
#2211
b00000101 "
1@
b00001101 8
b0001111100000000 #
17
b00001101 )
#2216
0@
07
#2221
b00000110 "
1@
b00001110 8
b0011111100000000 #
17
b00001110 )
#2226
0@
07
#2231
b00000111 "
1@
b00001111 8
b0111111100000000 #
17
b00001111 )
#2236
0@
07
#2241
0-
04
b00000000 "
1@
b00000000 8
05
02
b0000000000000000 #
17
b00000000 )
#2246
0%
0@
09
07
#2251
b00000001 "
1@
b00000001 8
b00100001 (
17
b00000001 )
#2256
0@
07
#2261
b00000010 "
1@
b00000010 8
b00100010 (
17
b00000010 )
#2266
0@
07
#2271
b00000011 "
1@
b00000011 8
b00100011 (
17
b00000011 )
#2276
0@
07
#2281
b00000100 "
1@
b00000100 8
b00100100 (
17
b00000100 )
#2286
0@
07
#2291
b00000101 "
1@
b00000101 8
b00100101 (
17
b00000101 )
#2296
0@
07
#2301
b00000110 "
1@
b00000110 8
b00100110 (
17
b00000110 )
#2306
0@
07
#2311
b00000111 "
1@
b00000111 8
b00100111 (
17
b00000111 )
#2316
0@
07
#2321
1-
14
b00000000 "
1@
b00001000 8
15
12
b00101000 (
17
b00001000 )
#2326
1%
0@
19
07
#2331
b00000001 "
1@
b00001001 8
b0000000100000000 #
17
b00001001 )
#2336
0@
07
#2341
b00000010 "
1@
b00001010 8
b0000001100000000 #
17
b00001010 )
#2346
0@
07
#2351
b00000011 "
1@
b00001011 8
b0000011100000000 #
17
b00001011 )
#2356
0@
07
#2361
b00000100 "
1@
b00001100 8
b0000111100000000 #
17
b00001100 )
#2366
0@
07
#2371
b00000101 "
1@
b00001101 8
b0001111100000000 #
17
b00001101 )
#2376
0@
07
#2381
b00000110 "
1@
b00001110 8
b0011111100000000 #
17
b00001110 )
#2386
0@
07
#2391
b00000111 "
1@
b00001111 8
b0111111100000000 #
17
b00001111 )
#2396
0@
07
#2401
0-
04
b00000000 "
1@
b00000000 8
05
02
b0000000000000000 #
17
b00000000 )
#2406
0%
0@
09
07
#2411
b00000001 "
1@
b00000001 8
b00101001 (
17
b00000001 )
#2416
0@
07
#2421
b00000010 "
1@
b00000010 8
b00101010 (
17
b00000010 )
#2426
0@
07
#2431
b00000011 "
1@
b00000011 8
b00101011 (
17
b00000011 )
#2436
0@
07
#2441
b00000100 "
1@
b00000100 8
b00101100 (
17
b00000100 )
#2446
0@
07
#2451
b00000101 "
1@
b00000101 8
b00101101 (
17
b00000101 )
#2456
0@
07
#2461
b00000110 "
1@
b00000110 8
b00101110 (
17
b00000110 )
#2466
0@
07
#2471
b00000111 "
1@
b00000111 8
b00101111 (
17
b00000111 )
#2476
0@
07
#2481
1-
14
15
b00000000 (
17
1/
1>
b00001000 )
b00000000 "
11
1@
b00001000 8
12
1;
#2486
1%
0@
19
07
#2491
b00000001 "
1@
b00001001 8
b0000000100000000 #
b00000001 (
17
b00001001 )
#2496
0@
07
#2501
b00000010 "
1@
b00001010 8
b0000001100000000 #
b00000010 (
17
b00001010 )
#2506
0@
07
#2511
b00000011 "
1@
b00001011 8
b0000011100000000 #
b00000011 (
17
b00001011 )
#2516
0@
07
#2521
b00000100 "
1@
b00001100 8
b0000111100000000 #
b00000100 (
17
b00001100 )
#2526
0@
07
#2531
b00000101 "
1@
b00001101 8
b0001111100000000 #
b00000101 (
17
b00001101 )
#2536
0@
07
#2541
b00000110 "
1@
b00001110 8
b0011111100000000 #
b00000110 (
17
b00001110 )
#2546
0@
07
#2551
b00000111 "
1@
b00001111 8
b0111111100000000 #
b00000111 (
17
b00001111 )
#2556
0@
07
#2561
0-
04
b00000000 "
1@
b00000000 8
05
02
b0000000000000000 #
b00001000 (
17
b00000000 )
#2566
0%
0@
09
07
#2571
b00000001 "
1@
b00000001 8
17
b00000001 )
#2576
0@
07
#2581
b00000010 "
1@
b00000010 8
17
b00000010 )
#2586
0@
07
#2591
b00000011 "
1@
b00000011 8
17
b00000011 )
#2596
0@
07
#2601
b00000100 "
1@
b00000100 8
17
b00000100 )
#2606
0@
07
#2611
b00000101 "
1@
b00000101 8
17
b00000101 )
#2616
0@
07
#2621
b00000110 "
1@
b00000110 8
17
b00000110 )
#2626
0@
07
#2631
b00000111 "
1@
b00000111 8
17
b00000111 )
#2636
0@
07
#2641
1-
14
b00000000 "
1@
b00001000 8
15
12
17
b00001000 )
#2646
1%
0@
19
07
#2651
b00000001 "
1@
b00001001 8
b0000000100000000 #
b00001001 (
17
b00001001 )
#2656
0@
07
#2661
b00000010 "
1@
b00001010 8
b0000001100000000 #
b00001010 (
17
b00001010 )
#2666
0@
07
#2671
b00000011 "
1@
b00001011 8
b0000011100000000 #
b00001011 (
17
b00001011 )
#2676
0@
07
#2681
b00000100 "
1@
b00001100 8
b0000111100000000 #
b00001100 (
17
b00001100 )
#2686
0@
07
#2691
b00000101 "
1@
b00001101 8
b0001111100000000 #
b00001101 (
17
b00001101 )
#2696
0@
07
#2701
b00000110 "
1@
b00001110 8
b0011111100000000 #
b00001110 (
17
b00001110 )
#2706
0@
07
#2711
b00000111 "
1@
b00001111 8
b0111111100000000 #
b00001111 (
17
b00001111 )
#2716
0@
07
#2721
0-
04
05
b00000000 (
17
0/
0>
b00000000 )
b00000000 "
01
1@
b00000000 8
b0000000000000000 #
02
0;
#2726
0%
0@
09
07
#2731
b00000001 "
1@
b00000001 8
b00000001 (
17
b00000001 )
#2736
0@
07
#2741
b00000010 "
1@
b00000010 8
b00000010 (
17
b00000010 )
#2746
0@
07
#2751
b00000011 "
1@
b00000011 8
b00000011 (
17
b00000011 )
#2756
0@
07
#2761
b00000100 "
1@
b00000100 8
b00000100 (
17
b00000100 )
#2766
0@
07
#2771
b00000101 "
1@
b00000101 8
b00000101 (
17
b00000101 )
#2776
0@
07
#2781
b00000110 "
1@
b00000110 8
b00000110 (
17
b00000110 )
#2786
0@
07
#2791
b00000111 "
1@
b00000111 8
b00000111 (
17
b00000111 )
#2796
0@
07
#2801
1-
14
b00000000 "
1@
b00001000 8
15
12
b00001000 (
17
b00001000 )
#2806
1%
0@
19
07
#2811
b00000001 "
1@
b00001001 8
b0000000100000000 #
17
b00001001 )
#2816
0@
07
#2821
b00000010 "
1@
b00001010 8
b0000001100000000 #
17
b00001010 )
#2826
0@
07
#2831
b00000011 "
1@
b00001011 8
b0000011100000000 #
17
b00001011 )
#2836
0@
07
#2841
b00000100 "
1@
b00001100 8
b0000111100000000 #
17
b00001100 )
#2846
0@
07
#2851
b00000101 "
1@
b00001101 8
b0001111100000000 #
17
b00001101 )
#2856
0@
07
#2861
b00000110 "
1@
b00001110 8
b0011111100000000 #
17
b00001110 )
#2866
0@
07
#2871
b00000111 "
1@
b00001111 8
b0111111100000000 #
17
b00001111 )
#2876
0@
07
#2881
0-
04
b00000000 "
1@
b00000000 8
05
02
b0000000000000000 #
17
b00000000 )
#2886
0%
0@
09
07
#2891
b00000001 "
1@
b00000001 8
b00001001 (
17
b00000001 )
#2896
0@
07
#2901
b00000010 "
1@
b00000010 8
b00001010 (
17
b00000010 )
#2906
0@
07
#2911
b00000011 "
1@
b00000011 8
b00001011 (
17
b00000011 )
#2916
0@
07
#2921
b00000100 "
1@
b00000100 8
b00001100 (
17
b00000100 )
#2926
0@
07
#2931
b00000101 "
1@
b00000101 8
b00001101 (
17
b00000101 )
#2936
0@
07
#2941
b00000110 "
1@
b00000110 8
b00001110 (
17
b00000110 )
#2946
0@
07
#2951
b00000111 "
1@
b00000111 8
b00001111 (
17
b00000111 )
#2956
0@
07
#2961
1-
14
b00000000 "
1@
b00001000 8
15
12
b00010000 (
17
b00001000 )
#2966
1%
0@
19
07
#2971
b00000001 "
1@
b00001001 8
b0000000100000000 #
17
b00001001 )
#2976
0@
07
#2981
b00000010 "
1@
b00001010 8
b0000001100000000 #
17
b00001010 )
#2986
0@
07
#2991
b00000011 "
1@
b00001011 8
b0000011100000000 #
17
b00001011 )
#2996
0@
07
#3001
b00000100 "
1@
b00001100 8
b0000111100000000 #
17
b00001100 )
#3006
0@
07
#3011
b00000101 "
1@
b00001101 8
b0001111100000000 #
17
b00001101 )
#3016
0@
07
#3021
b00000110 "
1@
b00001110 8
b0011111100000000 #
17
b00001110 )
#3026
0@
07
#3031
b00000111 "
1@
b00001111 8
b0111111100000000 #
17
b00001111 )
#3036
0@
07
#3041
0-
04
b00000000 "
1@
b00000000 8
05
02
b0000000000000000 #
17
b00000000 )
#3046
0%
0@
09
07
#3051
b00000001 "
1@
b00000001 8
b00010001 (
17
b00000001 )
#3056
0@
07
#3061
b00000010 "
1@
b00000010 8
b00010010 (
17
b00000010 )
#3066
0@
07
#3071
b00000011 "
1@
b00000011 8
b00010011 (
17
b00000011 )
#3076
0@
07
#3081
b00000100 "
1@
b00000100 8
b00010100 (
17
b00000100 )
#3086
0@
07
