Intervox_Reciever/test_run_dir/interVox_Reciever_should_pass/interVox_Reciever.vcd
$date
2022-11-19T23:38+0000
$end
$version
0.2
$end
$comment

$end
$timescale 1ns  $end
$scope module interVox_Reciever $end
 $var wire 1 % io_INTERVOX_IN $end
 $var wire 1 * io_DATA_OUT $end
 $var wire 1 + io_CLK_REC $end
 $var wire 1 , pll $end
 $var wire 1 - io_DBUG $end
 $var wire 1 0 io_NEXT_FRAME $end
 $var wire 1 5 clockRec $end
 $var wire 1 6 clock $end
 $var wire 1 8 io_DBUG1 $end
 $var wire 1 = reset $end
  $scope module clockRec $end
   $var wire 1 ! io_DATA_OUT $end
   $var wire 8 " expected_cycles_syncword $end
   $var wire 16 # bitIn $end
   $var wire 5 $ expected_cycles_one $end
   $var wire 5 & oversampling_factor $end
   $var wire 1 ' sync_hi $end
   $var wire 8 ( clkCntr1 $end
   $var wire 8 ) bufCntr $end
   $var wire 1 . enaBuf $end
   $var wire 1 / reset $end
   $var wire 1 1 outReg $end
   $var wire 1 4 io_CLK_OUT $end
   $var wire 1 7 io_DATA_IN $end
   $var wire 1 9 sync_lo $end
   $var wire 7 : expected_nr_of_incoming_bits $end
   $var wire 8 ; bitCntr $end
   $var wire 1 > io_NEXT_FRAME $end
   $var wire 16 ? bitInBuf $end
   $var wire 1 @ change $end
   $var wire 1 A clock $end
  $upscope $end
  $scope module pll $end
   $var wire 1 2 locked $end
   $var wire 1 3 PLL_IN $end
   $var wire 1 < PLL_MCLK $end
  $upscope $end
$upscope $end
$enddefinitions $end
$dumpvars
0%
0<
0'
0=
0>
06
0!
07
08
09
b0000000000000000 ?
02
03
b0000000000000000 #
04
b00000000 (
05
b00000000 )
b00000 $
0-
0.
b00000000 "
b00000 &
0/
00
01
b00000000 ;
b0000000 :
0*
0@
0+
0A
0,
$end
#0
b00111111 "
b01111 &
b01111 $
1=
b0111111 :
1/
#1
16
1A
#6
06
0=
0/
0A
#11
16
b00000001 (
1A
#16
06
0A
#21
16
b00000010 (
1A
#26
06
0A
#31
16
b00000011 (
1A
#36
06
0A
#41
16
b00000100 (
1A
#46
06
0A
#51
16
b00000101 (
1A
#56
06
0A
#61
16
b00000110 (
1A
#66
06
0A
#71
16
b00000111 (
1A
#76
06
0A
#81
16
b00001000 (
1A
#86
06
0A
#91
16
b00001001 (
1A
#96
06
0A
#101
16
b00001010 (
1A
#106
06
0A
#111
16
b00001011 (
1A
#116
06
0A
#121
16
b00001100 (
1A
#126
06
0A
#131
16
b00001101 (
1A
#136
06
0A
#141
16
b00001110 (
1A
#146
06
0A
#151
16
b00001111 (
1A
#156
06
0A
#161
16
b00010000 (
1A
#166
06
0A
#171
16
b00010001 (
1A
#176
06
0A
#181
16
b00010010 (
1A
#186
06
0A
#191
16
b00010011 (
1A
#196
06
0A
#201
16
b00010100 (
1A
#206
06
0A
#211
16
b00010101 (
1A
#216
06
0A
#221
16
b00010110 (
1A
#226
06
0A
#231
16
b00010111 (
1A
#236
06
0A
#241
16
b00011000 (
1A
#246
06
0A
#251
16
b00011001 (
1A
#256
06
0A
#261
16
b00011010 (
1A
#266
06
0A
#271
16
b00011011 (
1A
#276
06
0A
#281
16
b00011100 (
1A
#286
06
0A
#291
16
b00011101 (
1A
#296
06
0A
#301
16
b00011110 (
1A
#306
06
0A
#311
16
b00011111 (
1A
#316
06
0A
#321
16
b00100000 (
1A
#326
06
0A
#331
16
b00100001 (
1A
#336
06
0A
#341
16
b00100010 (
1A
#346
06
0A
#351
16
b00100011 (
1A
#356
06
0A
#361
16
b00100100 (
1A
#366
06
0A
#371
16
b00100101 (
1A
#376
06
0A
#381
16
b00100110 (
1A
#386
06
0A
#391
16
b00100111 (
1A
#396
06
0A
#401
16
b00101000 (
1A
#406
06
0A
#411
16
b00101001 (
1A
#416
06
0A
#421
16
b00101010 (
1A
#426
06
0A
#431
16
b00101011 (
1A
#436
06
0A
#441
16
b00101100 (
1A
#446
06
0A
#451
16
b00101101 (
1A
#456
06
0A
#461
19
16
b00101110 (
1A
#466
06
0A
#471
16
b00101111 (
1A
#476
06
0A
#481
16
b00110000 (
1A
#486
1%
06
17
0A
#491
16
b00110001 (
1A
#496
06
0A
#501
16
b00110010 (
1A
#506
06
0A
#511
16
b00110011 (
1A
#516
06
0A
#521
16
b00110100 (
1A
#526
06
0A
#531
16
b00110101 (
1A
#536
06
0A
#541
16
b00110110 (
1A
#546
06
0A
#551
16
b00110111 (
1A
#556
06
0A
#561
16
b00111000 (
1A
#566
06
0A
#571
16
b00111001 (
1A
#576
06
0A
#581
16
b00111010 (
1A
#586
06
0A
#591
16
b00111011 (
1A
#596
06
0A
#601
16
b00111100 (
1A
#606
06
0A
#611
16
b00111101 (
1A
#616
06
0A
#621
16
b00111110 (
1A
#626
06
0A
#631
16
b00111111 (
1A
#636
06
0A
#641
1'
16
b00000000 (
1A
#646
0%
06
07
0A
#651
16
b00000001 (
1A
#656
06
0A
#661
16
b00000010 (
1A
#666
06
0A
#671
16
b00000011 (
1A
#676
06
0A
#681
16
b00000100 (
1A
#686
06
0A
#691
16
b00000101 (
1A
#696
06
0A
#701
16
b00000110 (
1A
#706
06
0A
#711
16
b00000111 (
1A
#716
06
0A
#721
16
b00001000 (
1A
#726
1%
06
17
0A
#731
b0000000100000000 #
16
b00001001 (
1A
#736
06
0A
#741
b0000001100000000 #
16
b00001010 (
1A
#746
06
0A
#751
b0000011100000000 #
16
b00001011 (
1A
#756
06
0A
#761
b0000111100000000 #
16
b00001100 (
1A
#766
06
0A
#771
b0001111100000000 #
16
b00001101 (
1A
#776
06
0A
#781
b0011111100000000 #
16
b00001110 (
1A
#786
06
0A
#791
b0111111100000000 #
16
b00001111 (
1A
#796
06
0A
#801
b0111111100000000 ?
1.
b0000000000000000 #
16
b00000000 (
1A
#806
0%
06
07
0A
#811
16
b00000001 (
1A
b00000001 )
#816
06
0A
#821
16
b00000010 (
1A
b00000010 )
#826
06
0A
#831
16
b00000011 (
1A
b00000011 )
#836
06
0A
#841
16
b00000100 (
1A
b00000100 )
#846
06
0A
#851
16
b00000101 (
1A
b00000101 )
#856
06
0A
#861
16
b00000110 (
1A
b00000110 )
#866
06
0A
#871
16
b00000111 (
1A
b00000111 )
#876
06
0A
#881
16
b00001000 (
1A
b00001000 )
#886
1%
06
17
0A
#891
13
1-
14
11
b0000000100000000 #
16
b00001001 (
1A
b00001001 )
#896
06
0A
#901
b0000001100000000 #
16
b00001010 (
1A
b00001010 )
#906
06
0A
#911
b0000011100000000 #
16
b00001011 (
1A
b00001011 )
#916
06
0A
#921
b0000111100000000 #
16
b00001100 (
1A
b00001100 )
#926
06
0A
#931
b0001111100000000 #
16
b00001101 (
1A
b00001101 )
#936
06
0A
#941
b0011111100000000 #
16
b00001110 (
1A
b00001110 )
#946
06
0A
#951
b0111111100000000 #
16
b00001111 (
1A
b00001111 )
#956
06
0A
#961
1!
03
0-
04
01
1@
b0000000000000000 #
1*
16
b00000000 (
1A
b00000000 )
#966
0%
06
07
0A
#971
16
b00000001 (
1A
b00000001 )
#976
06
0A
#981
16
b00000010 (
1A
b00000010 )
#986
06
0A
#991
16
b00000011 (
1A
b00000011 )
#996
06
0A
#1001
16
b00000100 (
1A
b00000100 )
#1006
06
0A
#1011
16
b00000101 (
1A
b00000101 )
#1016
06
0A
#1021
16
b00000110 (
1A
b00000110 )
#1026
06
0A
#1031
16
b00000111 (
1A
b00000111 )
#1036
06
0A
#1041
16
b00001000 (
1A
b00001000 )
#1046
1%
06
17
0A
#1051
13
1-
14
11
b0000000100000000 #
16
b00001001 (
1A
b00001001 )
#1056
06
0A
#1061
b0000001100000000 #
16
b00001010 (
1A
b00001010 )
#1066
06
0A
#1071
b0000011100000000 #
16
b00001011 (
1A
b00001011 )
#1076
06
0A
#1081
b0000111100000000 #
16
b00001100 (
1A
b00001100 )
#1086
06
0A
#1091
b0001111100000000 #
16
b00001101 (
1A
b00001101 )
#1096
06
0A
#1101
b0011111100000000 #
16
b00001110 (
1A
b00001110 )
#1106
06
0A
#1111
b0111111100000000 #
16
b00001111 (
1A
b00001111 )
#1116
06
0A
#1121
03
0-
04
01
b0000000000000000 #
16
b00000000 (
1A
b00000000 )
#1126
0%
06
07
0A
#1131
16
b00000001 (
1A
b00000001 )
#1136
06
0A
#1141
16
b00000010 (
1A
b00000010 )
#1146
06
0A
#1151
16
b00000011 (
1A
b00000011 )
#1156
06
0A
#1161
16
b00000100 (
1A
b00000100 )
#1166
06
0A
#1171
16
b00000101 (
1A
b00000101 )
#1176
06
0A
#1181
16
b00000110 (
1A
b00000110 )
#1186
06
0A
#1191
16
b00000111 (
1A
b00000111 )
#1196
06
0A
#1201
16
b00001000 (
1A
b00001000 )
#1206
1%
06
17
0A
#1211
13
1-
14
11
b0000000100000000 #
16
b00001001 (
1A
b00001001 )
#1216
06
0A
#1221
b0000001100000000 #
16
b00001010 (
1A
b00001010 )
#1226
06
0A
#1231
b0000011100000000 #
16
b00001011 (
1A
b00001011 )
#1236
06
0A
#1241
b0000111100000000 #
16
b00001100 (
1A
b00001100 )
#1246
06
0A
#1251
b0001111100000000 #
16
b00001101 (
1A
b00001101 )
#1256
06
0A
#1261
b0011111100000000 #
16
b00001110 (
1A
b00001110 )
#1266
06
0A
#1271
b0111111100000000 #
16
b00001111 (
1A
b00001111 )
#1276
06
0A
#1281
03
0-
04
01
b0000000000000000 #
16
b00000000 (
1A
b00000000 )
#1286
0%
06
07
0A
#1291
16
b00000001 (
1A
b00000001 )
#1296
06
0A
#1301
16
b00000010 (
1A
b00000010 )
#1306
06
0A
#1311
16
b00000011 (
1A
b00000011 )
#1316
06
0A
#1321
16
b00000100 (
1A
b00000100 )
#1326
06
0A
#1331
16
b00000101 (
1A
b00000101 )
#1336
06
0A
#1341
16
b00000110 (
1A
b00000110 )
#1346
06
0A
#1351
16
b00000111 (
1A
b00000111 )
#1356
06
0A
#1361
16
b00001000 (
1A
b00001000 )
#1366
06
0A
#1371
13
1-
14
11
16
b00001001 (
1A
b00001001 )
#1376
06
0A
#1381
16
b00001010 (
1A
b00001010 )
#1386
06
0A
#1391
16
b00001011 (
1A
b00001011 )
#1396
06
0A
#1401
16
b00001100 (
1A
b00001100 )
#1406
06
0A
#1411
16
b00001101 (
1A
b00001101 )
#1416
06
0A
#1421
16
b00001110 (
1A
b00001110 )
#1426
06
0A
#1431
16
b00001111 (
1A
b00001111 )
#1436
06
0A
#1441
0!
03
0-
04
01
0@
0*
16
b00000000 (
1A
b00000000 )
#1446
1%
06
17
0A
#1451
b0000000000000001 #
16
b00000001 (
1A
b00000001 )
#1456
06
0A
#1461
b0000000000000011 #
16
b00000010 (
1A
b00000010 )
#1466
06
0A
#1471
b0000000000000111 #
16
b00000011 (
1A
b00000011 )
#1476
06
0A
#1481
b0000000000001111 #
16
b00000100 (
1A
b00000100 )
#1486
06
0A
#1491
b0000000000011111 #
16
b00000101 (
1A
b00000101 )
#1496
06
0A
#1501
b0000000000111111 #
16
b00000110 (
1A
b00000110 )
#1506
06
0A
#1511
b0000000001111111 #
16
b00000111 (
1A
b00000111 )
#1516
06
0A
#1521
b0000000011111111 #
16
b00001000 (
1A
b00001000 )
#1526
06
0A
#1531
13
1-
14
11
b0000000111111111 #
16
b00001001 (
1A
b00001001 )
#1536
06
0A
#1541
b0000001111111111 #
16
b00001010 (
1A
b00001010 )
#1546
06
0A
#1551
b0000011111111111 #
16
b00001011 (
1A
b00001011 )
#1556
06
0A
#1561
b0000111111111111 #
16
b00001100 (
1A
b00001100 )
#1566
06
0A
#1571
b0001111111111111 #
16
b00001101 (
1A
b00001101 )
#1576
06
0A
#1581
b0011111111111111 #
16
b00001110 (
1A
b00001110 )
#1586
06
0A
#1591
b0111111111111111 #
16
b00001111 (
1A
b00001111 )
#1596
06
0A
#1601
03
0-
04
01
b0000000000000000 #
16
b00000000 (
1A
b00000000 )
#1606
0%
06
07
0A
#1611
16
b00000001 (
1A
b00000001 )
#1616
06
0A
#1621
16
b00000010 (
1A
b00000010 )
#1626
06
0A
#1631
16
b00000011 (
1A
b00000011 )
#1636
06
0A
#1641
16
b00000100 (
1A
b00000100 )
#1646
06
0A
#1651
16
b00000101 (
1A
b00000101 )
#1656
06
0A
#1661
16
b00000110 (
1A
b00000110 )
#1666
06
0A
#1671
16
b00000111 (
1A
b00000111 )
#1676
06
0A
#1681
16
b00001000 (
1A
b00001000 )
#1686
06
0A
#1691
13
1-
14
11
16
b00001001 (
1A
b00001001 )
#1696
06
0A
#1701
16
b00001010 (
1A
b00001010 )
#1706
06
0A
#1711
16
b00001011 (
1A
b00001011 )
#1716
06
0A
#1721
16
b00001100 (
1A
b00001100 )
#1726
06
0A
#1731
16
b00001101 (
1A
b00001101 )
#1736
06
0A
#1741
16
b00001110 (
1A
b00001110 )
#1746
06
0A
#1751
16
b00001111 (
1A
b00001111 )
#1756
06
0A
#1761
03
0-
04
01
16
b00000000 (
1A
b00000000 )
#1766
1%
06
17
0A
#1771
b0000000000000001 #
16
b00000001 (
1A
b00000001 )
#1776
06
0A
#1781
b0000000000000011 #
16
b00000010 (
1A
b00000010 )
#1786
06
0A
#1791
b0000000000000111 #
16
b00000011 (
1A
b00000011 )
#1796
06
0A
#1801
b0000000000001111 #
16
b00000100 (
1A
b00000100 )
#1806
06
0A
#1811
b0000000000011111 #
16
b00000101 (
1A
b00000101 )
#1816
06
0A
#1821
b0000000000111111 #
16
b00000110 (
1A
b00000110 )
#1826
06
0A
#1831
b0000000001111111 #
16
b00000111 (
1A
b00000111 )
#1836
06
0A
#1841
b0000000011111111 #
16
b00001000 (
1A
b00001000 )
#1846
06
0A
#1851
13
1-
14
11
b0000000111111111 #
16
b00001001 (
1A
b00001001 )
#1856
06
0A
#1861
b0000001111111111 #
16
b00001010 (
1A
b00001010 )
#1866
06
0A
#1871
b0000011111111111 #
16
b00001011 (
1A
b00001011 )
#1876
06
0A
#1881
b0000111111111111 #
16
b00001100 (
1A
b00001100 )
#1886
06
0A
#1891
b0001111111111111 #
16
b00001101 (
1A
b00001101 )
#1896
06
0A
#1901
b0011111111111111 #
16
b00001110 (
1A
b00001110 )
#1906
06
0A
#1911
b0111111111111111 #
16
b00001111 (
1A
b00001111 )
#1916
06
0A
#1921
03
0-
04
01
b0000000000000000 #
16
b00000000 (
1A
b00000000 )
#1926
0%
06
07
0A
#1931
16
b00000001 (
1A
b00000001 )
#1936
06
0A
#1941
16
b00000010 (
1A
b00000010 )
#1946
06
0A
#1951
16
b00000011 (
1A
b00000011 )
#1956
06
0A
#1961
16
b00000100 (
1A
b00000100 )
#1966
06
0A
#1971
16
b00000101 (
1A
b00000101 )
#1976
06
0A
#1981
16
b00000110 (
1A
b00000110 )
#1986
06
0A
#1991
16
b00000111 (
1A
b00000111 )
#1996
06
0A
#2001
16
b00001000 (
1A
b00001000 )
#2006
1%
06
17
0A
#2011
13
1-
14
11
b0000000100000000 #
16
b00001001 (
1A
b00001001 )
#2016
06
0A
#2021
b0000001100000000 #
16
b00001010 (
1A
b00001010 )
#2026
06
0A
#2031
b0000011100000000 #
16
b00001011 (
1A
b00001011 )
#2036
06
0A
#2041
b0000111100000000 #
16
b00001100 (
1A
b00001100 )
#2046
06
0A
#2051
b0001111100000000 #
16
b00001101 (
1A
b00001101 )
#2056
06
0A
#2061
b0011111100000000 #
16
b00001110 (
1A
b00001110 )
#2066
06
0A
#2071
b0111111100000000 #
16
b00001111 (
1A
b00001111 )
#2076
06
0A
#2081
1!
03
0-
04
01
1@
b0000000000000000 #
1*
16
b00000000 (
1A
b00000000 )
#2086
0%
06
07
0A
#2091
16
b00000001 (
1A
b00000001 )
#2096
06
0A
#2101
16
b00000010 (
1A
b00000010 )
#2106
06
0A
#2111
16
b00000011 (
1A
b00000011 )
#2116
06
0A
#2121
16
b00000100 (
1A
b00000100 )
#2126
06
0A
#2131
16
b00000101 (
1A
b00000101 )
#2136
06
0A
#2141
16
b00000110 (
1A
b00000110 )
#2146
06
0A
#2151
16
b00000111 (
1A
b00000111 )
#2156
06
0A
#2161
16
b00001000 (
1A
b00001000 )
#2166
1%
06
17
0A
#2171
13
1-
14
11
b0000000100000000 #
16
b00001001 (
1A
b00001001 )
#2176
06
0A
#2181
b0000001100000000 #
16
b00001010 (
1A
b00001010 )
#2186
06
0A
#2191
b0000011100000000 #
16
b00001011 (
1A
b00001011 )
#2196
06
0A
#2201
b0000111100000000 #
16
b00001100 (
1A
b00001100 )
#2206
06
0A
#2211
b0001111100000000 #
16
b00001101 (
1A
b00001101 )
#2216
06
0A
#2221
b0011111100000000 #
16
b00001110 (
1A
b00001110 )
#2226
06
0A
#2231
b0111111100000000 #
16
b00001111 (
1A
b00001111 )
#2236
06
0A
#2241
03
0-
04
01
b0000000000000000 #
16
b00000000 (
1A
b00000000 )
#2246
0%
06
07
0A
#2251
16
b00000001 (
1A
b00000001 )
#2256
06
0A
#2261
16
b00000010 (
1A
b00000010 )
#2266
06
0A
#2271
16
b00000011 (
1A
b00000011 )
#2276
06
0A
#2281
16
b00000100 (
1A
b00000100 )
#2286
06
0A
#2291
16
b00000101 (
1A
b00000101 )
#2296
06
0A
#2301
16
b00000110 (
1A
b00000110 )
#2306
06
0A
#2311
16
b00000111 (
1A
b00000111 )
#2316
06
0A
#2321
16
b00001000 (
1A
b00001000 )
#2326
1%
06
17
0A
#2331
13
1-
14
11
b0000000100000000 #
16
b00001001 (
1A
b00001001 )
#2336
06
0A
#2341
b0000001100000000 #
16
b00001010 (
1A
b00001010 )
#2346
06
0A
#2351
b0000011100000000 #
16
b00001011 (
1A
b00001011 )
#2356
06
0A
#2361
b0000111100000000 #
16
b00001100 (
1A
b00001100 )
#2366
06
0A
#2371
b0001111100000000 #
16
b00001101 (
1A
b00001101 )
#2376
06
0A
#2381
b0011111100000000 #
16
b00001110 (
1A
b00001110 )
#2386
06
0A
#2391
b0111111100000000 #
16
b00001111 (
1A
b00001111 )
#2396
06
0A
#2401
03
0-
04
01
b0000000000000000 #
16
b00000000 (
1A
b00000000 )
#2406
0%
06
07
0A
#2411
16
b00000001 (
1A
b00000001 )
#2416
06
0A
#2421
16
b00000010 (
1A
b00000010 )
#2426
06
0A
#2431
16
b00000011 (
1A
b00000011 )
#2436
06
0A
#2441
16
b00000100 (
1A
b00000100 )
#2446
06
0A
#2451
16
b00000101 (
1A
b00000101 )
#2456
06
0A
#2461
16
b00000110 (
1A
b00000110 )
#2466
06
0A
#2471
16
b00000111 (
1A
b00000111 )
#2476
06
0A
#2481
16
b00001000 (
1A
b00001000 )
#2486
1%
06
17
0A
#2491
13
1-
14
11
b0000000100000000 #
16
b00001001 (
1A
b00001001 )
#2496
06
0A
#2501
b0000001100000000 #
16
b00001010 (
1A
b00001010 )
#2506
06
0A
#2511
b0000011100000000 #
16
b00001011 (
1A
b00001011 )
#2516
06
0A
#2521
b0000111100000000 #
16
b00001100 (
1A
b00001100 )
#2526
06
0A
#2531
b0001111100000000 #
16
b00001101 (
1A
b00001101 )
#2536
06
0A
#2541
b0011111100000000 #
16
b00001110 (
1A
b00001110 )
#2546
06
0A
#2551
b0111111100000000 #
16
b00001111 (
1A
b00001111 )
#2556
06
0A
#2561
03
0-
04
01
b0000000000000000 #
16
b00000000 (
1A
b00000000 )
#2566
0%
06
07
0A
#2571
16
b00000001 (
1A
b00000001 )
#2576
06
0A
#2581
16
b00000010 (
1A
b00000010 )
#2586
06
0A
#2591
16
b00000011 (
1A
b00000011 )
#2596
06
0A
#2601
16
b00000100 (
1A
b00000100 )
#2606
06
0A
#2611
16
b00000101 (
1A
b00000101 )
#2616
06
0A
#2621
16
b00000110 (
1A
b00000110 )
#2626
06
0A
#2631
16
b00000111 (
1A
b00000111 )
#2636
06
0A
#2641
16
b00001000 (
1A
b00001000 )
#2646
1%
06
17
0A
#2651
13
1-
14
11
b0000000100000000 #
16
b00001001 (
1A
b00001001 )
#2656
06
0A
#2661
b0000001100000000 #
16
b00001010 (
1A
b00001010 )
#2666
06
0A
#2671
b0000011100000000 #
16
b00001011 (
1A
b00001011 )
#2676
06
0A
#2681
b0000111100000000 #
16
b00001100 (
1A
b00001100 )
#2686
06
0A
#2691
b0001111100000000 #
16
b00001101 (
1A
b00001101 )
#2696
06
0A
#2701
b0011111100000000 #
16
b00001110 (
1A
b00001110 )
#2706
06
0A
#2711
b0111111100000000 #
16
b00001111 (
1A
b00001111 )
#2716
06
0A
#2721
03
0-
04
01
b0000000000000000 #
16
b00000000 (
1A
b00000000 )
#2726
0%
06
07
0A
#2731
16
b00000001 (
1A
b00000001 )
#2736
06
0A
#2741
16
b00000010 (
1A
b00000010 )
#2746
06
0A
#2751
16
b00000011 (
1A
b00000011 )
#2756
06
0A
#2761
16
b00000100 (
1A
b00000100 )
#2766
06
0A
#2771
16
b00000101 (
1A
b00000101 )
#2776
06
0A
#2781
16
b00000110 (
1A
b00000110 )
#2786
06
0A
#2791
16
b00000111 (
1A
b00000111 )
#2796
06
0A
#2801
16
b00001000 (
1A
b00001000 )
#2806
1%
06
17
0A
#2811
13
1-
14
11
b0000000100000000 #
16
b00001001 (
1A
b00001001 )
#2816
06
0A
#2821
b0000001100000000 #
16
b00001010 (
1A
b00001010 )
#2826
06
0A
#2831
b0000011100000000 #
16
b00001011 (
1A
b00001011 )
#2836
06
0A
#2841
b0000111100000000 #
16
b00001100 (
1A
b00001100 )
#2846
06
0A
#2851
b0001111100000000 #
16
b00001101 (
1A
b00001101 )
#2856
06
0A
#2861
b0011111100000000 #
16
b00001110 (
1A
b00001110 )
#2866
06
0A
#2871
b0111111100000000 #
16
b00001111 (
1A
b00001111 )
#2876
06
0A
#2881
03
0-
04
01
b0000000000000000 #
16
b00000000 (
1A
b00000000 )
#2886
0%
06
07
0A
#2891
16
b00000001 (
1A
b00000001 )
#2896
06
0A
#2901
16
b00000010 (
1A
b00000010 )
#2906
06
0A
#2911
16
b00000011 (
1A
b00000011 )
#2916
06
0A
#2921
16
b00000100 (
1A
b00000100 )
#2926
06
0A
#2931
16
b00000101 (
1A
b00000101 )
#2936
06
0A
#2941
16
b00000110 (
1A
b00000110 )
#2946
06
0A
#2951
16
b00000111 (
1A
b00000111 )
#2956
06
0A
#2961
16
b00001000 (
1A
b00001000 )
#2966
1%
06
17
0A
#2971
13
1-
14
11
b0000000100000000 #
16
b00001001 (
1A
b00001001 )
#2976
06
0A
#2981
b0000001100000000 #
16
b00001010 (
1A
b00001010 )
#2986
06
0A
#2991
b0000011100000000 #
16
b00001011 (
1A
b00001011 )
#2996
06
0A
#3001
b0000111100000000 #
16
b00001100 (
1A
b00001100 )
#3006
06
0A
#3011
b0001111100000000 #
16
b00001101 (
1A
b00001101 )
#3016
06
0A
#3021
b0011111100000000 #
16
b00001110 (
1A
b00001110 )
#3026
06
0A
#3031
b0111111100000000 #
16
b00001111 (
1A
b00001111 )
#3036
06
0A
#3041
03
0-
04
01
b0000000000000000 #
16
b00000000 (
1A
b00000000 )
#3046
0%
06
07
0A
#3051
16
b00000001 (
1A
b00000001 )
#3056
06
0A
#3061
16
b00000010 (
1A
b00000010 )
#3066
06
0A
#3071
16
b00000011 (
1A
b00000011 )
#3076
06
0A
#3081
16
b00000100 (
1A
b00000100 )
#3086
06
0A
#3091
16
b00000101 (
1A
b00000101 )
#3096
06
0A
#3101
16
b00000110 (
1A
b00000110 )
#3106
06
0A
#3111
16
b00000111 (
1A
b00000111 )
#3116
06
0A
#3121
16
b00001000 (
1A
b00001000 )
#3126
1%
06
17
0A
#3131
13
1-
14
11
b0000000100000000 #
16
b00001001 (
1A
b00001001 )
#3136
06
0A
#3141
b0000001100000000 #
16
b00001010 (
1A
b00001010 )
#3146
06
0A
#3151
b0000011100000000 #
16
b00001011 (
1A
b00001011 )
#3156
06
0A
#3161
b0000111100000000 #
16
b00001100 (
1A
b00001100 )
#3166
06
0A
#3171
b0001111100000000 #
16
b00001101 (
1A
b00001101 )
#3176
06
0A
#3181
b0011111100000000 #
16
b00001110 (
1A
b00001110 )
#3186
06
0A
#3191
b0111111100000000 #
16
b00001111 (
1A
b00001111 )
#3196
06
0A
#3201
03
0-
04
01
b0000000000000000 #
16
b00000000 (
1A
b00000000 )
#3206
0%
06
07
0A
#3211
16
b00000001 (
1A
b00000001 )
#3216
06
0A
#3221
16
b00000010 (
1A
b00000010 )
#3226
06
0A
#3231
16
b00000011 (
1A
b00000011 )
#3236
06
0A
#3241
16
b00000100 (
1A
b00000100 )
#3246
06
0A
#3251
16
b00000101 (
1A
b00000101 )
#3256
06
0A
#3261
16
b00000110 (
1A
b00000110 )
#3266
06
0A
#3271
16
b00000111 (
1A
b00000111 )
#3276
06
0A
#3281
16
b00001000 (
1A
b00001000 )
#3286
1%
06
17
0A
#3291
13
1-
14
11
b0000000100000000 #
16
b00001001 (
1A
b00001001 )
#3296
06
0A
#3301
b0000001100000000 #
16
b00001010 (
1A
b00001010 )
#3306
06
0A
#3311
b0000011100000000 #
16
b00001011 (
1A
b00001011 )
#3316
06
0A
#3321
b0000111100000000 #
16
b00001100 (
1A
b00001100 )
#3326
06
0A
#3331
b0001111100000000 #
16
b00001101 (
1A
b00001101 )
#3336
06
0A
#3341
b0011111100000000 #
16
b00001110 (
1A
b00001110 )
#3346
06
0A
#3351
b0111111100000000 #
16
b00001111 (
1A
b00001111 )
#3356
06
0A
#3361
03
0-
04
01
b0000000000000000 #
16
b00000000 (
1A
b00000000 )
#3366
0%
06
07
0A
#3371
16
b00000001 (
1A
b00000001 )
#3376
06
0A
#3381
16
b00000010 (
1A
b00000010 )
#3386
06
0A
#3391
16
b00000011 (
1A
b00000011 )
#3396
06
0A
#3401
16
b00000100 (
1A
b00000100 )
#3406
06
0A
#3411
16
b00000101 (
1A
b00000101 )
#3416
06
0A
#3421
16
b00000110 (
1A
b00000110 )
#3426
06
0A
#3431
16
b00000111 (
1A
b00000111 )
#3436
06
0A
#3441
16
b00001000 (
1A
b00001000 )
#3446
1%
06
17
0A
#3451
13
1-
14
11
b0000000100000000 #
16
b00001001 (
1A
b00001001 )
#3456
06
0A
#3461
b0000001100000000 #
16
b00001010 (
1A
b00001010 )
#3466
06
0A
#3471
b0000011100000000 #
16
b00001011 (
1A
b00001011 )
#3476
06
0A
#3481
b0000111100000000 #
16
b00001100 (
1A
b00001100 )
#3486
06
0A
#3491
b0001111100000000 #
16
b00001101 (
1A
b00001101 )
#3496
06
0A
#3501
b0011111100000000 #
16
b00001110 (
1A
b00001110 )
#3506
06
0A
#3511
b0111111100000000 #
16
b00001111 (
1A
b00001111 )
#3516
06
0A
#3521
03
0-
04
01
b0000000000000000 #
16
b00000000 (
1A
b00000000 )
#3526
0%
06
07
0A
#3531
16
b00000001 (
1A
b00000001 )
#3536
06
0A
#3541
16
b00000010 (
1A
b00000010 )
#3546
06
0A
#3551
16
b00000011 (
1A
b00000011 )
#3556
06
0A
#3561
16
b00000100 (
1A
b00000100 )
#3566
06
0A
#3571
16
b00000101 (
1A
b00000101 )
#3576
06
0A
#3581
16
b00000110 (
1A
b00000110 )
#3586
06
0A
#3591
16
b00000111 (
1A
b00000111 )
#3596
06
0A
#3601
16
b00001000 (
1A
b00001000 )
#3606
1%
06
17
0A
#3611
13
1-
14
11
b0000000100000000 #
16
b00001001 (
1A
b00001001 )
#3616
06
0A
#3621
b0000001100000000 #
16
b00001010 (
1A
b00001010 )
#3626
06
0A
#3631
b0000011100000000 #
16
b00001011 (
1A
b00001011 )
#3636
06
0A
#3641
b0000111100000000 #
16
b00001100 (
1A
b00001100 )
#3646
06
0A
#3651
b0001111100000000 #
16
b00001101 (
1A
b00001101 )
#3656
06
0A
#3661
b0011111100000000 #
16
b00001110 (
1A
b00001110 )
#3666
06
0A
#3671
b0111111100000000 #
16
b00001111 (
1A
b00001111 )
#3676
06
0A
#3681
03
0-
04
01
b0000000000000000 #
16
b00000000 (
1A
b00000000 )
#3686
0%
06
07
0A
#3691
16
b00000001 (
1A
b00000001 )
#3696
06
0A
#3701
16
b00000010 (
1A
b00000010 )
#3706
06
0A
#3711
16
b00000011 (
1A
b00000011 )
#3716
06
0A
#3721
16
b00000100 (
1A
b00000100 )
#3726
06
0A
#3731
16
b00000101 (
1A
b00000101 )
#3736
06
0A
#3741
16
b00000110 (
1A
b00000110 )
#3746
06
0A
#3751
16
b00000111 (
1A
b00000111 )
#3756
06
0A
#3761
16
b00001000 (
1A
b00001000 )
#3766
1%
06
17
0A
#3771
13
1-
14
11
b0000000100000000 #
16
b00001001 (
1A
b00001001 )
#3776
06
0A
#3781
b0000001100000000 #
16
b00001010 (
1A
b00001010 )
#3786
06
0A
#3791
b0000011100000000 #
16
b00001011 (
1A
b00001011 )
#3796
06
0A
#3801
b0000111100000000 #
16
b00001100 (
1A
b00001100 )
#3806
06
0A
#3811
b0001111100000000 #
16
b00001101 (
1A
b00001101 )
#3816
06
0A
#3821
b0011111100000000 #
16
b00001110 (
1A
b00001110 )
#3826
06
0A
#3831
b0111111100000000 #
16
b00001111 (
1A
b00001111 )
#3836
06
0A
#3841
03
0-
04
01
b0000000000000000 #
16
b00000000 (
1A
b00000000 )
#3846
0%
06
07
0A
#3851
16
b00000001 (
1A
b00000001 )
#3856
06
0A
#3861
16
b00000010 (
1A
b00000010 )
#3866
06
0A
#3871
16
b00000011 (
1A
b00000011 )
#3876
06
0A
#3881
16
b00000100 (
1A
b00000100 )
#3886
06
0A
#3891
16
b00000101 (
1A
b00000101 )
#3896
06
0A
#3901
16
b00000110 (
1A
b00000110 )
#3906
06
0A
#3911
16
b00000111 (
1A
b00000111 )
#3916
06
0A
#3921
16
b00001000 (
1A
b00001000 )
#3926
1%
06
17
0A
#3931
13
1-
14
11
b0000000100000000 #
16
b00001001 (
1A
b00001001 )
#3936
06
0A
