Intervox_Reciever/test_run_dir/interVox_Reciever_should_pass/interVox_Reciever.vcd
$date
2022-11-26T16:34+0000
$end
$version
0.2
$end
$comment

$end
$timescale 1ns  $end
$scope module interVox_Reciever $end
 $var wire 1 & io_INTERVOX_IN $end
 $var wire 1 ) io_DATA_OUT $end
 $var wire 1 * io_CLK_REC $end
 $var wire 1 + pll $end
 $var wire 1 , io_DBUG $end
 $var wire 1 / io_NEXT_FRAME $end
 $var wire 1 3 clockRec $end
 $var wire 1 4 clock $end
 $var wire 1 7 io_DBUG1 $end
 $var wire 1 < reset $end
  $scope module clockRec $end
   $var wire 2 ! inBufr $end
   $var wire 1 " dataOut $end
   $var wire 1 # zeroClkFlp $end
   $var wire 1 $ io_DATA_OUT $end
   $var wire 1 % zeroPeriode $end
   $var wire 8 ' lastOne $end
   $var wire 8 ( clkCntr1 $end
   $var wire 1 - io_DBUG $end
   $var wire 1 . reset $end
   $var wire 1 2 io_CLK_OUT $end
   $var wire 2 5 clkCntr $end
   $var wire 1 6 io_DATA_IN $end
   $var wire 1 8 io_DBUG1 $end
   $var wire 1 9 clkRec $end
   $var wire 2 : whatChange $end
   $var wire 1 = change $end
   $var wire 1 > clock $end
  $upscope $end
  $scope module pll $end
   $var wire 1 0 locked $end
   $var wire 1 1 PLL_IN $end
   $var wire 1 ; PLL_MCLK $end
  $upscope $end
$upscope $end
$enddefinitions $end
$dumpvars
0%
0;
0&
0<
0=
0>
06
07
0"
08
0#
09
b00 :
02
03
b00000000 '
04
b00000000 (
b00 5
0-
b00 !
0.
0/
00
01
0)
0*
0+
0,
0$
$end
#0
1<
1.
#1
14
b00000111 '
1>
#6
0<
04
0.
0>
#11
14
b01 5
b01 :
b00000001 (
1>
#16
04
0>
#21
14
11
b00 5
12
19
b10 :
b00000010 (
1>
1,
#26
04
0>
#31
14
b01 5
b11 :
b00000011 (
1>
#36
04
0>
#41
14
b00 5
b00000100 (
1>
#46
04
0>
#51
14
b01 5
b00000101 (
1>
#56
04
0>
#61
14
b00 5
b00000110 (
1>
#66
04
0>
#71
14
b01 5
b00000111 (
1>
#76
04
0>
#81
14
b00 5
b00001000 (
1>
#86
04
0>
#91
14
b01 5
b00001001 (
1>
#96
04
0>
#101
1-
1%
14
01
1#
02
b00 5
09
b00001010 (
1/
1>
0,
#106
04
0>
#111
14
b01 5
b00001011 (
1>
#116
04
0>
#121
14
b00 5
b00001100 (
1>
#126
04
0>
#131
14
b01 5
b00001101 (
1>
#136
04
0>
#141
14
b00 5
b00001110 (
1>
#146
04
0>
#151
14
b01 5
b00001111 (
1>
#156
04
0>
#161
14
b00 5
b00010000 (
1>
#166
04
0>
#171
14
b01 5
b00010001 (
1>
#176
04
0>
#181
14
b00 5
b00010010 (
1>
#186
04
0>
#191
14
b01 5
b00010011 (
1>
#196
04
0>
#201
14
b00 5
b00010100 (
1>
#206
04
0>
#211
14
b01 5
b00010101 (
1>
#216
04
0>
#221
14
b00 5
b00010110 (
1>
#226
04
0>
#231
14
b01 5
b00010111 (
1>
#236
04
0>
#241
14
b00 5
b00011000 (
1>
#246
04
0>
#251
14
b01 5
b00011001 (
1>
#256
04
0>
#261
14
b00 5
b00011010 (
1>
#266
04
0>
#271
14
b01 5
b00011011 (
1>
#276
04
0>
#281
14
b00 5
b00011100 (
1>
#286
04
0>
#291
14
b01 5
b00011101 (
1>
#296
04
0>
#301
14
b00 5
b00011110 (
1>
#306
04
0>
#311
14
b01 5
b00011111 (
1>
#316
04
0>
#321
14
b00 5
b00100000 (
1>
#326
04
0>
#331
14
b01 5
b00100001 (
1>
#336
04
0>
#341
14
b00 5
b00100010 (
1>
#346
04
0>
#351
14
b01 5
b00100011 (
1>
#356
04
0>
#361
14
b00 5
b00100100 (
1>
#366
04
0>
#371
14
b01 5
b00100101 (
1>
#376
04
0>
#381
14
b00 5
b00100110 (
1>
#386
04
0>
#391
14
b01 5
b00100111 (
1>
#396
04
0>
#401
14
b00 5
b00101000 (
1>
#406
04
0>
#411
14
b01 5
b00101001 (
1>
#416
04
0>
#421
14
b00 5
b00101010 (
1>
#426
04
0>
#431
14
b01 5
b00101011 (
1>
#436
04
0>
#441
14
b00 5
b00101100 (
1>
#446
04
0>
#451
14
b01 5
b00101101 (
1>
#456
04
0>
#461
14
b00 5
b00101110 (
1>
#466
04
0>
#471
14
b01 5
b00101111 (
1>
#476
04
0>
#481
14
b00 5
b00110000 (
1>
#486
04
1&
16
0>
#491
b01 !
14
b01 5
b00110001 (
1>
#496
04
0>
#501
b10 !
14
18
b00 5
1=
b00000000 (
17
1>
#506
04
0>
#511
b11 !
14
b01 5
b10 :
b00000001 (
1>
#516
04
0>
#521
14
08
b00 5
0=
b01 :
07
b00000010 (
1>
#526
04
0>
#531
14
11
b01 5
12
19
b10 :
b00000011 (
1>
1,
#536
04
0>
#541
14
b00 5
b11 :
b00000100 (
1>
#546
04
0>
#551
14
b01 5
b00000101 (
1>
#556
04
0>
#561
14
b00 5
b00000110 (
1>
#566
04
0>
#571
14
b01 5
b00000111 (
1>
#576
04
0>
#581
14
b00 5
b00001000 (
1>
#586
04
0>
#591
14
b01 5
b00001001 (
1>
#596
04
0>
#601
14
01
b00 5
02
09
b00001010 (
1>
0,
#606
04
0>
#611
14
b01 5
b00001011 (
1>
#616
04
0>
#621
14
b00 5
b00001100 (
1>
#626
04
0>
#631
14
b01 5
b00001101 (
1>
#636
04
0>
#641
14
b00 5
b00001110 (
1>
#646
04
0&
06
0>
#651
b10 !
14
b01 5
b00001111 (
1>
#656
04
0>
#661
b01 !
14
18
b00 5
1=
b00000000 (
17
1>
#666
04
0>
#671
b00 !
14
b01 5
b10 :
b00000001 (
1>
#676
04
0>
#681
14
08
b00 5
0=
b01 :
07
b00000010 (
1>
#686
04
0>
#691
14
11
b01 5
12
19
b10 :
b00000011 (
1>
1,
#696
04
0>
#701
14
b00 5
b11 :
b00000100 (
1>
#706
04
0>
#711
14
b01 5
b00000101 (
1>
#716
04
0>
#721
14
b00 5
b00000110 (
1>
#726
04
1&
16
0>
#731
b01 !
14
b01 5
b00000111 (
1>
#736
04
0>
#741
0-
0%
14
b00 5
1=
b00000000 (
17
0/
1>
1)
b10 !
1"
18
0#
1$
#746
04
0>
#751
b11 !
14
b01 5
b10 :
b00000001 (
1>
#756
04
0>
#761
14
08
b00 5
0=
b01 :
07
b00000010 (
1>
#766
04
0>
#771
14
01
b01 5
02
09
b10 :
b00000011 (
1>
0,
#776
04
0>
#781
14
b00 5
b11 :
b00000100 (
1>
#786
04
0>
#791
14
b01 5
b00000101 (
1>
#796
04
0>
#801
14
b00 5
b00000110 (
1>
#806
04
0&
06
0>
#811
b10 !
14
b01 5
b00000111 (
1>
#816
04
0>
#821
b01 !
14
18
b00 5
1=
b00000000 (
17
1>
#826
04
0>
#831
b00 !
14
b01 5
b10 :
b00000001 (
1>
#836
04
0>
#841
14
08
b00 5
0=
b01 :
07
b00000010 (
1>
#846
04
0>
#851
14
11
b01 5
12
19
b10 :
b00000011 (
1>
1,
#856
04
0>
#861
14
b00 5
b11 :
b00000100 (
1>
#866
04
0>
#871
14
b01 5
b00000101 (
1>
#876
04
0>
#881
14
b00 5
b00000110 (
1>
#886
04
1&
16
0>
#891
b01 !
14
b01 5
b00000111 (
1>
#896
04
0>
#901
b10 !
14
18
b00 5
1=
b00000000 (
17
1>
#906
04
0>
#911
b11 !
14
b01 5
b10 :
b00000001 (
1>
#916
04
0>
#921
14
08
b00 5
0=
b01 :
07
b00000010 (
1>
#926
04
0>
#931
14
01
b01 5
02
09
b10 :
b00000011 (
1>
0,
#936
04
0>
#941
14
b00 5
b11 :
b00000100 (
1>
#946
04
0>
#951
14
b01 5
b00000101 (
1>
#956
04
0>
#961
14
b00 5
b00000110 (
1>
#966
04
0&
06
0>
#971
b10 !
14
b01 5
b00000111 (
1>
#976
04
0>
#981
b01 !
14
18
b00 5
1=
b00000000 (
17
1>
#986
04
0>
#991
b00 !
14
b01 5
b10 :
b00000001 (
1>
#996
04
0>
#1001
14
08
b00 5
0=
b01 :
07
b00000010 (
1>
#1006
04
0>
#1011
14
11
b01 5
12
19
b10 :
b00000011 (
1>
1,
#1016
04
0>
#1021
14
b00 5
b11 :
b00000100 (
1>
#1026
04
0>
#1031
14
b01 5
b00000101 (
1>
#1036
04
0>
#1041
14
b00 5
b00000110 (
1>
#1046
04
1&
16
0>
#1051
b01 !
14
b01 5
b00000111 (
1>
#1056
04
0>
#1061
b10 !
14
18
b00 5
1=
b00000000 (
17
1>
#1066
04
0>
#1071
b11 !
14
b01 5
b10 :
b00000001 (
1>
#1076
04
0>
#1081
14
08
b00 5
0=
b01 :
07
b00000010 (
1>
#1086
04
0>
#1091
14
01
b01 5
02
09
b10 :
b00000011 (
1>
0,
#1096
04
0>
#1101
14
b00 5
b11 :
b00000100 (
1>
#1106
04
0>
#1111
14
b01 5
b00000101 (
1>
#1116
04
0>
#1121
14
b00 5
b00000110 (
1>
#1126
04
0&
06
0>
#1131
b10 !
14
b01 5
b00000111 (
1>
#1136
04
0>
#1141
b01 !
14
18
b00 5
1=
b00000000 (
17
1>
#1146
04
0>
#1151
b00 !
14
b01 5
b10 :
b00000001 (
1>
#1156
04
0>
#1161
14
08
b00 5
0=
b01 :
07
b00000010 (
1>
#1166
04
0>
#1171
14
11
b01 5
12
19
b10 :
b00000011 (
1>
1,
#1176
04
0>
#1181
14
b00 5
b11 :
b00000100 (
1>
#1186
04
0>
#1191
14
b01 5
b00000101 (
1>
#1196
04
0>
#1201
14
b00 5
b00000110 (
1>
#1206
04
1&
16
0>
#1211
b01 !
14
b01 5
b00000111 (
1>
#1216
04
0>
#1221
b10 !
14
18
b00 5
1=
b00000000 (
17
1>
#1226
04
0>
#1231
b11 !
14
b01 5
b10 :
b00000001 (
1>
#1236
04
0>
#1241
14
08
b00 5
0=
b01 :
07
b00000010 (
1>
#1246
04
0>
#1251
14
01
b01 5
02
09
b10 :
b00000011 (
1>
0,
#1256
04
0>
#1261
14
b00 5
b11 :
b00000100 (
1>
#1266
04
0>
#1271
14
b01 5
b00000101 (
1>
#1276
04
0>
#1281
14
b00 5
b00000110 (
1>
#1286
04
0&
06
0>
#1291
b10 !
14
b01 5
b00000111 (
1>
#1296
04
0>
#1301
b01 !
14
18
b00 5
1=
b00000000 (
17
1>
#1306
04
0>
#1311
b00 !
14
b01 5
b10 :
b00000001 (
1>
#1316
04
0>
#1321
14
08
b00 5
0=
b01 :
07
b00000010 (
1>
#1326
04
0>
#1331
14
11
b01 5
12
19
b10 :
b00000011 (
1>
1,
#1336
04
0>
#1341
14
b00 5
b11 :
b00000100 (
1>
#1346
04
0>
#1351
14
b01 5
b00000101 (
1>
#1356
04
0>
#1361
14
b00 5
b00000110 (
1>
#1366
04
0>
#1371
14
b01 5
b00000111 (
1>
#1376
04
0>
#1381
14
b00 5
b00001000 (
1>
#1386
04
0>
#1391
14
b01 5
b00001001 (
1>
#1396
04
0>
#1401
1-
1%
14
b00 5
b00001010 (
1/
1>
0)
0"
01
1#
02
09
0$
0,
#1406
04
0>
#1411
14
b01 5
b00001011 (
1>
#1416
04
0>
#1421
14
b00 5
b00001100 (
1>
#1426
04
0>
#1431
14
b01 5
b00001101 (
1>
#1436
04
0>
#1441
14
b00 5
b00001110 (
1>
#1446
04
1&
16
0>
#1451
b01 !
14
b01 5
b00001111 (
1>
#1456
04
0>
#1461
b10 !
14
18
b00 5
1=
b00000000 (
17
1>
#1466
04
0>
#1471
b11 !
14
b01 5
b10 :
b00000001 (
1>
#1476
04
0>
#1481
14
08
b00 5
0=
b01 :
07
b00000010 (
1>
#1486
04
0>
#1491
14
11
b01 5
12
19
b10 :
b00000011 (
1>
1,
#1496
04
0>
#1501
14
b00 5
b11 :
b00000100 (
1>
#1506
04
0>
#1511
14
b01 5
b00000101 (
1>
#1516
04
0>
#1521
14
b00 5
b00000110 (
1>
#1526
04
0>
#1531
14
b01 5
b00000111 (
1>
#1536
04
0>
#1541
14
b00 5
b00001000 (
1>
#1546
04
0>
#1551
14
b01 5
b00001001 (
1>
#1556
04
0>
#1561
14
01
b00 5
02
09
b00001010 (
1>
0,
#1566
04
0>
#1571
14
b01 5
b00001011 (
1>
#1576
04
0>
#1581
14
b00 5
b00001100 (
1>
#1586
04
0>
#1591
14
b01 5
b00001101 (
1>
#1596
04
0>
#1601
14
b00 5
b00001110 (
1>
#1606
04
0&
06
0>
#1611
b10 !
14
b01 5
b00001111 (
1>
#1616
04
0>
#1621
b01 !
14
18
b00 5
1=
b00000000 (
17
1>
#1626
04
0>
#1631
b00 !
14
b01 5
b10 :
b00000001 (
1>
#1636
04
0>
#1641
14
08
b00 5
0=
b01 :
07
b00000010 (
1>
#1646
04
0>
#1651
14
11
b01 5
12
19
b10 :
b00000011 (
1>
1,
#1656
04
0>
#1661
14
b00 5
b11 :
b00000100 (
1>
#1666
04
0>
#1671
14
b01 5
b00000101 (
1>
#1676
04
0>
#1681
14
b00 5
b00000110 (
1>
#1686
04
0>
#1691
14
b01 5
b00000111 (
1>
#1696
04
0>
#1701
14
b00 5
b00001000 (
1>
#1706
04
0>
#1711
14
b01 5
b00001001 (
1>
#1716
04
0>
#1721
14
01
b00 5
02
09
b00001010 (
1>
0,
#1726
04
0>
#1731
14
b01 5
b00001011 (
1>
#1736
04
0>
#1741
14
b00 5
b00001100 (
1>
#1746
04
0>
#1751
14
b01 5
b00001101 (
1>
#1756
04
0>
#1761
14
b00 5
b00001110 (
1>
#1766
04
1&
16
0>
#1771
b01 !
14
b01 5
b00001111 (
1>
#1776
04
0>
#1781
b10 !
14
18
b00 5
1=
b00000000 (
17
1>
#1786
04
0>
#1791
b11 !
14
b01 5
b10 :
b00000001 (
1>
#1796
04
0>
#1801
14
08
b00 5
0=
b01 :
07
b00000010 (
1>
#1806
04
0>
#1811
14
11
b01 5
12
19
b10 :
b00000011 (
1>
1,
#1816
04
0>
#1821
14
b00 5
b11 :
b00000100 (
1>
#1826
04
0>
#1831
14
b01 5
b00000101 (
1>
#1836
04
0>
#1841
14
b00 5
b00000110 (
1>
#1846
04
0>
#1851
14
b01 5
b00000111 (
1>
#1856
04
0>
#1861
14
b00 5
b00001000 (
1>
#1866
04
0>
#1871
14
b01 5
b00001001 (
1>
#1876
04
0>
#1881
14
01
b00 5
02
09
b00001010 (
1>
0,
#1886
04
0>
#1891
14
b01 5
b00001011 (
1>
#1896
04
0>
#1901
14
b00 5
b00001100 (
1>
#1906
04
0>
#1911
14
b01 5
b00001101 (
1>
#1916
04
0>
#1921
14
b00 5
b00001110 (
1>
#1926
04
0&
06
0>
#1931
b10 !
14
b01 5
b00001111 (
1>
#1936
04
0>
#1941
b01 !
14
18
b00 5
1=
b00000000 (
17
1>
#1946
04
0>
#1951
b00 !
14
b01 5
b10 :
b00000001 (
1>
#1956
04
0>
#1961
14
08
b00 5
0=
b01 :
07
b00000010 (
1>
#1966
04
0>
#1971
14
11
b01 5
12
19
b10 :
b00000011 (
1>
1,
#1976
04
0>
#1981
14
b00 5
b11 :
b00000100 (
1>
#1986
04
0>
#1991
14
b01 5
b00000101 (
1>
#1996
04
0>
#2001
14
b00 5
b00000110 (
1>
#2006
04
1&
16
0>
#2011
b01 !
14
b01 5
b00000111 (
1>
#2016
04
0>
#2021
0-
0%
14
b00 5
1=
b00000000 (
17
0/
1>
1)
b10 !
1"
18
0#
1$
#2026
04
0>
#2031
b11 !
14
b01 5
b10 :
b00000001 (
1>
#2036
04
0>
#2041
14
08
b00 5
0=
b01 :
07
b00000010 (
1>
#2046
04
0>
#2051
14
01
b01 5
02
09
b10 :
b00000011 (
1>
0,
#2056
04
0>
#2061
14
b00 5
b11 :
b00000100 (
1>
#2066
04
0>
#2071
14
b01 5
b00000101 (
1>
#2076
04
0>
#2081
14
b00 5
b00000110 (
1>
#2086
04
0&
06
0>
#2091
b10 !
14
b01 5
b00000111 (
1>
#2096
04
0>
#2101
b01 !
14
18
b00 5
1=
b00000000 (
17
1>
#2106
04
0>
#2111
b00 !
14
b01 5
b10 :
b00000001 (
1>
#2116
04
0>
#2121
14
08
b00 5
0=
b01 :
07
b00000010 (
1>
#2126
04
0>
#2131
14
11
b01 5
12
19
b10 :
b00000011 (
1>
1,
#2136
04
0>
#2141
14
b00 5
b11 :
b00000100 (
1>
#2146
04
0>
#2151
14
b01 5
b00000101 (
1>
#2156
04
0>
#2161
14
b00 5
b00000110 (
1>
#2166
04
1&
16
0>
#2171
b01 !
14
b01 5
b00000111 (
1>
#2176
04
0>
#2181
b10 !
14
18
b00 5
1=
b00000000 (
17
1>
#2186
04
0>
#2191
b11 !
14
b01 5
b10 :
b00000001 (
1>
#2196
04
0>
#2201
14
08
b00 5
0=
b01 :
07
b00000010 (
1>
#2206
04
0>
#2211
14
01
b01 5
02
09
b10 :
b00000011 (
1>
0,
#2216
04
0>
#2221
14
b00 5
b11 :
b00000100 (
1>
#2226
04
0>
#2231
14
b01 5
b00000101 (
1>
#2236
04
0>
#2241
14
b00 5
b00000110 (
1>
#2246
04
0&
06
0>
#2251
b10 !
14
b01 5
b00000111 (
1>
#2256
04
0>
#2261
b01 !
14
18
b00 5
1=
b00000000 (
17
1>
#2266
04
0>
#2271
b00 !
14
b01 5
b10 :
b00000001 (
1>
#2276
04
0>
#2281
14
08
b00 5
0=
b01 :
07
b00000010 (
1>
#2286
04
0>
#2291
14
11
b01 5
12
19
b10 :
b00000011 (
1>
1,
#2296
04
0>
#2301
14
b00 5
b11 :
b00000100 (
1>
#2306
04
0>
#2311
14
b01 5
b00000101 (
1>
#2316
04
0>
#2321
14
b00 5
b00000110 (
1>
#2326
04
1&
16
0>
#2331
b01 !
14
b01 5
b00000111 (
1>
#2336
04
0>
#2341
b10 !
14
18
b00 5
1=
b00000000 (
17
1>
#2346
04
0>
#2351
b11 !
14
b01 5
b10 :
b00000001 (
1>
#2356
04
0>
#2361
14
08
b00 5
0=
b01 :
07
b00000010 (
1>
#2366
04
0>
#2371
14
01
b01 5
02
09
b10 :
b00000011 (
1>
0,
#2376
04
0>
#2381
14
b00 5
b11 :
b00000100 (
1>
#2386
04
0>
#2391
14
b01 5
b00000101 (
1>
#2396
04
0>
#2401
14
b00 5
b00000110 (
1>
#2406
04
0&
06
0>
#2411
b10 !
14
b01 5
b00000111 (
1>
#2416
04
0>
#2421
b01 !
14
18
b00 5
1=
b00000000 (
17
1>
#2426
04
0>
#2431
b00 !
14
b01 5
b10 :
b00000001 (
1>
#2436
04
0>
#2441
14
08
b00 5
0=
b01 :
07
b00000010 (
1>
#2446
04
0>
#2451
14
11
b01 5
12
19
b10 :
b00000011 (
1>
1,
#2456
04
0>
#2461
14
b00 5
b11 :
b00000100 (
1>
#2466
04
0>
#2471
14
b01 5
b00000101 (
1>
#2476
04
0>
#2481
14
b00 5
b00000110 (
1>
#2486
04
1&
16
0>
#2491
b01 !
14
b01 5
b00000111 (
1>
#2496
04
0>
#2501
b10 !
14
18
b00 5
1=
b00000000 (
17
1>
#2506
04
0>
#2511
b11 !
14
b01 5
b10 :
b00000001 (
1>
#2516
04
0>
#2521
14
08
b00 5
0=
b01 :
07
b00000010 (
1>
#2526
04
0>
#2531
14
01
b01 5
02
09
b10 :
b00000011 (
1>
0,
#2536
04
0>
#2541
14
b00 5
b11 :
b00000100 (
1>
#2546
04
0>
#2551
14
b01 5
b00000101 (
1>
#2556
04
0>
#2561
14
b00 5
b00000110 (
1>
#2566
04
0&
06
0>
#2571
b10 !
14
b01 5
b00000111 (
1>
#2576
04
0>
#2581
b01 !
14
18
b00 5
1=
b00000000 (
17
1>
#2586
04
0>
#2591
b00 !
14
b01 5
b10 :
b00000001 (
1>
#2596
04
0>
#2601
14
08
b00 5
0=
b01 :
07
b00000010 (
1>
#2606
04
0>
#2611
14
11
b01 5
12
19
b10 :
b00000011 (
1>
1,
#2616
04
0>
#2621
14
b00 5
b11 :
b00000100 (
1>
#2626
04
0>
#2631
14
b01 5
b00000101 (
1>
#2636
04
0>
#2641
14
b00 5
b00000110 (
1>
#2646
04
1&
16
0>
#2651
b01 !
14
b01 5
b00000111 (
1>
#2656
04
0>
#2661
b10 !
14
18
b00 5
1=
b00000000 (
17
1>
#2666
04
0>
#2671
b11 !
14
b01 5
b10 :
b00000001 (
1>
#2676
04
0>
#2681
14
08
b00 5
0=
b01 :
07
b00000010 (
1>
#2686
04
0>
#2691
14
01
b01 5
02
09
b10 :
b00000011 (
1>
0,
#2696
04
0>
#2701
14
b00 5
b11 :
b00000100 (
1>
#2706
04
0>
#2711
14
b01 5
b00000101 (
1>
#2716
04
0>
#2721
14
b00 5
b00000110 (
1>
#2726
04
0&
06
0>
#2731
b10 !
14
b01 5
b00000111 (
1>
#2736
04
0>
#2741
b01 !
14
18
b00 5
1=
b00000000 (
17
1>
#2746
04
0>
#2751
b00 !
14
b01 5
b10 :
b00000001 (
1>
#2756
04
0>
#2761
14
08
b00 5
0=
b01 :
07
b00000010 (
1>
#2766
04
0>
#2771
14
11
b01 5
12
19
b10 :
b00000011 (
1>
1,
#2776
04
0>
#2781
14
b00 5
b11 :
b00000100 (
1>
#2786
04
0>
#2791
14
b01 5
b00000101 (
1>
#2796
04
0>
#2801
14
b00 5
b00000110 (
1>
#2806
04
1&
16
0>
#2811
b01 !
14
b01 5
b00000111 (
1>
#2816
04
0>
#2821
b10 !
14
18
b00 5
1=
b00000000 (
17
1>
#2826
04
0>
#2831
b11 !
14
b01 5
b10 :
b00000001 (
1>
#2836
04
0>
#2841
14
08
b00 5
0=
b01 :
07
b00000010 (
1>
#2846
04
0>
#2851
14
01
b01 5
02
09
b10 :
b00000011 (
1>
0,
#2856
04
0>
#2861
14
b00 5
b11 :
b00000100 (
1>
#2866
04
0>
#2871
14
b01 5
b00000101 (
1>
#2876
04
0>
#2881
14
b00 5
b00000110 (
1>
#2886
04
0&
06
0>
#2891
b10 !
14
b01 5
b00000111 (
1>
#2896
04
0>
#2901
b01 !
14
18
b00 5
1=
b00000000 (
17
1>
#2906
04
0>
#2911
b00 !
14
b01 5
b10 :
b00000001 (
1>
#2916
04
0>
#2921
14
08
b00 5
0=
b01 :
07
b00000010 (
1>
#2926
04
0>
#2931
14
11
b01 5
12
19
b10 :
b00000011 (
1>
1,
#2936
04
0>
#2941
14
b00 5
b11 :
b00000100 (
1>
#2946
04
0>
#2951
14
b01 5
b00000101 (
1>
#2956
04
0>
#2961
14
b00 5
b00000110 (
1>
#2966
04
1&
16
0>
#2971
b01 !
14
b01 5
b00000111 (
1>
#2976
04
0>
#2981
b10 !
14
18
b00 5
1=
b00000000 (
17
1>
#2986
04
0>
#2991
b11 !
14
b01 5
b10 :
b00000001 (
1>
#2996
04
0>
#3001
14
08
b00 5
0=
b01 :
07
b00000010 (
1>
#3006
04
0>
#3011
14
01
b01 5
02
09
b10 :
b00000011 (
1>
0,
#3016
04
0>
#3021
14
b00 5
b11 :
b00000100 (
1>
#3026
04
0>
#3031
14
b01 5
b00000101 (
1>
#3036
04
0>
#3041
14
b00 5
b00000110 (
1>
#3046
04
0&
06
0>
#3051
b10 !
14
b01 5
b00000111 (
1>
#3056
04
0>
#3061
b01 !
14
18
b00 5
1=
b00000000 (
17
1>
#3066
04
0>
#3071
b00 !
14
b01 5
b10 :
b00000001 (
1>
#3076
04
0>
#3081
14
08
b00 5
0=
b01 :
07
b00000010 (
1>
#3086
04
0>
#3091
14
11
b01 5
12
19
b10 :
b00000011 (
1>
1,
#3096
04
0>
#3101
14
b00 5
b11 :
b00000100 (
1>
#3106
04
0>
#3111
14
b01 5
b00000101 (
1>
#3116
04
0>
#3121
14
b00 5
b00000110 (
1>
#3126
04
1&
16
0>
#3131
b01 !
14
b01 5
b00000111 (
1>
#3136
04
0>
#3141
b10 !
14
18
b00 5
1=
b00000000 (
17
1>
#3146
04
0>
#3151
b11 !
14
b01 5
b10 :
b00000001 (
1>
#3156
04
0>
#3161
14
08
b00 5
0=
b01 :
07
b00000010 (
1>
#3166
04
0>
#3171
14
01
b01 5
02
09
b10 :
b00000011 (
1>
0,
#3176
04
0>
#3181
14
b00 5
b11 :
b00000100 (
1>
#3186
04
0>
#3191
14
b01 5
b00000101 (
1>
#3196
04
0>
#3201
14
b00 5
b00000110 (
1>
#3206
04
0&
06
0>
#3211
b10 !
14
b01 5
b00000111 (
1>
#3216
04
0>
#3221
b01 !
14
18
b00 5
1=
b00000000 (
17
1>
#3226
04
0>
#3231
b00 !
14
b01 5
b10 :
b00000001 (
1>
#3236
04
0>
#3241
14
08
b00 5
0=
b01 :
07
b00000010 (
1>
#3246
04
0>
#3251
14
11
b01 5
12
19
b10 :
b00000011 (
1>
1,
#3256
04
0>
#3261
14
b00 5
b11 :
b00000100 (
1>
#3266
04
0>
#3271
14
b01 5
b00000101 (
1>
#3276
04
0>
#3281
14
b00 5
b00000110 (
1>
#3286
04
1&
16
0>
#3291
b01 !
14
b01 5
b00000111 (
1>
#3296
04
0>
#3301
b10 !
14
18
b00 5
1=
b00000000 (
17
1>
#3306
04
0>
#3311
b11 !
14
b01 5
b10 :
b00000001 (
1>
#3316
04
0>
#3321
14
08
b00 5
0=
b01 :
07
b00000010 (
1>
#3326
04
0>
#3331
14
01
b01 5
02
09
b10 :
b00000011 (
1>
0,
#3336
04
0>
#3341
14
b00 5
b11 :
b00000100 (
1>
#3346
04
0>
#3351
14
b01 5
b00000101 (
1>
#3356
04
0>
#3361
14
b00 5
b00000110 (
1>
#3366
04
0&
06
0>
#3371
b10 !
14
b01 5
b00000111 (
1>
#3376
04
0>
#3381
b01 !
14
18
b00 5
1=
b00000000 (
17
1>
#3386
04
0>
#3391
b00 !
14
b01 5
b10 :
b00000001 (
1>
#3396
04
0>
#3401
14
08
b00 5
0=
b01 :
07
b00000010 (
1>
#3406
04
0>
#3411
14
11
b01 5
12
19
b10 :
b00000011 (
1>
1,
#3416
04
0>
#3421
14
b00 5
b11 :
b00000100 (
1>
#3426
04
0>
#3431
14
b01 5
b00000101 (
1>
#3436
04
0>
#3441
14
b00 5
b00000110 (
1>
#3446
04
1&
16
0>
#3451
b01 !
14
b01 5
b00000111 (
1>
#3456
04
0>
#3461
b10 !
14
18
b00 5
1=
b00000000 (
17
1>
#3466
04
0>
#3471
b11 !
14
b01 5
b10 :
b00000001 (
1>
#3476
04
0>
#3481
14
08
b00 5
0=
b01 :
07
b00000010 (
1>
#3486
04
0>
#3491
14
01
b01 5
02
09
b10 :
b00000011 (
1>
0,
#3496
04
0>
#3501
14
b00 5
b11 :
b00000100 (
1>
#3506
04
0>
#3511
14
b01 5
b00000101 (
1>
#3516
04
0>
#3521
14
b00 5
b00000110 (
1>
#3526
04
0&
06
0>
#3531
b10 !
14
b01 5
b00000111 (
1>
#3536
04
0>
#3541
b01 !
14
18
b00 5
1=
b00000000 (
17
1>
#3546
04
0>
#3551
b00 !
14
b01 5
b10 :
b00000001 (
1>
#3556
04
0>
#3561
14
08
b00 5
0=
b01 :
07
b00000010 (
1>
#3566
04
0>
#3571
14
11
b01 5
12
19
b10 :
b00000011 (
1>
1,
#3576
04
0>
#3581
14
b00 5
b11 :
b00000100 (
1>
#3586
04
0>
#3591
14
b01 5
b00000101 (
1>
#3596
04
0>
#3601
14
b00 5
b00000110 (
1>
#3606
04
1&
16
0>
#3611
b01 !
14
b01 5
b00000111 (
1>
#3616
04
0>
#3621
b10 !
14
18
b00 5
1=
b00000000 (
17
1>
#3626
04
0>
#3631
b11 !
14
b01 5
b10 :
b00000001 (
1>
#3636
04
0>
#3641
14
08
b00 5
0=
b01 :
07
b00000010 (
1>
#3646
04
0>
#3651
14
01
b01 5
02
09
b10 :
b00000011 (
1>
0,
#3656
04
0>
#3661
14
b00 5
b11 :
b00000100 (
1>
#3666
04
0>
#3671
14
b01 5
b00000101 (
1>
#3676
04
0>
#3681
14
b00 5
b00000110 (
1>
#3686
04
0&
06
0>
#3691
b10 !
14
b01 5
b00000111 (
1>
#3696
04
0>
#3701
b01 !
14
18
b00 5
1=
b00000000 (
17
1>
#3706
04
0>
#3711
b00 !
14
b01 5
b10 :
b00000001 (
1>
#3716
04
0>
#3721
14
08
b00 5
0=
b01 :
07
b00000010 (
1>
#3726
04
0>
#3731
14
11
b01 5
12
19
b10 :
b00000011 (
1>
1,
#3736
04
0>
#3741
14
b00 5
b11 :
b00000100 (
1>
#3746
04
0>
#3751
14
b01 5
b00000101 (
1>
#3756
04
0>
#3761
14
b00 5
b00000110 (
1>
#3766
04
1&
16
0>
#3771
b01 !
14
b01 5
b00000111 (
1>
#3776
04
0>
#3781
b10 !
14
18
b00 5
1=
b00000000 (
17
1>
#3786
04
0>
#3791
b11 !
14
b01 5
b10 :
b00000001 (
1>
#3796
04
0>
#3801
14
08
b00 5
0=
b01 :
07
b00000010 (
1>
#3806
04
0>
#3811
14
01
b01 5
02
09
b10 :
b00000011 (
1>
0,
#3816
04
0>
#3821
14
b00 5
b11 :
b00000100 (
1>
#3826
04
0>
#3831
14
b01 5
b00000101 (
1>
#3836
04
0>
#3841
14
b00 5
b00000110 (
1>
#3846
04
0&
06
0>
#3851
b10 !
14
b01 5
b00000111 (
1>
#3856
04
0>
#3861
b01 !
14
18
b00 5
1=
b00000000 (
17
1>
#3866
04
0>
#3871
b00 !
14
b01 5
b10 :
b00000001 (
1>
#3876
04
0>
#3881
14
08
b00 5
0=
b01 :
07
b00000010 (
1>
#3886
04
0>
#3891
14
11
b01 5
12
19
b10 :
b00000011 (
1>
1,
#3896
04
0>
#3901
14
b00 5
b11 :
b00000100 (
1>
#3906
04
0>
#3911
14
b01 5
b00000101 (
1>
#3916
04
0>
#3921
14
b00 5
b00000110 (
1>
#3926
04
1&
16
0>
#3931
b01 !
14
b01 5
b00000111 (
1>
