Intervox_Reciever/test_run_dir/interVox_Reciever_should_pass/interVox_Reciever.vcd
$date
2022-11-30T13:39+0000
$end
$version
0.2
$end
$comment

$end
$timescale 1ns  $end
$scope module interVox_Reciever $end
 $var wire 1 & io_INTERVOX_IN $end
 $var wire 1 ( io_DATA_OUT $end
 $var wire 1 ) io_CLK_REC $end
 $var wire 1 + pll $end
 $var wire 1 , io_DBUG $end
 $var wire 16 3 io_LEDS $end
 $var wire 1 4 clockRec $end
 $var wire 1 5 clock $end
 $var wire 1 8 io_DBUG1 $end
 $var wire 1 < reset $end
 $var wire 1 A io_CLK_DBUG $end
  $scope module clockRec $end
   $var wire 2 ! inBufr $end
   $var wire 1 " dataOut $end
   $var wire 1 # io_DATA_OUT $end
   $var wire 1 $ zeroPeriode $end
   $var wire 1 % changedOne $end
   $var wire 8 ' lastOne $end
   $var wire 8 * deltaCntr $end
   $var wire 1 - io_DBUG $end
   $var wire 1 . reset $end
   $var wire 2 0 inBufrPrev $end
   $var wire 1 2 io_CLK_OUT $end
   $var wire 16 6 io_LEDS $end
   $var wire 1 7 io_DATA_IN $end
   $var wire 1 9 io_DBUG1 $end
   $var wire 1 : clkRec $end
   $var wire 1 = change $end
   $var wire 1 > syncWord $end
   $var wire 1 ? clock $end
   $var wire 1 @ changed $end
  $upscope $end
  $scope module pll $end
   $var wire 1 / locked $end
   $var wire 1 1 PLL_IN $end
   $var wire 1 ; PLL_MCLK $end
  $upscope $end
$upscope $end
$enddefinitions $end
$dumpvars
0%
0;
0&
0<
0=
0>
b00000000 *
07
0"
08
0#
09
0:
02
b00000000 '
04
05
0-
b00 !
b0000000000000000 3
0.
0/
b00 0
0(
b0000000000000000 6
01
0)
0?
0@
0+
0A
0,
0$
$end
#0
b0000000000010000 3
1<
1.
b0000000000010000 6
#1
1?
15
b00010000 '
#6
0?
0<
0.
05
#11
1?
15
b00000001 *
#16
0?
05
#21
1?
15
b00000010 *
#26
0?
05
#31
1?
15
b00000011 *
#36
0?
05
#41
1?
15
b00000100 *
#46
0?
05
#51
1?
15
b00000101 *
#56
0?
05
#61
1?
15
b00000110 *
#66
0?
05
#71
1?
15
b00000111 *
#76
0?
05
#81
1?
15
b00001000 *
#86
0?
05
#91
1?
15
b00001001 *
#96
0?
05
#101
1?
15
b00001010 *
#106
0?
05
#111
1?
15
b00001011 *
#116
0?
05
#121
1?
15
b00001100 *
#126
0?
05
#131
1?
15
b00001101 *
#136
0?
05
#141
1?
15
b00001110 *
#146
0?
05
#151
1?
15
b00001111 *
#156
0?
05
#161
1?
15
b00010000 *
#166
0?
05
#171
1?
11
1@
15
12
b00010001 *
1:
1A
#176
0?
05
#181
1?
1-
15
b00010010 *
1$
1,
#186
0?
05
#191
1?
15
b00010011 *
#196
0?
05
#201
1?
15
b00010100 *
#206
0?
05
#211
1?
15
b00010101 *
#216
0?
05
#221
1?
15
b00010110 *
#226
0?
05
#231
1?
15
b00010111 *
#236
0?
05
#241
1?
15
b00011000 *
#246
0?
05
#251
1?
15
b00011001 *
#256
0?
05
#261
1?
15
b00011010 *
#266
0?
05
#271
1?
15
b00011011 *
#276
0?
05
#281
1?
15
b00011100 *
#286
0?
05
#291
1?
15
b00011101 *
#296
0?
05
#301
1?
15
b00011110 *
#306
0?
05
#311
1?
15
b00011111 *
#316
0?
05
#321
1?
15
b00100000 *
#326
0?
1&
05
17
#331
b01 !
1?
15
b00100001 *
#336
0?
05
#341
b10 !
b01 0
1?
18
15
b00100010 *
19
1=
1>
#346
0?
05
#351
b10 0
1?
01
0@
15
02
b00000000 *
0=
0:
0A
#356
0?
05
#361
1?
15
b00000001 *
#366
0?
05
#371
1?
15
b00000010 *
#376
0?
05
#381
1?
15
b00000011 *
#386
0?
05
#391
1?
15
b00000100 *
#396
0?
05
#401
1?
15
b00000101 *
#406
0?
05
#411
1?
15
b00000110 *
#416
0?
05
#421
1?
15
b00000111 *
#426
0?
05
#431
1?
15
b00001000 *
#436
0?
05
#441
1?
15
b00001001 *
#446
0?
05
#451
1?
15
b00001010 *
#456
0?
05
#461
1?
15
b00001011 *
#466
0?
05
#471
1?
15
b00001100 *
#476
0?
05
#481
1?
15
b00001101 *
#486
0?
0&
05
07
#491
b01 !
1?
15
b00001110 *
#496
0?
05
#501
b00 !
b01 0
1?
15
b00001111 *
1=
#506
0?
05
#511
b00 0
1?
1%
11
08
15
12
b00000000 *
09
0=
1:
1A
0>
#516
0?
05
#521
1?
15
b00000001 *
#526
0?
05
#531
1?
15
b00000010 *
#536
0?
05
#541
1?
15
b00000011 *
#546
0?
05
#551
1?
15
b00000100 *
#556
0?
05
#561
1?
15
b00000101 *
#566
0?
05
#571
1?
15
b00000110 *
#576
0?
05
#581
1?
15
b00000111 *
#586
0?
05
#591
1?
15
b00001000 *
#596
0?
05
#601
1?
15
b00001001 *
#606
0?
05
#611
1?
15
b00001010 *
#616
0?
05
#621
1?
15
b00001011 *
#626
0?
05
#631
1?
15
b00001100 *
#636
0?
05
#641
1?
15
b00001101 *
#646
0?
1&
05
17
#651
b01 !
1?
15
b00001110 *
#656
0?
05
#661
b10 !
b01 0
1?
15
b00001111 *
1=
#666
0?
05
#671
0-
0%
15
0=
1(
b10 0
1?
1"
01
1#
02
b00000000 *
0$
0:
0A
0,
#676
0?
05
#681
1?
15
b00000001 *
#686
0?
05
#691
1?
15
b00000010 *
#696
0?
05
#701
1?
15
b00000011 *
#706
0?
05
#711
1?
15
b00000100 *
#716
0?
05
#721
1?
15
b00000101 *
#726
0?
05
#731
1?
15
b00000110 *
#736
0?
05
#741
1?
15
b00000111 *
#746
0?
05
#751
1?
15
b00001000 *
#756
0?
05
#761
1?
15
b00001001 *
#766
0?
05
#771
1?
15
b00001010 *
#776
0?
05
#781
1?
15
b00001011 *
#786
0?
05
#791
1?
15
b00001100 *
#796
0?
05
#801
1?
15
b00001101 *
#806
0?
0&
05
07
#811
b01 !
1?
15
b00001110 *
#816
0?
05
#821
b00 !
b01 0
1?
15
b00001111 *
1=
#826
0?
05
#831
b00 0
1?
1%
11
15
12
b00000000 *
0=
1:
1A
#836
0?
05
#841
1?
15
b00000001 *
#846
0?
05
#851
1?
15
b00000010 *
#856
0?
05
#861
1?
15
b00000011 *
#866
0?
05
#871
1?
15
b00000100 *
#876
0?
05
#881
1?
15
b00000101 *
#886
0?
05
#891
1?
15
b00000110 *
#896
0?
05
#901
1?
15
b00000111 *
#906
0?
05
#911
1?
15
b00001000 *
#916
0?
05
#921
1?
15
b00001001 *
#926
0?
05
#931
1?
15
b00001010 *
#936
0?
05
#941
1?
15
b00001011 *
#946
0?
05
#951
1?
15
b00001100 *
#956
0?
05
#961
1?
15
b00001101 *
#966
0?
1&
05
17
#971
b01 !
1?
15
b00001110 *
#976
0?
05
#981
b10 !
b01 0
1?
15
b00001111 *
1=
#986
0?
05
#991
b10 0
1?
0%
01
15
02
b00000000 *
0=
0:
0A
#996
0?
05
#1001
1?
15
b00000001 *
#1006
0?
05
#1011
1?
15
b00000010 *
#1016
0?
05
#1021
1?
15
b00000011 *
#1026
0?
05
#1031
1?
15
b00000100 *
#1036
0?
05
#1041
1?
15
b00000101 *
#1046
0?
05
#1051
1?
15
b00000110 *
#1056
0?
05
#1061
1?
15
b00000111 *
#1066
0?
05
#1071
1?
15
b00001000 *
#1076
0?
05
#1081
1?
15
b00001001 *
#1086
0?
05
#1091
1?
15
b00001010 *
#1096
0?
05
#1101
1?
15
b00001011 *
#1106
0?
05
#1111
1?
15
b00001100 *
#1116
0?
05
#1121
1?
15
b00001101 *
#1126
0?
0&
05
07
#1131
b01 !
1?
15
b00001110 *
#1136
0?
05
#1141
b00 !
b01 0
1?
15
b00001111 *
1=
#1146
0?
05
#1151
b00 0
1?
1%
11
15
12
b00000000 *
0=
1:
1A
#1156
0?
05
#1161
1?
15
b00000001 *
#1166
0?
05
#1171
1?
15
b00000010 *
#1176
0?
05
#1181
1?
15
b00000011 *
#1186
0?
05
#1191
1?
15
b00000100 *
#1196
0?
05
#1201
1?
15
b00000101 *
#1206
0?
05
#1211
1?
15
b00000110 *
#1216
0?
05
#1221
1?
15
b00000111 *
#1226
0?
05
#1231
1?
15
b00001000 *
#1236
0?
05
#1241
1?
15
b00001001 *
#1246
0?
05
#1251
1?
15
b00001010 *
#1256
0?
05
#1261
1?
15
b00001011 *
#1266
0?
05
#1271
1?
15
b00001100 *
#1276
0?
05
#1281
1?
15
b00001101 *
#1286
0?
1&
05
17
#1291
b01 !
1?
15
b00001110 *
#1296
0?
05
#1301
b10 !
b01 0
1?
15
b00001111 *
1=
#1306
0?
05
#1311
b10 0
1?
0%
01
15
02
b00000000 *
0=
0:
0A
#1316
0?
05
#1321
1?
15
b00000001 *
#1326
0?
05
#1331
1?
15
b00000010 *
#1336
0?
05
#1341
1?
15
b00000011 *
#1346
0?
05
#1351
1?
15
b00000100 *
#1356
0?
05
#1361
1?
15
b00000101 *
#1366
0?
05
#1371
1?
15
b00000110 *
#1376
0?
05
#1381
1?
15
b00000111 *
#1386
0?
05
#1391
1?
15
b00001000 *
#1396
0?
05
#1401
1?
15
b00001001 *
#1406
0?
05
#1411
1?
15
b00001010 *
#1416
0?
05
#1421
1?
15
b00001011 *
#1426
0?
05
#1431
1?
15
b00001100 *
#1436
0?
05
#1441
1?
15
b00001101 *
#1446
0?
0&
05
07
#1451
b01 !
1?
15
b00001110 *
#1456
0?
05
#1461
b00 !
b01 0
1?
15
b00001111 *
1=
#1466
0?
05
#1471
b00 0
1?
1%
11
15
12
b00000000 *
0=
1:
1A
#1476
0?
05
#1481
1?
15
b00000001 *
#1486
0?
05
#1491
1?
15
b00000010 *
#1496
0?
05
#1501
1?
15
b00000011 *
#1506
0?
05
#1511
1?
15
b00000100 *
#1516
0?
05
#1521
1?
15
b00000101 *
#1526
0?
05
#1531
1?
15
b00000110 *
#1536
0?
05
#1541
1?
15
b00000111 *
#1546
0?
05
#1551
1?
15
b00001000 *
#1556
0?
05
#1561
1?
15
b00001001 *
#1566
0?
05
#1571
1?
15
b00001010 *
#1576
0?
05
#1581
1?
15
b00001011 *
#1586
0?
05
#1591
1?
15
b00001100 *
#1596
0?
05
#1601
1?
15
b00001101 *
#1606
0?
1&
05
17
#1611
b01 !
1?
15
b00001110 *
#1616
0?
05
#1621
b10 !
b01 0
1?
15
b00001111 *
1=
#1626
0?
05
#1631
b10 0
1?
0%
01
15
02
b00000000 *
0=
0:
0A
#1636
0?
05
#1641
1?
15
b00000001 *
#1646
0?
05
#1651
1?
15
b00000010 *
#1656
0?
05
#1661
1?
15
b00000011 *
#1666
0?
05
#1671
1?
15
b00000100 *
#1676
0?
05
#1681
1?
15
b00000101 *
#1686
0?
05
#1691
1?
15
b00000110 *
#1696
0?
05
#1701
1?
15
b00000111 *
#1706
0?
05
#1711
1?
15
b00001000 *
#1716
0?
05
#1721
1?
15
b00001001 *
#1726
0?
05
#1731
1?
15
b00001010 *
#1736
0?
05
#1741
1?
15
b00001011 *
#1746
0?
05
#1751
1?
15
b00001100 *
#1756
0?
05
#1761
1?
15
b00001101 *
#1766
0?
0&
05
07
#1771
b01 !
1?
15
b00001110 *
#1776
0?
05
#1781
b00 !
b01 0
1?
15
b00001111 *
1=
#1786
0?
05
#1791
b00 0
1?
1%
11
15
12
b00000000 *
0=
1:
1A
#1796
0?
05
#1801
1?
15
b00000001 *
#1806
0?
05
#1811
1?
15
b00000010 *
#1816
0?
05
#1821
1?
15
b00000011 *
#1826
0?
05
#1831
1?
15
b00000100 *
#1836
0?
05
#1841
1?
15
b00000101 *
#1846
0?
05
#1851
1?
15
b00000110 *
#1856
0?
05
#1861
1?
15
b00000111 *
#1866
0?
05
#1871
1?
15
b00001000 *
#1876
0?
05
#1881
1?
15
b00001001 *
#1886
0?
05
#1891
1?
15
b00001010 *
#1896
0?
05
#1901
1?
15
b00001011 *
#1906
0?
05
#1911
1?
15
b00001100 *
#1916
0?
05
#1921
1?
15
b00001101 *
#1926
0?
05
#1931
1?
15
b00001110 *
#1936
0?
05
#1941
1?
15
b00001111 *
#1946
0?
05
#1951
1?
15
b00010000 *
#1956
0?
05
#1961
1?
01
1@
15
02
b00010001 *
0:
0A
#1966
0?
05
#1971
1?
1-
0%
0"
15
0#
b00010010 *
1$
0(
1,
#1976
0?
05
#1981
1?
15
b00010011 *
#1986
0?
05
#1991
1?
15
b00010100 *
#1996
0?
05
#2001
1?
15
b00010101 *
#2006
0?
05
#2011
1?
15
b00010110 *
#2016
0?
05
#2021
1?
15
b00010111 *
#2026
0?
05
#2031
1?
15
b00011000 *
#2036
0?
05
#2041
1?
15
b00011001 *
#2046
0?
05
#2051
1?
15
b00011010 *
#2056
0?
05
#2061
1?
15
b00011011 *
#2066
0?
05
#2071
1?
15
b00011100 *
#2076
0?
05
#2081
1?
15
b00011101 *
#2086
0?
1&
05
17
#2091
b01 !
1?
15
b00011110 *
#2096
0?
05
#2101
b10 !
b01 0
1?
15
b00011111 *
1=
#2106
0?
05
#2111
b10 0
1?
11
0@
15
12
b00000000 *
0=
1:
1A
#2116
0?
05
#2121
1?
15
b00000001 *
#2126
0?
05
#2131
1?
15
b00000010 *
#2136
0?
05
#2141
1?
15
b00000011 *
#2146
0?
05
#2151
1?
15
b00000100 *
#2156
0?
05
#2161
1?
15
b00000101 *
#2166
0?
05
#2171
1?
15
b00000110 *
#2176
0?
05
#2181
1?
15
b00000111 *
#2186
0?
05
#2191
1?
15
b00001000 *
#2196
0?
05
#2201
1?
15
b00001001 *
#2206
0?
05
#2211
1?
15
b00001010 *
#2216
0?
05
#2221
1?
15
b00001011 *
#2226
0?
05
#2231
1?
15
b00001100 *
#2236
0?
05
#2241
1?
15
b00001101 *
#2246
0?
05
#2251
1?
15
b00001110 *
#2256
0?
05
#2261
1?
15
b00001111 *
#2266
0?
05
#2271
1?
15
b00010000 *
#2276
0?
05
#2281
1?
01
1@
15
02
b00010001 *
0:
0A
#2286
0?
05
#2291
1?
15
b00010010 *
#2296
0?
05
#2301
1?
15
b00010011 *
#2306
0?
05
#2311
1?
15
b00010100 *
#2316
0?
05
#2321
1?
15
b00010101 *
#2326
0?
05
#2331
1?
15
b00010110 *
#2336
0?
05
#2341
1?
15
b00010111 *
#2346
0?
05
#2351
1?
15
b00011000 *
#2356
0?
05
#2361
1?
15
b00011001 *
#2366
0?
05
#2371
1?
15
b00011010 *
#2376
0?
05
#2381
1?
15
b00011011 *
#2386
0?
05
#2391
1?
15
b00011100 *
#2396
0?
05
#2401
1?
15
b00011101 *
#2406
0?
0&
05
07
#2411
b01 !
1?
15
b00011110 *
#2416
0?
05
#2421
b00 !
b01 0
1?
15
b00011111 *
1=
#2426
0?
05
#2431
b00 0
1?
11
0@
15
12
b00000000 *
0=
1:
1A
#2436
0?
05
#2441
1?
15
b00000001 *
#2446
0?
05
#2451
1?
15
b00000010 *
#2456
0?
05
#2461
1?
15
b00000011 *
#2466
0?
05
#2471
1?
15
b00000100 *
#2476
0?
05
#2481
1?
15
b00000101 *
#2486
0?
05
#2491
1?
15
b00000110 *
#2496
0?
05
#2501
1?
15
b00000111 *
#2506
0?
05
#2511
1?
15
b00001000 *
#2516
0?
05
#2521
1?
15
b00001001 *
#2526
0?
05
#2531
1?
15
b00001010 *
#2536
0?
05
#2541
1?
15
b00001011 *
#2546
0?
05
#2551
1?
15
b00001100 *
#2556
0?
05
#2561
1?
15
b00001101 *
#2566
0?
05
#2571
1?
15
b00001110 *
#2576
0?
05
#2581
1?
15
b00001111 *
#2586
0?
05
#2591
1?
15
b00010000 *
#2596
0?
05
#2601
1?
01
1@
15
02
b00010001 *
0:
0A
#2606
0?
05
#2611
1?
15
b00010010 *
#2616
0?
05
#2621
1?
15
b00010011 *
#2626
0?
05
#2631
1?
15
b00010100 *
#2636
0?
05
#2641
1?
15
b00010101 *
#2646
0?
05
#2651
1?
15
b00010110 *
#2656
0?
05
#2661
1?
15
b00010111 *
#2666
0?
05
#2671
1?
15
b00011000 *
#2676
0?
05
#2681
1?
15
b00011001 *
#2686
0?
05
#2691
1?
15
b00011010 *
#2696
0?
05
#2701
1?
15
b00011011 *
#2706
0?
05
#2711
1?
15
b00011100 *
#2716
0?
05
#2721
1?
15
b00011101 *
#2726
0?
1&
05
17
#2731
b01 !
1?
15
b00011110 *
#2736
0?
05
#2741
b10 !
b01 0
1?
15
b00011111 *
1=
#2746
0?
05
#2751
b10 0
1?
11
0@
15
12
b00000000 *
0=
1:
1A
#2756
0?
05
#2761
1?
15
b00000001 *
#2766
0?
05
#2771
1?
15
b00000010 *
#2776
0?
05
#2781
1?
15
b00000011 *
#2786
0?
05
#2791
1?
15
b00000100 *
#2796
0?
05
#2801
1?
15
b00000101 *
#2806
0?
05
#2811
1?
15
b00000110 *
#2816
0?
05
#2821
1?
15
b00000111 *
#2826
0?
05
#2831
1?
15
b00001000 *
#2836
0?
05
#2841
1?
15
b00001001 *
#2846
0?
05
#2851
1?
15
b00001010 *
#2856
0?
05
#2861
1?
15
b00001011 *
#2866
0?
05
#2871
1?
15
b00001100 *
#2876
0?
05
#2881
1?
15
b00001101 *
#2886
0?
05
#2891
1?
15
b00001110 *
#2896
0?
05
#2901
1?
15
b00001111 *
#2906
0?
05
#2911
1?
15
b00010000 *
#2916
0?
05
#2921
1?
01
1@
15
02
b00010001 *
0:
0A
#2926
0?
05
#2931
1?
15
b00010010 *
#2936
0?
05
#2941
1?
15
b00010011 *
#2946
0?
05
#2951
1?
15
b00010100 *
#2956
0?
05
#2961
1?
15
b00010101 *
#2966
0?
05
#2971
1?
15
b00010110 *
#2976
0?
05
#2981
1?
15
b00010111 *
#2986
0?
05
#2991
1?
15
b00011000 *
#2996
0?
05
#3001
1?
15
b00011001 *
#3006
0?
05
#3011
1?
15
b00011010 *
#3016
0?
05
#3021
1?
15
b00011011 *
#3026
0?
05
#3031
1?
15
b00011100 *
#3036
0?
05
#3041
1?
15
b00011101 *
#3046
0?
0&
05
07
#3051
b01 !
1?
15
b00011110 *
#3056
0?
05
#3061
b00 !
b01 0
1?
15
b00011111 *
1=
#3066
0?
05
#3071
b00 0
1?
11
0@
15
12
b00000000 *
0=
1:
1A
#3076
0?
05
#3081
1?
15
b00000001 *
#3086
0?
05
#3091
1?
15
b00000010 *
#3096
0?
05
#3101
1?
15
b00000011 *
#3106
0?
05
#3111
1?
15
b00000100 *
#3116
0?
05
#3121
1?
15
b00000101 *
#3126
0?
05
#3131
1?
15
b00000110 *
#3136
0?
05
#3141
1?
15
b00000111 *
#3146
0?
05
#3151
1?
15
b00001000 *
#3156
0?
05
#3161
1?
15
b00001001 *
#3166
0?
05
#3171
1?
15
b00001010 *
#3176
0?
05
#3181
1?
15
b00001011 *
#3186
0?
05
#3191
1?
15
b00001100 *
#3196
0?
05
#3201
1?
15
b00001101 *
#3206
0?
1&
05
17
#3211
b01 !
1?
15
b00001110 *
#3216
0?
05
#3221
b10 !
b01 0
1?
15
b00001111 *
1=
#3226
0?
05
#3231
b10 0
1?
1%
01
15
02
b00000000 *
0=
0:
0A
#3236
0?
05
#3241
1?
15
b00000001 *
#3246
0?
05
#3251
1?
15
b00000010 *
#3256
0?
05
#3261
1?
15
b00000011 *
#3266
0?
05
#3271
1?
15
b00000100 *
#3276
0?
05
#3281
1?
15
b00000101 *
#3286
0?
05
#3291
1?
15
b00000110 *
#3296
0?
05
#3301
1?
15
b00000111 *
#3306
0?
05
#3311
1?
15
b00001000 *
#3316
0?
05
#3321
1?
15
b00001001 *
#3326
0?
05
#3331
1?
15
b00001010 *
#3336
0?
05
#3341
1?
15
b00001011 *
#3346
0?
05
#3351
1?
15
b00001100 *
#3356
0?
05
#3361
1?
15
b00001101 *
#3366
0?
0&
05
07
#3371
b01 !
1?
15
b00001110 *
#3376
0?
05
#3381
b00 !
b01 0
1?
15
b00001111 *
1=
#3386
0?
05
#3391
0-
0%
15
0=
1(
b00 0
1?
1"
11
1#
12
b00000000 *
0$
1:
1A
0,
#3396
0?
05
#3401
1?
15
b00000001 *
#3406
0?
05
#3411
1?
15
b00000010 *
#3416
0?
05
#3421
1?
15
b00000011 *
#3426
0?
05
#3431
1?
15
b00000100 *
#3436
0?
05
#3441
1?
15
b00000101 *
#3446
0?
05
#3451
1?
15
b00000110 *
#3456
0?
05
#3461
1?
15
b00000111 *
#3466
0?
05
#3471
1?
15
b00001000 *
#3476
0?
05
#3481
1?
15
b00001001 *
#3486
0?
05
#3491
1?
15
b00001010 *
#3496
0?
05
#3501
1?
15
b00001011 *
#3506
0?
05
#3511
1?
15
b00001100 *
#3516
0?
05
#3521
1?
15
b00001101 *
#3526
0?
1&
05
17
#3531
b01 !
1?
15
b00001110 *
#3536
0?
05
#3541
b10 !
b01 0
1?
15
b00001111 *
1=
#3546
0?
05
#3551
b10 0
1?
1%
01
15
02
b00000000 *
0=
0:
0A
#3556
0?
05
#3561
1?
15
b00000001 *
#3566
0?
05
#3571
1?
15
b00000010 *
#3576
0?
05
#3581
1?
15
b00000011 *
#3586
0?
05
#3591
1?
15
b00000100 *
#3596
0?
05
#3601
1?
15
b00000101 *
#3606
0?
05
#3611
1?
15
b00000110 *
#3616
0?
05
#3621
1?
15
b00000111 *
#3626
0?
05
#3631
1?
15
b00001000 *
#3636
0?
05
#3641
1?
15
b00001001 *
#3646
0?
05
#3651
1?
15
b00001010 *
#3656
0?
05
#3661
1?
15
b00001011 *
#3666
0?
05
#3671
1?
15
b00001100 *
#3676
0?
05
#3681
1?
15
b00001101 *
#3686
0?
0&
05
07
#3691
b01 !
1?
15
b00001110 *
#3696
0?
05
#3701
b00 !
b01 0
1?
15
b00001111 *
1=
#3706
0?
05
#3711
b00 0
1?
0%
11
15
12
b00000000 *
0=
1:
1A
#3716
0?
05
#3721
1?
15
b00000001 *
#3726
0?
05
#3731
1?
15
b00000010 *
#3736
0?
05
#3741
1?
15
b00000011 *
#3746
0?
05
#3751
1?
15
b00000100 *
#3756
0?
05
#3761
1?
15
b00000101 *
#3766
0?
05
#3771
1?
15
b00000110 *
#3776
0?
05
#3781
1?
15
b00000111 *
#3786
0?
05
#3791
1?
15
b00001000 *
#3796
0?
05
#3801
1?
15
b00001001 *
#3806
0?
05
#3811
1?
15
b00001010 *
#3816
0?
05
#3821
1?
15
b00001011 *
#3826
0?
05
#3831
1?
15
b00001100 *
#3836
0?
05
#3841
1?
15
b00001101 *
#3846
0?
1&
05
17
#3851
b01 !
1?
15
b00001110 *
#3856
0?
05
#3861
b10 !
b01 0
1?
15
b00001111 *
1=
#3866
0?
05
#3871
b10 0
1?
1%
01
15
02
b00000000 *
0=
0:
0A
#3876
0?
05
#3881
1?
15
b00000001 *
#3886
0?
05
#3891
1?
15
b00000010 *
#3896
0?
05
#3901
1?
15
b00000011 *
#3906
0?
05
#3911
1?
15
b00000100 *
#3916
0?
05
#3921
1?
15
b00000101 *
#3926
0?
05
#3931
1?
15
b00000110 *
#3936
0?
05
#3941
1?
15
b00000111 *
#3946
0?
05
#3951
1?
15
b00001000 *
#3956
0?
05
#3961
1?
15
b00001001 *
#3966
0?
05
#3971
1?
15
b00001010 *
#3976
0?
05
#3981
1?
15
b00001011 *
#3986
0?
05
#3991
1?
15
b00001100 *
#3996
0?
05
#4001
1?
15
b00001101 *
#4006
0?
0&
05
07
#4011
b01 !
1?
15
b00001110 *
#4016
0?
05
#4021
b00 !
b01 0
1?
15
b00001111 *
1=
#4026
0?
05
#4031
b00 0
1?
0%
11
15
12
b00000000 *
0=
1:
1A
#4036
0?
05
#4041
1?
15
b00000001 *
#4046
0?
05
#4051
1?
15
b00000010 *
#4056
0?
05
#4061
1?
15
b00000011 *
#4066
0?
05
#4071
1?
15
b00000100 *
#4076
0?
05
#4081
1?
15
b00000101 *
#4086
0?
05
#4091
1?
15
b00000110 *
#4096
0?
05
#4101
1?
15
b00000111 *
#4106
0?
05
#4111
1?
15
b00001000 *
#4116
0?
05
#4121
1?
15
b00001001 *
#4126
0?
05
#4131
1?
15
b00001010 *
#4136
0?
05
#4141
1?
15
b00001011 *
#4146
0?
05
#4151
1?
15
b00001100 *
#4156
0?
05
#4161
1?
15
b00001101 *
#4166
0?
1&
05
17
#4171
b01 !
1?
15
b00001110 *
#4176
0?
05
#4181
b10 !
b01 0
1?
15
b00001111 *
1=
#4186
0?
05
#4191
b10 0
1?
1%
01
15
02
b00000000 *
0=
0:
0A
#4196
0?
05
#4201
1?
15
b00000001 *
#4206
0?
05
#4211
1?
15
b00000010 *
#4216
0?
05
#4221
1?
15
b00000011 *
#4226
0?
05
#4231
1?
15
b00000100 *
#4236
0?
05
#4241
1?
15
b00000101 *
#4246
0?
05
#4251
1?
15
b00000110 *
#4256
0?
05
#4261
1?
15
b00000111 *
#4266
0?
05
#4271
1?
15
b00001000 *
#4276
0?
05
#4281
1?
15
b00001001 *
#4286
0?
05
#4291
1?
15
b00001010 *
#4296
0?
05
#4301
1?
15
b00001011 *
#4306
0?
05
#4311
1?
15
b00001100 *
#4316
0?
05
#4321
1?
15
b00001101 *
#4326
0?
0&
05
07
#4331
b01 !
1?
15
b00001110 *
#4336
0?
05
#4341
b00 !
b01 0
1?
15
b00001111 *
1=
#4346
0?
05
#4351
b00 0
1?
0%
11
15
12
b00000000 *
0=
1:
1A
#4356
0?
05
#4361
1?
15
b00000001 *
#4366
0?
05
#4371
1?
15
b00000010 *
#4376
0?
05
#4381
1?
15
b00000011 *
#4386
0?
05
#4391
1?
15
b00000100 *
#4396
0?
05
#4401
1?
15
b00000101 *
#4406
0?
05
#4411
1?
15
b00000110 *
#4416
0?
05
#4421
1?
15
b00000111 *
#4426
0?
05
#4431
1?
15
b00001000 *
#4436
0?
05
#4441
1?
15
b00001001 *
#4446
0?
05
#4451
1?
15
b00001010 *
#4456
0?
05
#4461
1?
15
b00001011 *
#4466
0?
05
#4471
1?
15
b00001100 *
#4476
0?
05
#4481
1?
15
b00001101 *
#4486
0?
1&
05
17
#4491
b01 !
1?
15
b00001110 *
#4496
0?
05
#4501
b10 !
b01 0
1?
15
b00001111 *
1=
#4506
0?
05
#4511
b10 0
1?
1%
01
15
02
b00000000 *
0=
0:
0A
#4516
0?
05
#4521
1?
15
b00000001 *
#4526
0?
05
#4531
1?
15
b00000010 *
#4536
0?
05
#4541
1?
15
b00000011 *
#4546
0?
05
#4551
1?
15
b00000100 *
#4556
0?
05
#4561
1?
15
b00000101 *
#4566
0?
05
#4571
1?
15
b00000110 *
#4576
0?
05
#4581
1?
15
b00000111 *
#4586
0?
05
#4591
1?
15
b00001000 *
#4596
0?
05
#4601
1?
15
b00001001 *
#4606
0?
05
#4611
1?
15
b00001010 *
#4616
0?
05
#4621
1?
15
b00001011 *
#4626
0?
05
#4631
1?
15
b00001100 *
#4636
0?
05
#4641
1?
15
b00001101 *
#4646
0?
0&
05
07
#4651
b01 !
1?
15
b00001110 *
#4656
0?
05
#4661
b00 !
b01 0
1?
15
b00001111 *
1=
#4666
0?
05
#4671
b00 0
1?
0%
11
15
12
b00000000 *
0=
1:
1A
#4676
0?
05
#4681
1?
15
b00000001 *
#4686
0?
05
#4691
1?
15
b00000010 *
#4696
0?
05
#4701
1?
15
b00000011 *
#4706
0?
05
#4711
1?
15
b00000100 *
#4716
0?
05
#4721
1?
15
b00000101 *
#4726
0?
05
#4731
1?
15
b00000110 *
#4736
0?
05
#4741
1?
15
b00000111 *
#4746
0?
05
#4751
1?
15
b00001000 *
#4756
0?
05
#4761
1?
15
b00001001 *
#4766
0?
05
#4771
1?
15
b00001010 *
#4776
0?
05
#4781
1?
15
b00001011 *
#4786
0?
05
#4791
1?
15
b00001100 *
#4796
0?
05
#4801
1?
15
b00001101 *
#4806
0?
1&
05
17
#4811
b01 !
1?
15
b00001110 *
#4816
0?
05
#4821
b10 !
b01 0
1?
15
b00001111 *
1=
#4826
0?
05
#4831
b10 0
1?
1%
01
15
02
b00000000 *
0=
0:
0A
#4836
0?
05
#4841
1?
15
b00000001 *
#4846
0?
05
#4851
1?
15
b00000010 *
#4856
0?
05
#4861
1?
15
b00000011 *
#4866
0?
05
#4871
1?
15
b00000100 *
#4876
0?
05
#4881
1?
15
b00000101 *
#4886
0?
05
#4891
1?
15
b00000110 *
#4896
0?
05
#4901
1?
15
b00000111 *
#4906
0?
05
#4911
1?
15
b00001000 *
#4916
0?
05
#4921
1?
15
b00001001 *
#4926
0?
05
#4931
1?
15
b00001010 *
#4936
0?
05
#4941
1?
15
b00001011 *
#4946
0?
05
#4951
1?
15
b00001100 *
#4956
0?
05
#4961
1?
15
b00001101 *
#4966
0?
0&
05
07
#4971
b01 !
1?
15
b00001110 *
#4976
0?
05
#4981
b00 !
b01 0
1?
15
b00001111 *
1=
#4986
0?
05
#4991
b00 0
1?
0%
11
15
12
b00000000 *
0=
1:
1A
#4996
0?
05
#5001
1?
15
b00000001 *
#5006
0?
05
#5011
1?
15
b00000010 *
#5016
0?
05
#5021
1?
15
b00000011 *
#5026
0?
05
#5031
1?
15
b00000100 *
#5036
0?
05
#5041
1?
15
b00000101 *
#5046
0?
05
#5051
1?
15
b00000110 *
#5056
0?
05
#5061
1?
15
b00000111 *
#5066
0?
05
#5071
1?
15
b00001000 *
#5076
0?
05
#5081
1?
15
b00001001 *
#5086
0?
05
#5091
1?
15
b00001010 *
#5096
0?
05
#5101
1?
15
b00001011 *
#5106
0?
05
#5111
1?
15
b00001100 *
#5116
0?
05
#5121
1?
15
b00001101 *
#5126
0?
1&
05
17
#5131
b01 !
1?
15
b00001110 *
#5136
0?
05
#5141
b10 !
b01 0
1?
15
b00001111 *
1=
#5146
0?
05
#5151
b10 0
1?
1%
01
15
02
b00000000 *
0=
0:
0A
#5156
0?
05
#5161
1?
15
b00000001 *
#5166
0?
05
#5171
1?
15
b00000010 *
