Intervox_Reciever/test_run_dir/interVox_Reciever_should_pass/interVox_Reciever.vcd
$date
2022-11-21T18:12+0000
$end
$version
0.2
$end
$comment

$end
$timescale 1ns  $end
$scope module interVox_Reciever $end
 $var wire 1 $ io_INTERVOX_IN $end
 $var wire 1 ' io_DATA_OUT $end
 $var wire 1 ( io_CLK_REC $end
 $var wire 1 ) pll $end
 $var wire 1 * io_DBUG $end
 $var wire 1 - io_NEXT_FRAME $end
 $var wire 1 1 clockRec $end
 $var wire 1 2 clock $end
 $var wire 1 5 io_DBUG1 $end
 $var wire 1 9 reset $end
  $scope module clockRec $end
   $var wire 2 ! inBufr $end
   $var wire 1 " io_DATA_OUT $end
   $var wire 8 # clkDelta $end
   $var wire 8 % lastOne $end
   $var wire 8 & clkCntr1 $end
   $var wire 1 + nextFrame $end
   $var wire 1 , reset $end
   $var wire 1 0 io_CLK_OUT $end
   $var wire 2 3 clkCntr $end
   $var wire 1 4 io_DATA_IN $end
   $var wire 1 6 clkRec $end
   $var wire 2 7 whatChange $end
   $var wire 1 : io_NEXT_FRAME $end
   $var wire 8 ; clkCntr2 $end
   $var wire 1 < change $end
   $var wire 1 = clock $end
  $upscope $end
  $scope module pll $end
   $var wire 1 . locked $end
   $var wire 1 / PLL_IN $end
   $var wire 1 8 PLL_MCLK $end
  $upscope $end
$upscope $end
$enddefinitions $end
$dumpvars
0<
0'
0=
06
0"
08
09
b00000000 %
0:
02
b00000000 &
04
05
0-
b00 !
b00 7
0.
0/
b00000000 #
00
0(
01
0)
b00000000 ;
b00 3
0*
0+
0,
0$
$end
#0
19
1,
#1
12
1=
#6
02
09
0=
0,
#11
b01 3
b00000001 &
12
1=
b00000001 ;
#16
02
0=
#21
b00 3
b00000010 &
12
1=
b00000010 ;
#26
02
0=
#31
b01 3
b00000011 &
12
1=
b00000011 ;
#36
02
0=
#41
b00 3
b00000100 &
12
1=
b00000100 ;
#46
02
0=
#51
b01 3
b00000101 &
12
1=
b00000101 ;
#56
02
0=
#61
b00 3
b00000110 &
12
1=
b00000110 ;
#66
02
0=
#71
b01 3
b00000111 &
12
1=
b00000111 ;
#76
02
0=
#81
b00 3
b00001000 &
12
1=
b00001000 ;
#86
02
0=
#91
b01 3
b00001001 &
12
1=
b00001001 ;
#96
02
0=
#101
b00 3
b00001010 &
12
1=
b00001010 ;
#106
02
0=
#111
b01 3
b00001011 &
12
1=
b00001011 ;
#116
02
0=
#121
b00 3
b00001100 &
12
1=
b00001100 ;
#126
02
0=
#131
b01 3
b00001101 &
12
1=
b00001101 ;
#136
02
0=
#141
b00 3
b00001110 &
12
1=
b00001110 ;
#146
02
0=
#151
b01 3
b00001111 &
12
1=
b00001111 ;
#156
02
0=
#161
b00 3
b00010000 &
12
1=
b00010000 ;
#166
02
0=
#171
b01 3
b00010001 &
12
1=
b00010001 ;
#176
02
0=
#181
b00 3
b00010010 &
12
1=
b00010010 ;
#186
02
0=
#191
b01 3
b00010011 &
12
1=
b00010011 ;
#196
02
0=
#201
b00 3
b00010100 &
12
1=
b00010100 ;
#206
02
0=
#211
b01 3
b00010101 &
12
1=
b00010101 ;
#216
02
0=
#221
b00 3
b00010110 &
12
1=
b00010110 ;
#226
02
0=
#231
b01 3
b00010111 &
12
1=
b00010111 ;
#236
02
0=
#241
b00 3
b00011000 &
12
1=
b00011000 ;
#246
02
0=
#251
b01 3
b00011001 &
12
1=
b00011001 ;
#256
02
0=
#261
b00 3
b00011010 &
12
1=
b00011010 ;
#266
02
0=
#271
b01 3
b00011011 &
12
1=
b00011011 ;
#276
02
0=
#281
b00 3
b00011100 &
12
1=
b00011100 ;
#286
02
0=
#291
b01 3
b00011101 &
12
1=
b00011101 ;
#296
02
0=
#301
b00 3
b00011110 &
12
1=
b00011110 ;
#306
02
0=
#311
b01 3
b00011111 &
12
1=
b00011111 ;
#316
02
0=
#321
b00 3
b00100000 &
12
1=
b00100000 ;
#326
02
0=
#331
b01 3
b00100001 &
12
1=
b00100001 ;
#336
02
0=
#341
b00 3
b00100010 &
12
1=
b00100010 ;
#346
02
0=
#351
b01 3
b00100011 &
12
1=
b00100011 ;
#356
02
0=
#361
b00 3
b00100100 &
12
1=
b00100100 ;
#366
02
0=
#371
b01 3
b00100101 &
12
1=
b00100101 ;
#376
02
0=
#381
b00 3
b00100110 &
12
1=
b00100110 ;
#386
02
0=
#391
b01 3
b00100111 &
12
1=
b00100111 ;
#396
02
0=
#401
b00 3
b00101000 &
12
1=
b00101000 ;
#406
02
0=
#411
b01 3
b00101001 &
12
1=
b00101001 ;
#416
02
0=
#421
b00 3
b00101010 &
12
1=
b00101010 ;
#426
02
0=
#431
b01 3
b00101011 &
12
1=
b00101011 ;
#436
02
0=
#441
b00 3
b00101100 &
12
1=
b00101100 ;
#446
02
0=
#451
b01 3
b00101101 &
12
1=
b00101101 ;
#456
02
0=
#461
b00 3
b00101110 &
12
1=
b00101110 ;
#466
02
0=
#471
b01 3
b00101111 &
12
1=
b00101111 ;
#476
02
0=
#481
b00 3
b00110000 &
12
1=
b00110000 ;
#486
14
02
1$
0=
#491
b01 !
b01 3
b00110001 &
12
1=
b00110001 ;
#496
02
0=
#501
b10 !
b00 3
1<
1"
b00000000 &
b00110001 #
12
1'
1=
b00110010 ;
#506
02
0=
#511
b11 !
b01 3
b00000001 &
12
1=
b01 7
#516
02
0=
#521
b00 3
0<
0"
b00000010 &
12
0'
1=
b10 7
b00000000 ;
#526
02
0=
#531
b01 3
b00000011 &
12
1=
b01 7
b00000001 ;
#536
02
0=
#541
b00 3
b00000100 &
12
1=
b00 7
b00000010 ;
#546
02
0=
#551
b01 3
b00000101 &
12
1=
b00000011 ;
#556
02
0=
#561
b00 3
b00000110 &
12
1=
b00000100 ;
#566
02
0=
#571
b01 3
b00000111 &
12
1=
b00000101 ;
#576
02
0=
#581
b00 3
b00001000 &
12
1=
b00000110 ;
#586
02
0=
#591
b01 3
b00001001 &
12
1=
b00000111 ;
#596
02
0=
#601
b00 3
b00001010 &
12
1=
b00001000 ;
#606
02
0=
#611
b01 3
b00001011 &
12
1=
b00001001 ;
#616
02
0=
#621
b00 3
b00001100 &
12
1=
b00001010 ;
#626
02
0=
#631
b01 3
b00001101 &
12
1=
b00001011 ;
#636
02
0=
#641
b00 3
b00001110 &
12
1=
b00001100 ;
#646
04
02
0$
0=
#651
b10 !
b01 3
b00001111 &
12
1=
b00001101 ;
#656
02
0=
#661
b01 !
b00 3
1<
1"
b00000000 &
b00001111 #
12
1'
1=
b00001110 ;
#666
02
0=
#671
b00 !
b01 3
b00000001 &
12
1=
b01 7
#676
02
0=
#681
b00 3
0<
0"
b00000010 &
12
0'
1=
b10 7
b00000000 ;
#686
02
0=
#691
b01 3
b00000011 &
12
1=
b01 7
b00000001 ;
#696
02
0=
#701
b00 3
b00000100 &
12
1=
b00 7
b00000010 ;
#706
02
0=
#711
b01 3
b00000101 &
12
1=
b00000011 ;
#716
02
0=
#721
b00 3
b00000110 &
12
1=
b00000100 ;
#726
14
02
1$
0=
#731
b01 !
b01 3
b00000111 &
12
1=
b00000101 ;
#736
02
0=
#741
b10 !
b00 3
1<
1"
b00000000 &
b00000111 #
12
1'
1=
b00000110 ;
#746
02
0=
#751
b11 !
b01 3
1-
b00000111 %
b00000001 &
12
1=
1+
1:
b01 7
#756
02
0=
#761
b00 3
0<
0"
b00000010 &
12
0'
1=
b10 7
b00000000 ;
#766
02
0=
#771
b01 3
b00000011 &
12
1=
b01 7
b00000001 ;
#776
02
0=
#781
b00 3
b00000100 &
12
1=
b00 7
b00000010 ;
#786
02
0=
#791
b01 3
b00000101 &
12
1=
b00000011 ;
#796
02
0=
#801
b00 3
b00000110 &
12
1=
b00000100 ;
#806
04
02
0$
0=
#811
b10 !
b01 3
b00000111 &
12
1=
b00000101 ;
#816
02
0=
#821
b01 !
b00 3
1<
1"
b00000000 &
12
1'
1=
b00000110 ;
#826
02
0=
#831
b00 !
b01 3
b00000001 &
12
1=
b01 7
#836
02
0=
#841
b00 3
0<
0"
b00000010 &
12
0'
1=
b10 7
b00000000 ;
#846
02
0=
#851
b01 3
b00000011 &
12
1=
b01 7
b00000001 ;
#856
02
0=
#861
b00 3
b00000100 &
12
1=
b00 7
b00000010 ;
#866
02
0=
#871
b01 3
b00000101 &
12
1=
b00000011 ;
#876
02
0=
#881
b00 3
b00000110 &
12
1=
b00000100 ;
#886
14
02
1$
0=
#891
b01 !
b01 3
b00000111 &
12
1=
b00000101 ;
#896
02
0=
#901
b10 !
b00 3
1<
1"
b00000000 &
12
1'
1=
b00000110 ;
#906
02
0=
#911
b11 !
b01 3
b00000001 &
12
1=
b01 7
#916
02
0=
#921
b00 3
0<
0"
b00000010 &
12
0'
1=
b10 7
b00000000 ;
#926
02
0=
#931
b01 3
b00000011 &
12
1=
b01 7
b00000001 ;
#936
02
0=
#941
b00 3
b00000100 &
12
1=
b00 7
b00000010 ;
#946
02
0=
#951
b01 3
b00000101 &
12
1=
b00000011 ;
#956
02
0=
#961
b00 3
b00000110 &
12
1=
b00000100 ;
#966
04
02
0$
0=
#971
b10 !
b01 3
b00000111 &
12
1=
b00000101 ;
#976
02
0=
#981
b01 !
b00 3
1<
1"
b00000000 &
12
1'
1=
b00000110 ;
#986
02
0=
#991
b00 !
b01 3
b00000001 &
12
1=
b01 7
#996
02
0=
#1001
b00 3
0<
0"
b00000010 &
12
0'
1=
b10 7
b00000000 ;
#1006
02
0=
#1011
b01 3
b00000011 &
12
1=
b01 7
b00000001 ;
#1016
02
0=
#1021
b00 3
b00000100 &
12
1=
b00 7
b00000010 ;
#1026
02
0=
#1031
b01 3
b00000101 &
12
1=
b00000011 ;
#1036
02
0=
#1041
b00 3
b00000110 &
12
1=
b00000100 ;
#1046
14
02
1$
0=
#1051
b01 !
b01 3
b00000111 &
12
1=
b00000101 ;
#1056
02
0=
#1061
b10 !
b00 3
1<
1"
b00000000 &
12
1'
1=
b00000110 ;
#1066
02
0=
#1071
b11 !
b01 3
b00000001 &
12
1=
b01 7
#1076
02
0=
#1081
b00 3
0<
0"
b00000010 &
12
0'
1=
b10 7
b00000000 ;
#1086
02
0=
#1091
b01 3
b00000011 &
12
1=
b01 7
b00000001 ;
#1096
02
0=
#1101
b00 3
b00000100 &
12
1=
b00 7
b00000010 ;
#1106
02
0=
#1111
b01 3
b00000101 &
12
1=
b00000011 ;
#1116
02
0=
#1121
b00 3
b00000110 &
12
1=
b00000100 ;
#1126
04
02
0$
0=
#1131
b10 !
b01 3
b00000111 &
12
1=
b00000101 ;
#1136
02
0=
#1141
b01 !
b00 3
1<
1"
b00000000 &
12
1'
1=
b00000110 ;
#1146
02
0=
#1151
b00 !
b01 3
b00000001 &
12
1=
b01 7
#1156
02
0=
#1161
b00 3
0<
0"
b00000010 &
12
0'
1=
b10 7
b00000000 ;
#1166
02
0=
#1171
b01 3
b00000011 &
12
1=
b01 7
b00000001 ;
#1176
02
0=
#1181
b00 3
b00000100 &
12
1=
b00 7
b00000010 ;
#1186
02
0=
#1191
b01 3
b00000101 &
12
1=
b00000011 ;
#1196
02
0=
#1201
b00 3
b00000110 &
12
1=
b00000100 ;
#1206
14
02
1$
0=
#1211
b01 !
b01 3
b00000111 &
12
1=
b00000101 ;
#1216
02
0=
#1221
b10 !
b00 3
1<
1"
b00000000 &
12
1'
1=
b00000110 ;
#1226
02
0=
#1231
b11 !
b01 3
b00000001 &
12
1=
b01 7
#1236
02
0=
#1241
b00 3
0<
0"
b00000010 &
12
0'
1=
b10 7
b00000000 ;
#1246
02
0=
#1251
b01 3
b00000011 &
12
1=
b01 7
b00000001 ;
#1256
02
0=
#1261
b00 3
b00000100 &
12
1=
b00 7
b00000010 ;
#1266
02
0=
#1271
b01 3
b00000101 &
12
1=
b00000011 ;
#1276
02
0=
#1281
b00 3
b00000110 &
12
1=
b00000100 ;
#1286
04
02
0$
0=
#1291
b10 !
b01 3
b00000111 &
12
1=
b00000101 ;
#1296
02
0=
#1301
b01 !
b00 3
1<
1"
b00000000 &
12
1'
1=
b00000110 ;
#1306
02
0=
#1311
b00 !
b01 3
b00000001 &
12
1=
b01 7
#1316
02
0=
#1321
b00 3
0<
0"
b00000010 &
12
0'
1=
b10 7
b00000000 ;
#1326
02
0=
#1331
b01 3
b00000011 &
12
1=
b01 7
b00000001 ;
#1336
02
0=
#1341
b00 3
b00000100 &
12
1=
b00 7
b00000010 ;
#1346
02
0=
#1351
b01 3
b00000101 &
12
1=
b00000011 ;
#1356
02
0=
#1361
b00 3
b00000110 &
12
1=
b00000100 ;
#1366
02
0=
#1371
b01 3
b00000111 &
12
1=
b00000101 ;
#1376
02
0=
#1381
b00 3
b00001000 &
12
1=
b00000110 ;
#1386
02
0=
#1391
b01 3
10
b00001001 &
12
1*
16
1=
1/
b00000000 ;
#1396
02
0=
#1401
b00 3
b00001010 &
12
1=
b00000001 ;
#1406
02
0=
#1411
b01 3
b00001011 &
12
1=
b00000010 ;
#1416
02
0=
#1421
b00 3
b00001100 &
12
1=
b00000011 ;
#1426
02
0=
#1431
b01 3
b00001101 &
12
1=
b00000100 ;
#1436
02
0=
#1441
b00 3
b00001110 &
12
1=
b00000101 ;
#1446
14
02
1$
0=
#1451
b01 !
b01 3
b00001111 &
12
1=
b00000110 ;
#1456
02
0=
#1461
b00 3
1<
b00000000 &
1'
06
1=
0/
b10 !
00
1"
b00001111 #
12
0*
b00000000 ;
#1466
02
0=
#1471
b11 !
b01 3
0-
b00000001 &
12
1=
0+
0:
b01 7
#1476
02
0=
#1481
b00 3
0<
0"
b00000010 &
12
0'
1=
b10 7
#1486
02
0=
#1491
b01 3
b00000011 &
12
1=
b01 7
b00000001 ;
#1496
02
0=
#1501
b00 3
b00000100 &
12
1=
b00 7
b00000010 ;
#1506
02
0=
#1511
b01 3
b00000101 &
12
1=
b00000011 ;
#1516
02
0=
#1521
b00 3
b00000110 &
12
1=
b00000100 ;
#1526
02
0=
#1531
b01 3
b00000111 &
12
1=
b00000101 ;
#1536
02
0=
#1541
b00 3
b00001000 &
12
1=
b00000110 ;
#1546
02
0=
#1551
b01 3
10
b00001001 &
12
1*
16
1=
1/
b00000000 ;
#1556
02
0=
#1561
b00 3
b00001010 &
12
1=
b00000001 ;
#1566
02
0=
#1571
b01 3
b00001011 &
12
1=
b00000010 ;
#1576
02
0=
#1581
b00 3
b00001100 &
12
1=
b00000011 ;
#1586
02
0=
#1591
b01 3
b00001101 &
12
1=
b00000100 ;
#1596
02
0=
#1601
b00 3
b00001110 &
12
1=
b00000101 ;
#1606
04
02
0$
0=
#1611
b10 !
b01 3
b00001111 &
12
1=
b00000110 ;
#1616
02
0=
#1621
b01 !
00
b00 3
1<
1"
b00000000 &
12
0*
1'
06
1=
0/
b00000000 ;
#1626
02
0=
#1631
b00 !
b01 3
b00000001 &
12
1=
b01 7
#1636
02
0=
#1641
b00 3
0<
0"
b00000010 &
12
0'
1=
b10 7
#1646
02
0=
#1651
b01 3
b00000011 &
12
1=
b01 7
b00000001 ;
#1656
02
0=
#1661
b00 3
b00000100 &
12
1=
b00 7
b00000010 ;
#1666
02
0=
#1671
b01 3
b00000101 &
12
1=
b00000011 ;
#1676
02
0=
#1681
b00 3
b00000110 &
12
1=
b00000100 ;
#1686
02
0=
#1691
b01 3
b00000111 &
12
1=
b00000101 ;
#1696
02
0=
#1701
b00 3
b00001000 &
12
1=
b00000110 ;
#1706
02
0=
#1711
b01 3
10
b00001001 &
12
1*
16
1=
1/
b00000000 ;
#1716
02
0=
#1721
b00 3
b00001010 &
12
1=
b00000001 ;
#1726
02
0=
#1731
b01 3
b00001011 &
12
1=
b00000010 ;
#1736
02
0=
#1741
b00 3
b00001100 &
12
1=
b00000011 ;
#1746
02
0=
#1751
b01 3
b00001101 &
12
1=
b00000100 ;
#1756
02
0=
#1761
b00 3
b00001110 &
12
1=
b00000101 ;
#1766
14
02
1$
0=
#1771
b01 !
b01 3
b00001111 &
12
1=
b00000110 ;
#1776
02
0=
#1781
b10 !
00
b00 3
1<
1"
b00000000 &
12
0*
1'
06
1=
0/
b00000000 ;
#1786
02
0=
#1791
b11 !
b01 3
b00000001 &
12
1=
b01 7
#1796
02
0=
#1801
b00 3
0<
0"
b00000010 &
12
0'
1=
b10 7
#1806
02
0=
#1811
b01 3
b00000011 &
12
1=
b01 7
b00000001 ;
#1816
02
0=
#1821
b00 3
b00000100 &
12
1=
b00 7
b00000010 ;
#1826
02
0=
#1831
b01 3
b00000101 &
12
1=
b00000011 ;
#1836
02
0=
#1841
b00 3
b00000110 &
12
1=
b00000100 ;
#1846
02
0=
#1851
b01 3
b00000111 &
12
1=
b00000101 ;
#1856
02
0=
#1861
b00 3
b00001000 &
12
1=
b00000110 ;
#1866
02
0=
#1871
b01 3
10
b00001001 &
12
1*
16
1=
1/
b00000000 ;
#1876
02
0=
#1881
b00 3
b00001010 &
12
1=
b00000001 ;
#1886
02
0=
#1891
b01 3
b00001011 &
12
1=
b00000010 ;
#1896
02
0=
#1901
b00 3
b00001100 &
12
1=
b00000011 ;
#1906
02
0=
#1911
b01 3
b00001101 &
12
1=
b00000100 ;
#1916
02
0=
#1921
b00 3
b00001110 &
12
1=
b00000101 ;
#1926
04
02
0$
0=
#1931
b10 !
b01 3
b00001111 &
12
1=
b00000110 ;
#1936
02
0=
#1941
b01 !
00
b00 3
1<
1"
b00000000 &
12
0*
1'
06
1=
0/
b00000000 ;
#1946
02
0=
#1951
b00 !
b01 3
b00000001 &
12
1=
b01 7
#1956
02
0=
#1961
b00 3
0<
0"
b00000010 &
12
0'
1=
b10 7
#1966
02
0=
#1971
b01 3
b00000011 &
12
1=
b01 7
b00000001 ;
#1976
02
0=
#1981
b00 3
b00000100 &
12
1=
b00 7
b00000010 ;
#1986
02
0=
#1991
b01 3
b00000101 &
12
1=
b00000011 ;
#1996
02
0=
#2001
b00 3
b00000110 &
12
1=
b00000100 ;
#2006
14
02
1$
0=
#2011
b01 !
b01 3
b00000111 &
12
1=
b00000101 ;
#2016
02
0=
#2021
b10 !
b00 3
1<
1"
b00000000 &
b00000111 #
12
1'
1=
b00000110 ;
#2026
02
0=
#2031
b11 !
b01 3
1-
b00000001 &
12
1=
1+
1:
b01 7
#2036
02
0=
#2041
b00 3
0<
0"
b00000010 &
12
0'
1=
b10 7
b00000000 ;
#2046
02
0=
#2051
b01 3
b00000011 &
12
1=
b01 7
b00000001 ;
#2056
02
0=
#2061
b00 3
b00000100 &
12
1=
b00 7
b00000010 ;
#2066
02
0=
#2071
b01 3
b00000101 &
12
1=
b00000011 ;
#2076
02
0=
#2081
b00 3
b00000110 &
12
1=
b00000100 ;
#2086
04
02
0$
0=
#2091
b10 !
b01 3
b00000111 &
12
1=
b00000101 ;
#2096
02
0=
#2101
b01 !
b00 3
1<
1"
b00000000 &
12
1'
1=
b00000110 ;
#2106
02
0=
#2111
b00 !
b01 3
b00000001 &
12
1=
b01 7
#2116
02
0=
#2121
b00 3
0<
0"
b00000010 &
12
0'
1=
b10 7
b00000000 ;
#2126
02
0=
#2131
b01 3
b00000011 &
12
1=
b01 7
b00000001 ;
#2136
02
0=
#2141
b00 3
b00000100 &
12
1=
b00 7
b00000010 ;
#2146
02
0=
#2151
b01 3
b00000101 &
12
1=
b00000011 ;
#2156
02
0=
#2161
b00 3
b00000110 &
12
1=
b00000100 ;
#2166
14
02
1$
0=
#2171
b01 !
b01 3
b00000111 &
12
1=
b00000101 ;
#2176
02
0=
#2181
b10 !
b00 3
1<
1"
b00000000 &
12
1'
1=
b00000110 ;
#2186
02
0=
#2191
b11 !
b01 3
b00000001 &
12
1=
b01 7
#2196
02
0=
#2201
b00 3
0<
0"
b00000010 &
12
0'
1=
b10 7
b00000000 ;
#2206
02
0=
#2211
b01 3
b00000011 &
12
1=
b01 7
b00000001 ;
#2216
02
0=
#2221
b00 3
b00000100 &
12
1=
b00 7
b00000010 ;
#2226
02
0=
#2231
b01 3
b00000101 &
12
1=
b00000011 ;
#2236
02
0=
#2241
b00 3
b00000110 &
12
1=
b00000100 ;
#2246
04
02
0$
0=
#2251
b10 !
b01 3
b00000111 &
12
1=
b00000101 ;
#2256
02
0=
#2261
b01 !
b00 3
1<
1"
b00000000 &
12
1'
1=
b00000110 ;
#2266
02
0=
#2271
b00 !
b01 3
b00000001 &
12
1=
b01 7
#2276
02
0=
#2281
b00 3
0<
0"
b00000010 &
12
0'
1=
b10 7
b00000000 ;
#2286
02
0=
#2291
b01 3
b00000011 &
12
1=
b01 7
b00000001 ;
#2296
02
0=
#2301
b00 3
b00000100 &
12
1=
b00 7
b00000010 ;
#2306
02
0=
#2311
b01 3
b00000101 &
12
1=
b00000011 ;
#2316
02
0=
#2321
b00 3
b00000110 &
12
1=
b00000100 ;
#2326
14
02
1$
0=
#2331
b01 !
b01 3
b00000111 &
12
1=
b00000101 ;
#2336
02
0=
#2341
b10 !
b00 3
1<
1"
b00000000 &
12
1'
1=
b00000110 ;
#2346
02
0=
#2351
b11 !
b01 3
b00000001 &
12
1=
b01 7
#2356
02
0=
#2361
b00 3
0<
0"
b00000010 &
12
0'
1=
b10 7
b00000000 ;
#2366
02
0=
#2371
b01 3
b00000011 &
12
1=
b01 7
b00000001 ;
#2376
02
0=
#2381
b00 3
b00000100 &
12
1=
b00 7
b00000010 ;
#2386
02
0=
#2391
b01 3
b00000101 &
12
1=
b00000011 ;
#2396
02
0=
#2401
b00 3
b00000110 &
12
1=
b00000100 ;
#2406
04
02
0$
0=
#2411
b10 !
b01 3
b00000111 &
12
1=
b00000101 ;
#2416
02
0=
#2421
b01 !
b00 3
1<
1"
b00000000 &
12
1'
1=
b00000110 ;
#2426
02
0=
#2431
b00 !
b01 3
b00000001 &
12
1=
b01 7
#2436
02
0=
#2441
b00 3
0<
0"
b00000010 &
12
0'
1=
b10 7
b00000000 ;
#2446
02
0=
#2451
b01 3
b00000011 &
12
1=
b01 7
b00000001 ;
#2456
02
0=
#2461
b00 3
b00000100 &
12
1=
b00 7
b00000010 ;
#2466
02
0=
#2471
b01 3
b00000101 &
12
1=
b00000011 ;
#2476
02
0=
#2481
b00 3
b00000110 &
12
1=
b00000100 ;
#2486
14
02
1$
0=
#2491
b01 !
b01 3
b00000111 &
12
1=
b00000101 ;
#2496
02
0=
#2501
b10 !
b00 3
1<
1"
b00000000 &
12
1'
1=
b00000110 ;
#2506
02
0=
#2511
b11 !
b01 3
b00000001 &
12
1=
b01 7
#2516
02
0=
#2521
b00 3
0<
0"
b00000010 &
12
0'
1=
b10 7
b00000000 ;
#2526
02
0=
#2531
b01 3
b00000011 &
12
1=
b01 7
b00000001 ;
#2536
02
0=
#2541
b00 3
b00000100 &
12
1=
b00 7
b00000010 ;
#2546
02
0=
#2551
b01 3
b00000101 &
12
1=
b00000011 ;
#2556
02
0=
#2561
b00 3
b00000110 &
12
1=
b00000100 ;
#2566
04
02
0$
0=
#2571
b10 !
b01 3
b00000111 &
12
1=
b00000101 ;
#2576
02
0=
#2581
b01 !
b00 3
1<
1"
b00000000 &
12
1'
1=
b00000110 ;
#2586
02
0=
#2591
b00 !
b01 3
b00000001 &
12
1=
b01 7
#2596
02
0=
#2601
b00 3
0<
0"
b00000010 &
12
0'
1=
b10 7
b00000000 ;
#2606
02
0=
#2611
b01 3
b00000011 &
12
1=
b01 7
b00000001 ;
#2616
02
0=
#2621
b00 3
b00000100 &
12
1=
b00 7
b00000010 ;
#2626
02
0=
#2631
b01 3
b00000101 &
12
1=
b00000011 ;
#2636
02
0=
#2641
b00 3
b00000110 &
12
1=
b00000100 ;
#2646
14
02
1$
0=
#2651
b01 !
b01 3
b00000111 &
12
1=
b00000101 ;
#2656
02
0=
#2661
b10 !
b00 3
1<
1"
b00000000 &
12
1'
1=
b00000110 ;
#2666
02
0=
#2671
b11 !
b01 3
b00000001 &
12
1=
b01 7
#2676
02
0=
#2681
b00 3
0<
0"
b00000010 &
12
0'
1=
b10 7
b00000000 ;
#2686
02
0=
#2691
b01 3
b00000011 &
12
1=
b01 7
b00000001 ;
#2696
02
0=
#2701
b00 3
b00000100 &
12
1=
b00 7
b00000010 ;
#2706
02
0=
#2711
b01 3
b00000101 &
12
1=
b00000011 ;
#2716
02
0=
#2721
b00 3
b00000110 &
12
1=
b00000100 ;
#2726
04
02
0$
0=
#2731
b10 !
b01 3
b00000111 &
12
1=
b00000101 ;
#2736
02
0=
#2741
b01 !
b00 3
1<
1"
b00000000 &
12
1'
1=
b00000110 ;
#2746
02
0=
#2751
b00 !
b01 3
b00000001 &
12
1=
b01 7
#2756
02
0=
#2761
b00 3
0<
0"
b00000010 &
12
0'
1=
b10 7
b00000000 ;
#2766
02
0=
#2771
b01 3
b00000011 &
12
1=
b01 7
b00000001 ;
#2776
02
0=
#2781
b00 3
b00000100 &
12
1=
b00 7
b00000010 ;
#2786
02
0=
#2791
b01 3
b00000101 &
12
1=
b00000011 ;
#2796
02
0=
#2801
b00 3
b00000110 &
12
1=
b00000100 ;
#2806
14
02
1$
0=
#2811
b01 !
b01 3
b00000111 &
12
1=
b00000101 ;
#2816
02
0=
#2821
b10 !
b00 3
1<
1"
b00000000 &
12
1'
1=
b00000110 ;
#2826
02
0=
#2831
b11 !
b01 3
b00000001 &
12
1=
b01 7
#2836
02
0=
#2841
b00 3
0<
0"
b00000010 &
12
0'
1=
b10 7
b00000000 ;
#2846
02
0=
#2851
b01 3
b00000011 &
12
1=
b01 7
b00000001 ;
#2856
02
0=
#2861
b00 3
b00000100 &
12
1=
b00 7
b00000010 ;
#2866
02
0=
#2871
b01 3
b00000101 &
12
1=
b00000011 ;
#2876
02
0=
#2881
b00 3
b00000110 &
12
1=
b00000100 ;
#2886
04
02
0$
0=
#2891
b10 !
b01 3
b00000111 &
12
1=
b00000101 ;
#2896
02
0=
#2901
b01 !
b00 3
1<
1"
b00000000 &
12
1'
1=
b00000110 ;
#2906
02
0=
#2911
b00 !
b01 3
b00000001 &
12
1=
b01 7
#2916
02
0=
#2921
b00 3
0<
0"
b00000010 &
12
0'
1=
b10 7
b00000000 ;
#2926
02
0=
#2931
b01 3
b00000011 &
12
1=
b01 7
b00000001 ;
#2936
02
0=
#2941
b00 3
b00000100 &
12
1=
b00 7
b00000010 ;
#2946
02
0=
#2951
b01 3
b00000101 &
12
1=
b00000011 ;
#2956
02
0=
#2961
b00 3
b00000110 &
12
1=
b00000100 ;
#2966
14
02
1$
0=
#2971
b01 !
b01 3
b00000111 &
12
1=
b00000101 ;
#2976
02
0=
#2981
b10 !
b00 3
1<
1"
b00000000 &
12
1'
1=
b00000110 ;
#2986
02
0=
#2991
b11 !
b01 3
b00000001 &
12
1=
b01 7
#2996
02
0=
#3001
b00 3
0<
0"
b00000010 &
12
0'
1=
b10 7
b00000000 ;
#3006
02
0=
#3011
b01 3
b00000011 &
12
1=
b01 7
b00000001 ;
#3016
02
0=
#3021
b00 3
b00000100 &
12
1=
b00 7
b00000010 ;
#3026
02
0=
#3031
b01 3
b00000101 &
12
1=
b00000011 ;
#3036
02
0=
#3041
b00 3
b00000110 &
12
1=
b00000100 ;
#3046
04
02
0$
0=
#3051
b10 !
b01 3
b00000111 &
12
1=
b00000101 ;
#3056
02
0=
#3061
b01 !
b00 3
1<
1"
b00000000 &
12
1'
1=
b00000110 ;
#3066
02
0=
#3071
b00 !
b01 3
b00000001 &
12
1=
b01 7
#3076
02
0=
#3081
b00 3
0<
0"
b00000010 &
12
0'
1=
b10 7
b00000000 ;
#3086
02
0=
#3091
b01 3
b00000011 &
12
1=
b01 7
b00000001 ;
#3096
02
0=
#3101
b00 3
b00000100 &
12
1=
b00 7
b00000010 ;
#3106
02
0=
#3111
b01 3
b00000101 &
12
1=
b00000011 ;
#3116
02
0=
#3121
b00 3
b00000110 &
12
1=
b00000100 ;
#3126
14
02
1$
0=
#3131
b01 !
b01 3
b00000111 &
12
1=
b00000101 ;
#3136
02
0=
#3141
b10 !
b00 3
1<
1"
b00000000 &
12
1'
1=
b00000110 ;
#3146
02
0=
#3151
b11 !
b01 3
b00000001 &
12
1=
b01 7
#3156
02
0=
#3161
b00 3
0<
0"
b00000010 &
12
0'
1=
b10 7
b00000000 ;
#3166
02
0=
#3171
b01 3
b00000011 &
12
1=
b01 7
b00000001 ;
#3176
02
0=
#3181
b00 3
b00000100 &
12
1=
b00 7
b00000010 ;
#3186
02
0=
#3191
b01 3
b00000101 &
12
1=
b00000011 ;
#3196
02
0=
#3201
b00 3
b00000110 &
12
1=
b00000100 ;
#3206
04
02
0$
0=
#3211
b10 !
b01 3
b00000111 &
12
1=
b00000101 ;
#3216
02
0=
#3221
b01 !
b00 3
1<
1"
b00000000 &
12
1'
1=
b00000110 ;
#3226
02
0=
#3231
b00 !
b01 3
b00000001 &
12
1=
b01 7
#3236
02
0=
#3241
b00 3
0<
0"
b00000010 &
12
0'
1=
b10 7
b00000000 ;
#3246
02
0=
#3251
b01 3
b00000011 &
12
1=
b01 7
b00000001 ;
#3256
02
0=
#3261
b00 3
b00000100 &
12
1=
b00 7
b00000010 ;
#3266
02
0=
#3271
b01 3
b00000101 &
12
1=
b00000011 ;
#3276
02
0=
#3281
b00 3
b00000110 &
12
1=
b00000100 ;
#3286
14
02
1$
0=
#3291
b01 !
b01 3
b00000111 &
12
1=
b00000101 ;
#3296
02
0=
#3301
b10 !
b00 3
1<
1"
b00000000 &
12
1'
1=
b00000110 ;
#3306
02
0=
#3311
b11 !
b01 3
b00000001 &
12
1=
b01 7
#3316
02
0=
#3321
b00 3
0<
0"
b00000010 &
12
0'
1=
b10 7
b00000000 ;
#3326
02
0=
#3331
b01 3
b00000011 &
12
1=
b01 7
b00000001 ;
#3336
02
0=
#3341
b00 3
b00000100 &
12
1=
b00 7
b00000010 ;
#3346
02
0=
