Intervox_Reciever/test_run_dir/interVox_Reciever_should_pass/interVox_Receiver.vcd
$date
2023-01-17T00:33+0000
$end
$version
0.2
$end
$comment

$end
$timescale 1ns  $end
$scope module interVox_Receiver $end
 $var wire 1 ' io_BCLK $end
 $var wire 1 6 io_INTERVOX_IN $end
 $var wire 1 7 io_LRCLK $end
 $var wire 1 @ io_SDATA $end
 $var wire 1 A io_DATA_OUT $end
 $var wire 1 B io_BTN_D $end
 $var wire 1 D io_CLK_REC $end
 $var wire 1 J io_DBUG $end
 $var wire 1 V io_BTN_L $end
 $var wire 1 Y io_BTN_C $end
 $var wire 16 _ io_SW $end
 $var wire 1 ` io_BTN_R $end
 $var wire 1 a clockRec $end
 $var wire 1 b clock $end
 $var wire 16 c io_LED $end
 $var wire 1 g io_DBUG1 $end
 $var wire 1 | reset $end
 $var wire 1 "+ i2sTrans $end
 $var wire 1 ", io_CLK_DBUG $end
  $scope module i2sTrans $end
   $var wire 1 , lrclk $end
   $var wire 1 1 io_LRCLK $end
   $var wire 1 ; io_SDATA $end
   $var wire 8 > bitCntr $end
   $var wire 1 P reset $end
   $var wire 1 Q sdataO $end
   $var wire 1 W io_NEXT $end
   $var wire 1 Z io_BCLK $end
   $var wire 1 x io_CLK_IN $end
   $var wire 1 ~ clock $end
  $upscope $end
  $scope module clockRec.DATAEDGE $end
  $upscope $end
  $scope module clockRec.BFR $end
  $upscope $end
  $scope module clockRec $end
   $var wire 1 " dataOut $end
   $var wire 1 # io_DATA_OUT $end
   $var wire 16 ( leds $end
   $var wire 16 * io_SW $end
   $var wire 1 + zeroFlipped $end
   $var wire 8 : lastOne $end
   $var wire 1 = syncFlipped1 $end
   $var wire 8 F deltaCntr $end
   $var wire 1 N io_DBUG $end
   $var wire 1 R BFR1 $end
   $var wire 1 T reset $end
   $var wire 1 U io_BTN_C $end
   $var wire 1 \ io_CLK_OUT $end
   $var wire 1 e io_DATA_IN $end
   $var wire 1 j io_DBUG1 $end
   $var wire 1 k change_REG $end
   $var wire 1 q clkRec $end
   $var wire 7 w bitCntr $end
   $var wire 1 { BFR $end
   $var wire 16 } io_LED $end
   $var wire 1 "" syncFlipped $end
   $var wire 1 "# change_REG_1 $end
   $var wire 1 "% DATAEDGE $end
   $var wire 1 "' change $end
   $var wire 1 "( syncWord $end
   $var wire 1 "* clock $end
    $scope module BFR $end
     $var wire 64 0 mem $end
     $var wire 64 f io_dataOut $end
     $var wire 1 l clock $end
     $var wire 64 n io_dataIn $end
     $var wire 1 t mem_rdwrPort_r_addr_pipe_0 $end
     $var wire 1 u mem_rdwrPort_r_en_pipe_0 $end
     $var wire 1 z io_write $end
     $var wire 1 "! io_enable $end
      $scope module mem $end
       $var wire 64 < rdwrPort_w $end
        $scope module rdwrPort_w $end
         $var wire 1 ! en $end
         $var wire 1 $ pipeline_addr_0 $end
         $var wire 1 / addr $end
         $var wire 1 5 clk $end
         $var wire 64 C pipeline_data_0 $end
         $var wire 64 L data $end
         $var wire 1 S valid $end
         $var wire 1 v mask $end
         $var wire 1 ") pipeline_valid_0 $end
        $upscope $end
        $scope module rdwrPort_r $end
         $var wire 1 & clk $end
         $var wire 1 2 addr $end
         $var wire 64 X data $end
         $var wire 1 ^ en $end
        $upscope $end
      $upscope $end
    $upscope $end
    $scope module BFR1 $end
     $var wire 64 4 io_dataIn $end
     $var wire 1 9 clock $end
     $var wire 1 G io_enable $end
     $var wire 1 O mem_rdwrPort_r_en_pipe_0 $end
     $var wire 1 m io_write $end
     $var wire 64 o io_dataOut $end
     $var wire 64 r mem $end
     $var wire 1 s mem_rdwrPort_r_addr_pipe_0 $end
      $scope module mem $end
       $var wire 64 - rdwrPort_w $end
        $scope module rdwrPort_w $end
         $var wire 1 % pipeline_valid_0 $end
         $var wire 1 ) mask $end
         $var wire 1 I addr $end
         $var wire 1 [ valid $end
         $var wire 1 ] pipeline_addr_0 $end
         $var wire 1 d clk $end
         $var wire 64 i data $end
         $var wire 1 y en $end
         $var wire 64 "& pipeline_data_0 $end
        $upscope $end
        $scope module rdwrPort_r $end
         $var wire 1 8 clk $end
         $var wire 1 H en $end
         $var wire 1 M addr $end
         $var wire 64 p data $end
        $upscope $end
      $upscope $end
    $upscope $end
    $scope module DATAEDGE $end
     $var wire 1 . change $end
     $var wire 2 3 inBufr $end
     $var wire 1 ? io_CHANGE $end
     $var wire 1 E reset $end
     $var wire 1 K io_INPUT $end
     $var wire 2 h inBufrPrev $end
     $var wire 1 "$ change_REG $end
     $var wire 1 "- clock $end
    $upscope $end
  $upscope $end
  $scope module clockRec.BFR1 $end
  $upscope $end
$upscope $end
$enddefinitions $end
$dumpvars
b0000000000000000000000000000000000000000000000000000000000000000 o
0;
0&
0""
b0000000000000000 _
0Z
b0000000 w
0R
0=
b0000000000000000000000000000000000000000000000000000000000000000 i
b0000000000000000000000000000000000000000000000000000000000000000 L
0q
0T
07
0"
0k
0V
0N
09
0"-
0m
0e
0P
0"'
0|
0g
b0000000000000000000000000000000000000000000000000000000000000000 -
b00 h
0J
05
0")
0~
0a
0"+
0D
0/
0"#
b0000000000000000000000000000000000000000000000000000000000000000 p
b0000000000000000 }
0x
0[
01
0"%
b0000000000000000000000000000000000000000000000000000000000000000 r
0)
0z
0]
0H
0@
0+
0t
0W
0B
0"!
b0000000000000000 *
0%
b0000000000000000000000000000000000000000000000000000000000000000 n
b0000000000000000000000000000000000000000000000000000000000000000 <
0v
b0000000000000000000000000000000000000000000000000000000000000000 4
0Y
0'
b00000000 F
0S
06
0!
0j
b0000000000000000000000000000000000000000000000000000000000000000 0
0U
0M
b0000000000000000 (
0",
08
0#
0l
0d
0O
b0000000000000000000000000000000000000000000000000000000000000000 f
02
0{
0Q
0I
0"(
b00000000 >
b0000000000000000000000000000000000000000000000000000000000000000 C
0`
0K
0"*
0.
0b
0E
0"$
b00000000 :
0y
0\
0G
0?
b00 3
0s
0^
b0000000000000000 c
b0000000000000000000000000000000000000000000000000000000000000000 "&
0A
0,
b0000000000000000000000000000000000000000000000000000000000000000 X
0$
0u
$end
#0
1T
1"!
1G
1E
1|
1P
#1
1u
1&
15
1~
1"-
1b
1d
18
19
1H
1l
1O
b00001111 :
1"*
1^
#6
0&
05
0~
0E
0"-
0b
0T
0d
08
09
0l
0"*
0|
0P
#11
b00000001 F
1d
18
15
1&
19
1~
1l
1"-
1"*
1b
#16
0d
08
05
0&
09
0~
0l
0"-
0"*
0b
#21
b00000010 F
1d
18
15
1&
19
1~
1l
1"-
1"*
1b
#26
0d
08
05
0&
09
0~
0l
0"-
0"*
0b
#31
b00000011 F
1d
18
15
1&
19
1~
1l
1"-
1"*
1b
#36
0d
08
05
0&
09
0~
0l
0"-
0"*
0b
#41
b00000100 F
1d
18
15
1&
19
1~
1l
1"-
1"*
1b
#46
0d
08
05
0&
09
0~
0l
0"-
0"*
0b
#51
b00000101 F
1d
18
15
1&
19
1~
1l
1"-
1"*
1b
#56
0d
08
05
0&
09
0~
0l
0"-
0"*
0b
#61
b00000110 F
1d
18
15
1&
19
1~
1l
1"-
1"*
1b
#66
0d
08
05
0&
09
0~
0l
0"-
0"*
0b
#71
b00000111 F
1d
18
15
1&
19
1~
1l
1"-
1"*
1b
#76
0d
08
05
0&
09
0~
0l
0"-
0"*
0b
#81
b00001000 F
1d
18
15
1&
19
1~
1l
1"-
1"*
1b
#86
0d
08
05
0&
09
0~
0l
0"-
0"*
0b
#91
b00001001 F
1d
18
15
1&
19
1~
1l
1"-
1"*
1b
#96
0d
08
05
0&
09
0~
0l
0"-
0"*
0b
#101
b00001010 F
1d
18
15
1&
19
1~
1l
1"-
1"*
1b
#106
0d
08
05
0&
09
0~
0l
0"-
0"*
0b
#111
b00001011 F
1d
18
15
1&
19
1~
1l
1"-
1"*
1b
#116
0d
08
05
0&
09
0~
0l
0"-
0"*
0b
#121
b00001100 F
1d
18
15
1&
19
1~
1l
1"-
1"*
1b
#126
0d
08
05
0&
09
0~
0l
0"-
0"*
0b
#131
b00001101 F
1d
18
15
1&
19
1~
1l
1"-
1"*
1b
#136
0d
08
05
0&
09
0~
0l
0"-
0"*
0b
#141
b00001110 F
1d
18
15
1&
19
1~
1l
1"-
1"*
1b
#146
0d
08
05
0&
09
0~
0l
0"-
0"*
0b
#151
b00001111 F
1d
18
15
1&
19
1~
1l
1"-
1"*
1b
#156
0d
08
05
0&
09
0~
0l
0"-
0"*
0b
#161
b00010000 F
1d
18
15
1&
19
1~
1l
1"-
1"*
1b
#166
0d
08
05
0&
09
0~
0l
0"-
0"*
0b
#171
b00010001 F
1d
18
15
1&
19
1~
1l
1"-
1"*
1b
#176
0d
08
05
0&
09
0~
0l
0"-
0"*
0b
#181
1v
1&
15
1S
1~
1"-
1b
1!
b00010010 F
1d
18
1z
19
1l
1"*
#186
0d
08
05
0&
09
0~
0l
0"-
0"*
0b
#191
0u
0v
1&
15
1D
0S
1'
1~
1Z
1x
1"-
1b
1q
1\
0!
b00010011 F
1d
18
0z
19
1l
1")
1+
0^
1"*
#196
0d
08
05
0&
09
0~
0l
0"-
0"*
0b
#201
1Q
1u
1&
15
b0000001 w
1~
1"-
17
b00000001 >
1b
b00010100 F
11
1@
1d
18
19
1l
0")
1^
1"*
1,
1;
#206
0d
08
05
0&
09
0~
0l
0"-
0"*
0b
#211
b00010101 F
1d
18
15
1&
b0000010 w
19
1~
1l
1"-
1"*
1b
b00000010 >
#216
0d
08
05
0&
09
0~
0l
0"-
0"*
0b
#221
b00010110 F
1d
18
15
1&
b0000011 w
19
1~
1l
1"-
1"*
1b
b00000011 >
#226
0d
08
05
0&
09
0~
0l
0"-
0"*
0b
#231
b00010111 F
1d
18
15
1&
b0000100 w
19
1~
1l
1"-
1"*
1b
b00000100 >
#236
0d
08
05
0&
09
0~
0l
0"-
0"*
0b
#241
b00011000 F
1d
18
15
1&
b0000101 w
19
1~
1l
1"-
1"*
1b
b00000101 >
#246
0d
08
05
0&
09
0~
0l
0"-
0"*
0b
#251
b00011001 F
1d
18
15
1&
b0000110 w
19
1~
1l
1"-
1"*
1b
b00000110 >
#256
0d
08
05
0&
09
0~
0l
0"-
0"*
0b
#261
b00011010 F
1d
18
15
1&
b0000111 w
19
1~
1l
1"-
1"*
1b
b00000111 >
#266
0d
08
05
0&
09
0~
0l
0"-
0"*
0b
#271
b00011011 F
1d
18
15
1&
b0001000 w
19
1~
1l
1"-
1"*
1b
b00001000 >
#276
0d
08
05
0&
09
0~
0l
0"-
0"*
0b
#281
b00011100 F
1d
18
15
1&
b0001001 w
19
1~
1l
1"-
1"*
1b
b00001001 >
#286
0d
08
05
0&
09
0~
0l
0"-
0"*
0b
#291
b00011101 F
1d
18
15
1&
b0001010 w
19
1~
1l
1"-
1"*
1b
b00001010 >
#296
0d
08
05
0&
09
0~
0l
0"-
0"*
0b
#301
b00011110 F
1d
18
15
1&
b0001011 w
19
1~
1l
1"-
1"*
1b
b00001011 >
#306
0d
08
05
0&
09
0~
0l
0"-
0"*
0b
#311
1&
15
0D
b0001100 w
0'
1~
0Z
0x
1"-
1b
b00001100 >
0\
0q
b00011111 F
1d
18
1""
19
1l
1"*
#316
0d
08
05
0&
09
0~
0l
0"-
0"*
0b
#321
b00100000 F
1d
18
15
1&
19
1~
1l
1"-
1"*
1b
#326
0d
08
05
0&
1e
09
0~
0l
16
1K
0"-
0"*
0b
#331
b01 3
b00100001 F
1d
18
15
1&
19
1~
1l
1"-
1"*
1b
#336
0d
08
05
0&
09
0~
0l
0"-
0"*
0b
#341
b10 3
1.
1&
15
b01 h
1~
1"-
1b
1?
b00100010 F
1d
18
19
1l
1"*
#346
0d
08
05
0&
09
0~
0l
0"-
0"*
0b
#351
0.
1J
15
1&
1~
1"-
1"'
1b
0?
1N
b00100011 F
1d
18
19
1l
1"*
#356
0d
08
05
0&
09
0~
0l
0"-
0"*
0b
#361
1.
0J
15
1D
1&
1'
1~
1Z
1x
1"-
0"'
1b
1q
1\
1?
0N
b00000000 F
1d
18
0""
19
1l
0+
1"*
#366
0d
08
05
0&
09
0~
0l
0"-
0"*
0b
#371
0.
1v
1J
15
1&
b0001101 w
1S
1~
1"-
b0000000000000100000000000000000000000000000000000000000000000000 L
1"'
1b
b00001101 >
1!
0?
1N
b00000001 F
1d
18
1z
19
1l
1"*
b0000000000000100000000000000000000000000000000000000000000000000 n
#376
0d
08
05
0&
09
0~
0l
0"-
0"*
0b
#381
b0000000000000100000000000000000000000000000000000000000000000000 f
0J
15
0S
1~
b0000000000000000000000000000000000000000000000000000000000000000 L
0"'
1b
0N
b00000000 F
1d
0z
0^
1A
0u
b0000000000000100000000000000000000000000000000000000000000000000 X
b0000000000000100000000000000000000000000000000000000000000000000 C
1.
0v
1&
0D
b0001110 w
0'
0Z
0x
1"-
b00001110 >
0q
0\
0!
1?
1"
18
1#
19
1l
1")
1"*
b0000000000000000000000000000000000000000000000000000000000000000 n
#386
0d
08
05
0&
09
0~
0l
0"-
0"*
0b
#391
1u
b0000000000000000000000000000000000000000000000000000000000000000 C
0.
1v
1J
15
1&
1S
1~
1"-
b0000000000000110000000000000000000000000000000000000000000000000 L
1"'
1b
1!
0?
1N
b00000001 F
1d
18
1z
19
1l
0")
1^
1"*
b0000000000000110000000000000000000000000000000000000000000000000 n
#396
0d
08
05
0&
09
0~
0l
0"-
0"*
0b
#401
b0000000000000110000000000000000000000000000000000000000000000000 f
0J
15
0S
1~
b0000000000000000000000000000000000000000000000000000000000000000 L
0"'
1b
0N
b00000000 F
1d
0z
0^
0u
b0000000000000110000000000000000000000000000000000000000000000000 X
b0000000000000110000000000000000000000000000000000000000000000000 C
1.
0v
1&
1D
1'
1Z
1x
1"-
1q
1\
0!
1?
18
19
1l
1")
1"*
b0000000000000000000000000000000000000000000000000000000000000000 n
#406
0d
08
05
0&
09
0~
0l
0"-
0"*
0b
#411
1J
15
1S
1~
b0000000000000111000000000000000000000000000000000000000000000000 L
1"'
1b
1N
b00000001 F
1d
1z
1^
1u
b0000000000000000000000000000000000000000000000000000000000000000 C
0.
1v
1&
b0001111 w
1"-
b00001111 >
1!
0?
18
19
1l
0")
1"*
b0000000000000111000000000000000000000000000000000000000000000000 n
#416
0d
08
05
0&
09
0~
0l
0"-
0"*
0b
#421
b0000000000000111000000000000000000000000000000000000000000000000 f
0J
15
0S
1~
b0000000000000000000000000000000000000000000000000000000000000000 L
0"'
1b
0N
b00000000 F
1d
0z
0^
0u
b0000000000000111000000000000000000000000000000000000000000000000 X
b0000000000000111000000000000000000000000000000000000000000000000 C
1.
0v
1&
0D
b0010000 w
0'
0Z
0x
1"-
b00010000 >
0q
0\
0!
1?
18
19
1l
1")
1"*
b0000000000000000000000000000000000000000000000000000000000000000 n
#426
0d
08
05
0&
09
0~
0l
0"-
0"*
0b
#431
1u
b0000000000000000000000000000000000000000000000000000000000000000 C
0.
1v
1J
15
1&
1S
1~
1"-
b0000000000000111100000000000000000000000000000000000000000000000 L
1"'
1b
1!
0?
1N
b00000001 F
1d
18
1z
19
1l
0")
1^
1"*
b0000000000000111100000000000000000000000000000000000000000000000 n
#436
0d
08
05
0&
09
0~
0l
0"-
0"*
0b
#441
b0000000000000111100000000000000000000000000000000000000000000000 f
0J
15
0S
1~
b0000000000000000000000000000000000000000000000000000000000000000 L
0"'
1b
0N
b00000000 F
1d
0z
0^
0u
b0000000000000111100000000000000000000000000000000000000000000000 X
b0000000000000111100000000000000000000000000000000000000000000000 C
1.
0v
1&
1D
1'
1Z
1x
1"-
1q
1\
0!
1?
18
19
1l
1")
1"*
b0000000000000000000000000000000000000000000000000000000000000000 n
#446
0d
08
05
0&
09
0~
0l
0"-
0"*
0b
#451
1J
15
1S
1~
b0000000000000111110000000000000000000000000000000000000000000000 L
1"'
1b
1N
b00000001 F
1d
1z
1^
1u
b0000000000000000000000000000000000000000000000000000000000000000 C
0.
1v
1&
b0010001 w
1"-
b00010001 >
1!
0?
18
19
1l
0")
1"*
b0000000000000111110000000000000000000000000000000000000000000000 n
#456
0d
08
05
0&
09
0~
0l
0"-
0"*
0b
#461
b0000000000000111110000000000000000000000000000000000000000000000 f
0J
15
0S
1~
b0000000000000000000000000000000000000000000000000000000000000000 L
0"'
1b
0N
b00000000 F
1d
0z
0^
0u
b0000000000000111110000000000000000000000000000000000000000000000 X
b0000000000000111110000000000000000000000000000000000000000000000 C
1.
0v
1&
0D
b0010010 w
0'
0Z
0x
1"-
b00010010 >
0q
0\
0!
1?
18
19
1l
1")
1"*
b0000000000000000000000000000000000000000000000000000000000000000 n
#466
0d
08
05
0&
09
0~
0l
0"-
0"*
0b
#471
1u
b0000000000000000000000000000000000000000000000000000000000000000 C
0.
1v
1J
15
1&
1S
1~
1"-
b0000000000000111111000000000000000000000000000000000000000000000 L
1"'
1b
1!
0?
1N
b00000001 F
1d
18
1z
19
1l
0")
1^
1"*
b0000000000000111111000000000000000000000000000000000000000000000 n
#476
0d
08
05
0&
09
0~
0l
0"-
0"*
0b
#481
b0000000000000111111000000000000000000000000000000000000000000000 f
0J
15
0S
1~
b0000000000000000000000000000000000000000000000000000000000000000 L
0"'
1b
0N
b00000000 F
1d
0z
0^
0u
b0000000000000111111000000000000000000000000000000000000000000000 X
b0000000000000111111000000000000000000000000000000000000000000000 C
1.
0v
1&
1D
1'
1Z
1x
1"-
1q
1\
0!
1?
18
19
1l
1")
1"*
b0000000000000000000000000000000000000000000000000000000000000000 n
#486
0d
08
05
0&
0e
09
0~
0l
06
0K
0"-
0"*
0b
#491
b01 3
1J
15
b10 h
1S
1~
b0000000000000111111100000000000000000000000000000000000000000000 L
1"'
1b
1N
b00000001 F
1d
1z
1^
1u
b0000000000000000000000000000000000000000000000000000000000000000 C
0.
1v
1&
b0010011 w
1"-
b00010011 >
1!
0?
18
19
1l
0")
1"*
b0000000000000111111100000000000000000000000000000000000000000000 n
#496
0d
08
05
0&
09
0~
0l
0"-
0"*
0b
#501
b00 3
b0000000000000111111100000000000000000000000000000000000000000000 f
0J
15
b01 h
0S
1~
b0000000000000000000000000000000000000000000000000000000000000000 L
0"'
1b
0N
b00000000 F
1d
0z
0^
0u
b0000000000000111111100000000000000000000000000000000000000000000 X
b0000000000000111111100000000000000000000000000000000000000000000 C
1.
0v
1&
0D
b0010100 w
0'
0Z
0x
1"-
b00010100 >
0q
0\
0!
1?
18
19
1l
1")
1"*
b0000000000000000000000000000000000000000000000000000000000000000 n
#506
0d
08
05
0&
09
0~
0l
0"-
0"*
0b
#511
1u
b0000000000000000000000000000000000000000000000000000000000000000 C
0.
1v
1J
15
1&
1S
1~
1"-
b0000000000000111111110000000000000000000000000000000000000000000 L
1"'
1b
1!
0?
1N
b00000001 F
1d
18
1z
19
1l
0")
1^
1"*
b0000000000000111111110000000000000000000000000000000000000000000 n
#516
0d
08
05
0&
09
0~
0l
0"-
0"*
0b
#521
b0000000000000111111110000000000000000000000000000000000000000000 f
0J
15
0S
1~
b0000000000000000000000000000000000000000000000000000000000000000 L
0"'
1b
0N
b00000000 F
1d
0z
0^
0u
b0000000000000111111110000000000000000000000000000000000000000000 X
b0000000000000111111110000000000000000000000000000000000000000000 C
0v
1&
1D
1'
1Z
1x
1"-
1q
1\
0!
18
19
1l
1")
1"*
b0000000000000000000000000000000000000000000000000000000000000000 n
#526
0d
08
05
0&
09
0~
0l
0"-
0"*
0b
#531
1u
b0000000000000000000000000000000000000000000000000000000000000000 C
1&
15
b0010101 w
1~
1"-
1b
b00010101 >
b00000001 F
1d
18
19
1l
0")
1^
1"*
#536
0d
08
05
0&
09
0~
0l
0"-
0"*
0b
#541
b00000010 F
1d
18
15
1&
b0010110 w
19
1~
1l
1"-
1"*
1b
b00010110 >
#546
0d
08
05
0&
09
0~
0l
0"-
0"*
0b
#551
b00000011 F
1d
18
15
1&
b0010111 w
19
1~
1l
1"-
1"*
1b
b00010111 >
#556
0d
08
05
0&
09
0~
0l
0"-
0"*
0b
#561
b00000100 F
1d
18
15
1&
b0011000 w
19
1~
1l
1"-
1"*
1b
b00011000 >
#566
0d
08
05
0&
09
0~
0l
0"-
0"*
0b
#571
b00000101 F
1d
18
15
1&
b0011001 w
19
1~
1l
1"-
1"*
1b
b00011001 >
#576
0d
08
05
0&
09
0~
0l
0"-
0"*
0b
#581
0Q
1&
15
b0011010 w
1~
1"-
1b
b00011010 >
b00000110 F
0@
1d
18
19
1l
1"*
0;
#586
0d
08
05
0&
09
0~
0l
0"-
0"*
0b
#591
b00000111 F
1d
18
15
1&
b0011011 w
19
1~
1l
1"-
1"*
1b
b00011011 >
#596
0d
08
05
0&
09
0~
0l
0"-
0"*
0b
#601
b00001000 F
1d
18
15
1&
b0011100 w
19
1~
1l
1"-
1"*
1b
b00011100 >
#606
0d
08
05
0&
09
0~
0l
0"-
0"*
0b
#611
b00001001 F
1d
18
15
1&
b0011101 w
19
1~
1l
1"-
1"*
1b
b00011101 >
#616
0d
08
05
0&
09
0~
0l
0"-
0"*
0b
#621
b00001010 F
1d
18
15
1&
b0011110 w
19
1~
1l
1"-
1"*
1b
b00011110 >
#626
0d
08
05
0&
09
0~
0l
0"-
0"*
0b
#631
b00001011 F
1d
18
15
1&
b0011111 w
19
1~
1l
1"-
1"*
1b
b00011111 >
#636
0d
08
05
0&
09
0~
0l
0"-
0"*
0b
#641
b00001100 F
1d
18
15
1&
b0100000 w
19
1~
1l
1"-
1"*
1b
b00100000 >
#646
0d
08
05
0&
09
0~
0l
0"-
0"*
0b
#651
1Q
1&
15
b0100001 w
1~
1"-
07
b00100001 >
1b
b00001101 F
01
1@
1d
18
19
1l
1"*
0,
1;
#656
0d
08
05
0&
09
0~
0l
0"-
0"*
0b
#661
b00001110 F
1d
18
15
1&
b0100010 w
19
1~
1l
1"-
1"*
1b
b00100010 >
#666
0d
08
05
0&
09
0~
0l
0"-
0"*
0b
#671
b00001111 F
1d
18
15
1&
b0100011 w
19
1~
1l
1"-
1"*
1b
b00100011 >
#676
0d
08
05
0&
09
0~
0l
0"-
0"*
0b
#681
b00010000 F
1d
18
15
1&
b0100100 w
19
1~
1l
1"-
1"*
1b
b00100100 >
#686
0d
08
05
0&
09
0~
0l
0"-
0"*
0b
#691
b00010001 F
1d
18
15
1&
b0100101 w
19
1~
1l
1"-
1"*
1b
b00100101 >
#696
0d
08
05
0&
09
0~
0l
0"-
0"*
0b
#701
1v
1&
15
b0100110 w
1S
1~
1"-
b0000000000000111111110000000000000000000000000000000000000000000 L
1b
b00100110 >
1!
b00010010 F
1d
18
1z
19
1l
1"*
b0000000000000111111110000000000000000000000000000000000000000000 n
#706
0d
08
05
0&
09
0~
0l
0"-
0"*
0b
#711
15
0S
1~
b0000000000000000000000000000000000000000000000000000000000000000 L
1b
b00010011 F
1d
0z
1+
0^
0A
0u
b0000000000000111111110000000000000000000000000000000000000000000 C
0v
1&
0D
b0100111 w
0'
0Z
0x
1"-
b00100111 >
0q
0\
0!
0"
18
0#
19
1l
1")
1"*
b0000000000000000000000000000000000000000000000000000000000000000 n
#716
0d
08
05
0&
09
0~
0l
0"-
0"*
0b
#721
1u
b0000000000000000000000000000000000000000000000000000000000000000 C
1&
15
1~
1"-
1b
b00010100 F
1d
18
19
1l
0")
1^
1"*
#726
0d
08
05
0&
09
0~
0l
0"-
0"*
0b
#731
b00010101 F
1d
18
15
1&
19
1~
1l
1"-
1"*
1b
#736
0d
08
05
0&
09
0~
0l
0"-
0"*
0b
#741
b00010110 F
1d
18
15
1&
19
1~
1l
1"-
1"*
1b
#746
0d
08
05
0&
09
0~
0l
0"-
0"*
0b
#751
b00010111 F
1d
18
15
1&
19
1~
1l
1"-
1"*
1b
#756
0d
08
05
0&
09
0~
0l
0"-
0"*
0b
#761
b00011000 F
1d
18
15
1&
19
1~
1l
1"-
1"*
1b
#766
0d
08
05
0&
09
0~
0l
0"-
0"*
0b
#771
b00011001 F
1d
18
15
1&
19
1~
1l
1"-
1"*
1b
#776
0d
08
05
0&
09
0~
0l
0"-
0"*
0b
#781
b00011010 F
1d
18
15
1&
19
1~
1l
1"-
1"*
1b
#786
0d
08
05
0&
09
0~
0l
0"-
0"*
0b
#791
b00011011 F
1d
18
15
1&
19
1~
1l
1"-
1"*
1b
#796
0d
08
05
0&
09
0~
0l
0"-
0"*
0b
#801
b00011100 F
1d
18
15
1&
19
1~
1l
1"-
1"*
1b
#806
0d
08
05
0&
1e
09
0~
0l
16
1K
0"-
0"*
0b
#811
b01 3
b00011101 F
1d
18
15
b00 h
1&
19
1~
1l
1"-
1"*
1b
#816
0d
08
05
0&
09
0~
0l
0"-
0"*
0b
#821
b10 3
1.
1&
15
b01 h
1~
1"-
1b
1?
b00011110 F
1d
18
19
1l
1"*
#826
0d
08
05
0&
09
0~
0l
0"-
0"*
0b
#831
0.
1J
15
1D
1&
1'
1~
1Z
1x
1"-
1"'
1b
1q
1\
0?
1N
b00011111 F
1d
18
1""
19
1l
1"*
#836
0d
08
05
0&
09
0~
0l
0"-
0"*
0b
#841
1.
0J
15
0D
b0101000 w
1&
0'
1~
0Z
0x
1"-
0"'
1b
b00101000 >
0\
0q
1?
0N
b00000000 F
1d
18
0""
19
1l
0+
1"*
#846
0d
08
05
0&
09
0~
0l
0"-
0"*
0b
#851
0.
1v
1J
15
1&
1S
1~
1"-
b0000000000000111111110000000000000000000100000000000000000000000 L
1"'
1b
1!
0?
1N
b00000001 F
1d
18
1z
19
1l
1"*
b0000000000000111111110000000000000000000100000000000000000000000 n
#856
0d
08
05
0&
09
0~
0l
0"-
0"*
0b
#861
b0000000000000111111110000000000000000000100000000000000000000000 f
0J
15
0S
1~
b0000000000000000000000000000000000000000000000000000000000000000 L
0"'
1b
0N
b00000000 F
1d
0z
0^
1A
0u
b0000000000000111111110000000000000000000100000000000000000000000 X
b0000000000000111111110000000000000000000100000000000000000000000 C
1.
0v
1&
1D
1'
1Z
1x
1"-
1q
1\
0!
1?
1"
18
1#
19
1l
1")
1"*
b0000000000000000000000000000000000000000000000000000000000000000 n
#866
0d
08
05
0&
09
0~
0l
0"-
0"*
0b
#871
1J
15
1S
1~
b0000000000000111111110000000000000000000110000000000000000000000 L
1"'
1b
1N
b00000001 F
1d
1z
1^
1u
b0000000000000000000000000000000000000000000000000000000000000000 C
0.
1v
1&
b0101001 w
1"-
b00101001 >
1!
0?
18
19
1l
0")
1"*
b0000000000000111111110000000000000000000110000000000000000000000 n
#876
0d
08
05
0&
09
0~
0l
0"-
0"*
0b
#881
b0000000000000111111110000000000000000000110000000000000000000000 f
0J
15
0S
1~
b0000000000000000000000000000000000000000000000000000000000000000 L
0"'
1b
0N
b00000000 F
1d
0z
0^
0u
b0000000000000111111110000000000000000000110000000000000000000000 X
b0000000000000111111110000000000000000000110000000000000000000000 C
1.
0v
1&
0D
b0101010 w
0'
0Z
0x
1"-
b00101010 >
0q
0\
0!
1?
18
19
1l
1")
1"*
b0000000000000000000000000000000000000000000000000000000000000000 n
#886
0d
08
05
0&
09
0~
0l
0"-
0"*
0b
#891
1u
b0000000000000000000000000000000000000000000000000000000000000000 C
0.
1v
1J
15
1&
1S
1~
1"-
b0000000000000111111110000000000000000000111000000000000000000000 L
1"'
1b
1!
0?
1N
b00000001 F
1d
18
1z
19
1l
0")
1^
1"*
b0000000000000111111110000000000000000000111000000000000000000000 n
#896
0d
08
05
0&
09
0~
0l
0"-
0"*
0b
#901
b0000000000000111111110000000000000000000111000000000000000000000 f
0J
15
0S
1~
b0000000000000000000000000000000000000000000000000000000000000000 L
0"'
1b
0N
b00000000 F
1d
0z
0^
0u
b0000000000000111111110000000000000000000111000000000000000000000 X
b0000000000000111111110000000000000000000111000000000000000000000 C
1.
0v
1&
1D
1'
1Z
1x
1"-
1q
1\
0!
1?
18
19
1l
1")
1"*
b0000000000000000000000000000000000000000000000000000000000000000 n
#906
0d
08
05
0&
09
0~
0l
0"-
0"*
0b
#911
1J
15
1S
1~
b0000000000000111111110000000000000000000111100000000000000000000 L
1"'
1b
1N
b00000001 F
1d
1z
1^
1u
b0000000000000000000000000000000000000000000000000000000000000000 C
0.
1v
1&
b0101011 w
1"-
b00101011 >
1!
0?
18
19
1l
0")
1"*
b0000000000000111111110000000000000000000111100000000000000000000 n
#916
0d
08
05
0&
09
0~
0l
0"-
0"*
0b
#921
b0000000000000111111110000000000000000000111100000000000000000000 f
0J
15
0S
1~
b0000000000000000000000000000000000000000000000000000000000000000 L
0"'
1b
0N
b00000000 F
1d
0z
0^
0u
b0000000000000111111110000000000000000000111100000000000000000000 X
b0000000000000111111110000000000000000000111100000000000000000000 C
1.
0v
1&
0D
b0101100 w
0'
0Z
0x
1"-
b00101100 >
0q
0\
0!
1?
18
19
1l
1")
1"*
b0000000000000000000000000000000000000000000000000000000000000000 n
#926
0d
08
05
0&
09
0~
0l
0"-
0"*
0b
#931
1u
b0000000000000000000000000000000000000000000000000000000000000000 C
0.
1v
1J
15
1&
1S
1~
1"-
b0000000000000111111110000000000000000000111110000000000000000000 L
1"'
1b
1!
0?
1N
b00000001 F
1d
18
1z
19
1l
0")
1^
1"*
b0000000000000111111110000000000000000000111110000000000000000000 n
#936
0d
08
05
0&
09
0~
0l
0"-
0"*
0b
#941
b0000000000000111111110000000000000000000111110000000000000000000 f
0J
15
0S
1~
b0000000000000000000000000000000000000000000000000000000000000000 L
0"'
1b
0N
b00000000 F
1d
0z
0^
0u
b0000000000000111111110000000000000000000111110000000000000000000 X
b0000000000000111111110000000000000000000111110000000000000000000 C
1.
0v
1&
1D
1'
1Z
1x
1"-
1q
1\
0!
1?
18
19
1l
1")
1"*
b0000000000000000000000000000000000000000000000000000000000000000 n
#946
0d
08
05
0&
09
0~
0l
0"-
0"*
0b
