Intervox_Reciever/test_run_dir/interVox_Reciever_should_pass/interVox_Reciever.vcd
$date
2022-11-25T18:58+0000
$end
$version
0.2
$end
$comment

$end
$timescale 1ns  $end
$scope module interVox_Reciever $end
 $var wire 1 & io_INTERVOX_IN $end
 $var wire 1 ) io_DATA_OUT $end
 $var wire 1 * io_CLK_REC $end
 $var wire 1 + pll $end
 $var wire 1 , io_DBUG $end
 $var wire 1 / io_NEXT_FRAME $end
 $var wire 1 3 clockRec $end
 $var wire 1 4 clock $end
 $var wire 1 7 io_DBUG1 $end
 $var wire 1 < reset $end
  $scope module clockRec $end
   $var wire 2 ! inBufr $end
   $var wire 1 " dataOut $end
   $var wire 1 # io_DATA_OUT $end
   $var wire 1 $ zeroPeriode $end
   $var wire 8 % clkDelta $end
   $var wire 8 ' lastOne $end
   $var wire 8 ( clkCntr1 $end
   $var wire 1 - io_DBUG $end
   $var wire 1 . reset $end
   $var wire 1 2 io_CLK_OUT $end
   $var wire 2 5 clkCntr $end
   $var wire 1 6 io_DATA_IN $end
   $var wire 1 8 io_DBUG1 $end
   $var wire 1 9 clkRec $end
   $var wire 2 : whatChange $end
   $var wire 4 = clkCntr2 $end
   $var wire 1 > change $end
   $var wire 1 ? clock $end
  $upscope $end
  $scope module pll $end
   $var wire 1 0 locked $end
   $var wire 1 1 PLL_IN $end
   $var wire 1 ; PLL_MCLK $end
  $upscope $end
$upscope $end
$enddefinitions $end
$dumpvars
0;
0&
b0000 =
0<
0>
06
07
0"
08
0#
09
b00000000 %
b00 :
02
03
b00000000 '
04
b00000000 (
b00 5
0-
b00 !
0.
0/
00
01
0)
0?
0*
0+
0,
0$
$end
#0
1<
1.
#1
1?
14
b00000111 '
#6
0?
0<
04
0.
#11
1?
14
b01 5
b0001 =
b01 :
b00000001 (
#16
0?
04
#21
1?
14
b00 5
b0000 =
b10 :
b00000010 (
#26
0?
04
#31
1?
14
11
b01 5
12
19
b0001 =
b11 :
b00000011 (
1,
#36
0?
04
#41
1?
14
b00 5
b0010 =
b00 :
b00000100 (
#46
0?
04
#51
1?
14
b01 5
b0011 =
b01 :
b00000101 (
#56
0?
04
#61
1?
14
b00 5
b0000 =
b10 :
b00000110 (
#66
0?
04
#71
1?
14
01
b01 5
02
09
b0001 =
b11 :
b00000111 (
0,
#76
0?
04
#81
1?
14
b00 5
b0010 =
b00 :
b00001000 (
#86
0?
04
#91
1?
1-
14
b01 5
1$
b0011 =
b01 :
b00001001 (
1/
#96
0?
04
#101
1?
14
b00 5
b0100 =
b10 :
b00001010 (
#106
0?
04
#111
1?
14
b01 5
b0101 =
b11 :
b00001011 (
#116
0?
04
#121
1?
14
b00 5
b0110 =
b00 :
b00001100 (
#126
0?
04
#131
1?
14
b01 5
b0000 =
b01 :
b00001101 (
#136
0?
04
#141
1?
14
b00 5
b0001 =
b10 :
b00001110 (
#146
0?
04
#151
1?
14
b01 5
b0010 =
b11 :
b00001111 (
#156
0?
04
#161
1?
14
b00 5
b0011 =
b00 :
b00010000 (
#166
0?
04
#171
1?
14
b01 5
b0100 =
b01 :
b00010001 (
#176
0?
04
#181
1?
14
b00 5
b0101 =
b10 :
b00010010 (
#186
0?
04
#191
1?
14
b01 5
b0110 =
b11 :
b00010011 (
#196
0?
04
#201
1?
14
b00 5
b0000 =
b00 :
b00010100 (
#206
0?
04
#211
1?
14
b01 5
b0001 =
b01 :
b00010101 (
#216
0?
04
#221
1?
14
b00 5
b0010 =
b10 :
b00010110 (
#226
0?
04
#231
1?
14
b01 5
b0011 =
b11 :
b00010111 (
#236
0?
04
#241
1?
14
b00 5
b0100 =
b00 :
b00011000 (
#246
0?
04
#251
1?
14
b01 5
b0101 =
b01 :
b00011001 (
#256
0?
04
#261
1?
14
b00 5
b0110 =
b10 :
b00011010 (
#266
0?
04
#271
1?
14
b01 5
b0000 =
b11 :
b00011011 (
#276
0?
04
#281
1?
14
b00 5
b0001 =
b00 :
b00011100 (
#286
0?
04
#291
1?
14
b01 5
b0010 =
b01 :
b00011101 (
#296
0?
04
#301
1?
14
b00 5
b0011 =
b10 :
b00011110 (
#306
0?
04
#311
1?
14
b01 5
b0100 =
b11 :
b00011111 (
#316
0?
04
#321
1?
14
b00 5
b0101 =
b00 :
b00100000 (
#326
0?
04
#331
1?
14
b01 5
b0110 =
b01 :
b00100001 (
#336
0?
04
#341
1?
14
b00 5
b0000 =
b10 :
b00100010 (
#346
0?
04
#351
1?
14
b01 5
b0001 =
b11 :
b00100011 (
#356
0?
04
#361
1?
14
b00 5
b0010 =
b00 :
b00100100 (
#366
0?
04
#371
1?
14
b01 5
b0011 =
b01 :
b00100101 (
#376
0?
04
#381
1?
14
b00 5
b0100 =
b10 :
b00100110 (
#386
0?
04
#391
1?
14
b01 5
b0101 =
b11 :
b00100111 (
#396
0?
04
#401
1?
14
b00 5
b0110 =
b00 :
b00101000 (
#406
0?
04
#411
1?
14
b01 5
b0000 =
b01 :
b00101001 (
#416
0?
04
#421
1?
14
b00 5
b0001 =
b10 :
b00101010 (
#426
0?
04
#431
1?
14
b01 5
b0010 =
b11 :
b00101011 (
#436
0?
04
#441
1?
14
b00 5
b0011 =
b00 :
b00101100 (
#446
0?
04
#451
1?
14
b01 5
b0100 =
b01 :
b00101101 (
#456
0?
04
#461
1?
14
b00 5
b0101 =
b10 :
b00101110 (
#466
0?
04
#471
1?
14
b01 5
b0110 =
b11 :
b00101111 (
#476
0?
04
#481
1?
14
b00 5
b0000 =
b00 :
b00110000 (
#486
0?
04
1&
16
#491
b01 !
1?
14
b01 5
b0001 =
b01 :
b00110001 (
#496
0?
04
#501
b10 !
1?
b00110001 %
14
18
b00 5
b0010 =
b10 :
17
b00000000 (
1>
#506
0?
04
#511
b11 !
1?
14
11
b01 5
12
19
b0011 =
b01 :
b00000001 (
1,
#516
0?
04
#521
1?
14
08
b00 5
b0000 =
b00 :
07
b00000010 (
0>
#526
0?
04
#531
1?
14
b01 5
b0001 =
b01 :
b00000011 (
#536
0?
04
#541
1?
14
b00 5
b0000 =
b10 :
b00000100 (
#546
0?
04
#551
1?
14
01
b01 5
02
09
b0001 =
b11 :
b00000101 (
0,
#556
0?
04
#561
1?
14
b00 5
b0010 =
b00 :
b00000110 (
#566
0?
04
#571
1?
14
b01 5
b0011 =
b01 :
b00000111 (
#576
0?
04
#581
1?
14
b00 5
b0100 =
b10 :
b00001000 (
#586
0?
04
#591
1?
14
b01 5
b0101 =
b11 :
b00001001 (
#596
0?
04
#601
1?
14
b00 5
b0110 =
b00 :
b00001010 (
#606
0?
04
#611
1?
14
b01 5
b0000 =
b01 :
b00001011 (
#616
0?
04
#621
1?
14
b00 5
b0001 =
b10 :
b00001100 (
#626
0?
04
#631
1?
14
b01 5
b0010 =
b11 :
b00001101 (
#636
0?
04
#641
1?
14
b00 5
b0011 =
b00 :
b00001110 (
#646
0?
04
0&
06
#651
b10 !
1?
14
b01 5
b0100 =
b01 :
b00001111 (
#656
0?
04
#661
b01 !
1?
b00001111 %
14
18
b00 5
b0101 =
b10 :
17
b00000000 (
1>
#666
0?
04
#671
b00 !
1?
14
11
b01 5
12
19
b0110 =
b01 :
b00000001 (
1,
#676
0?
04
#681
1?
14
08
b00 5
b0000 =
b00 :
07
b00000010 (
0>
#686
0?
04
#691
1?
14
b01 5
b0001 =
b01 :
b00000011 (
#696
0?
04
#701
1?
14
b00 5
b0000 =
b10 :
b00000100 (
#706
0?
04
#711
1?
14
01
b01 5
02
09
b0001 =
b11 :
b00000101 (
0,
#716
0?
04
#721
1?
14
b00 5
b0010 =
b00 :
b00000110 (
#726
0?
04
1&
16
#731
b01 !
1?
14
b01 5
b0011 =
b01 :
b00000111 (
#736
0?
04
#741
b10 !
1?
b00000111 %
14
18
b00 5
b0100 =
b10 :
17
b00000000 (
1>
#746
0?
04
#751
0-
14
b01 5
b0101 =
b00000001 (
0/
1)
b11 !
1?
1"
11
1#
12
19
0$
b01 :
1,
#756
0?
04
#761
1?
14
08
b00 5
b0000 =
b00 :
07
b00000010 (
0>
#766
0?
04
#771
1?
14
b01 5
b0001 =
b01 :
b00000011 (
#776
0?
04
#781
1?
14
b00 5
b0000 =
b10 :
b00000100 (
#786
0?
04
#791
1?
14
01
b01 5
02
09
b0001 =
b11 :
b00000101 (
0,
#796
0?
04
#801
1?
14
b00 5
b0010 =
b00 :
b00000110 (
#806
0?
04
0&
06
#811
b10 !
1?
14
b01 5
b0011 =
b01 :
b00000111 (
#816
0?
04
#821
b01 !
1?
14
18
b00 5
b0100 =
b10 :
17
b00000000 (
1>
#826
0?
04
#831
b00 !
1?
14
11
b01 5
12
19
b0101 =
b01 :
b00000001 (
1,
#836
0?
04
#841
1?
14
08
b00 5
b0000 =
b00 :
07
b00000010 (
0>
#846
0?
04
#851
1?
14
b01 5
b0001 =
b01 :
b00000011 (
#856
0?
04
#861
1?
14
b00 5
b0000 =
b10 :
b00000100 (
#866
0?
04
#871
1?
14
01
b01 5
02
09
b0001 =
b11 :
b00000101 (
0,
#876
0?
04
#881
1?
14
b00 5
b0010 =
b00 :
b00000110 (
#886
0?
04
1&
16
#891
b01 !
1?
14
b01 5
b0011 =
b01 :
b00000111 (
#896
0?
04
#901
b10 !
1?
14
18
b00 5
b0100 =
b10 :
17
b00000000 (
1>
#906
0?
04
#911
b11 !
1?
14
11
b01 5
12
19
b0101 =
b01 :
b00000001 (
1,
#916
0?
04
#921
1?
14
08
b00 5
b0000 =
b00 :
07
b00000010 (
0>
#926
0?
04
#931
1?
14
b01 5
b0001 =
b01 :
b00000011 (
#936
0?
04
#941
1?
14
b00 5
b0000 =
b10 :
b00000100 (
#946
0?
04
#951
1?
14
01
b01 5
02
09
b0001 =
b11 :
b00000101 (
0,
#956
0?
04
#961
1?
14
b00 5
b0010 =
b00 :
b00000110 (
#966
0?
04
0&
06
#971
b10 !
1?
14
b01 5
b0011 =
b01 :
b00000111 (
#976
0?
04
#981
b01 !
1?
14
18
b00 5
b0100 =
b10 :
17
b00000000 (
1>
#986
0?
04
#991
b00 !
1?
14
11
b01 5
12
19
b0101 =
b01 :
b00000001 (
1,
#996
0?
04
#1001
1?
14
08
b00 5
b0000 =
b00 :
07
b00000010 (
0>
#1006
0?
04
#1011
1?
14
b01 5
b0001 =
b01 :
b00000011 (
#1016
0?
04
#1021
1?
14
b00 5
b0000 =
b10 :
b00000100 (
#1026
0?
04
#1031
1?
14
01
b01 5
02
09
b0001 =
b11 :
b00000101 (
0,
#1036
0?
04
#1041
1?
14
b00 5
b0010 =
b00 :
b00000110 (
#1046
0?
04
1&
16
#1051
b01 !
1?
14
b01 5
b0011 =
b01 :
b00000111 (
#1056
0?
04
#1061
b10 !
1?
14
18
b00 5
b0100 =
b10 :
17
b00000000 (
1>
#1066
0?
04
#1071
b11 !
1?
14
11
b01 5
12
19
b0101 =
b01 :
b00000001 (
1,
#1076
0?
04
#1081
1?
14
08
b00 5
b0000 =
b00 :
07
b00000010 (
0>
#1086
0?
04
#1091
1?
14
b01 5
b0001 =
b01 :
b00000011 (
#1096
0?
04
#1101
1?
14
b00 5
b0000 =
b10 :
b00000100 (
#1106
0?
04
#1111
1?
14
01
b01 5
02
09
b0001 =
b11 :
b00000101 (
0,
#1116
0?
04
#1121
1?
14
b00 5
b0010 =
b00 :
b00000110 (
#1126
0?
04
0&
06
#1131
b10 !
1?
14
b01 5
b0011 =
b01 :
b00000111 (
#1136
0?
04
#1141
b01 !
1?
14
18
b00 5
b0100 =
b10 :
17
b00000000 (
1>
#1146
0?
04
#1151
b00 !
1?
14
11
b01 5
12
19
b0101 =
b01 :
b00000001 (
1,
#1156
0?
04
#1161
1?
14
08
b00 5
b0000 =
b00 :
07
b00000010 (
0>
#1166
0?
04
#1171
1?
14
b01 5
b0001 =
b01 :
b00000011 (
#1176
0?
04
#1181
1?
14
b00 5
b0000 =
b10 :
b00000100 (
#1186
0?
04
#1191
1?
14
01
b01 5
02
09
b0001 =
b11 :
b00000101 (
0,
#1196
0?
04
#1201
1?
14
b00 5
b0010 =
b00 :
b00000110 (
#1206
0?
04
1&
16
#1211
b01 !
1?
14
b01 5
b0011 =
b01 :
b00000111 (
#1216
0?
04
#1221
b10 !
1?
14
18
b00 5
b0100 =
b10 :
17
b00000000 (
1>
#1226
0?
04
#1231
b11 !
1?
14
11
b01 5
12
19
b0101 =
b01 :
b00000001 (
1,
#1236
0?
04
#1241
1?
14
08
b00 5
b0000 =
b00 :
07
b00000010 (
0>
#1246
0?
04
#1251
1?
14
b01 5
b0001 =
b01 :
b00000011 (
#1256
0?
04
#1261
1?
14
b00 5
b0000 =
b10 :
b00000100 (
#1266
0?
04
#1271
1?
14
01
b01 5
02
09
b0001 =
b11 :
b00000101 (
0,
#1276
0?
04
#1281
1?
14
b00 5
b0010 =
b00 :
b00000110 (
#1286
0?
04
0&
06
#1291
b10 !
1?
14
b01 5
b0011 =
b01 :
b00000111 (
#1296
0?
04
#1301
b01 !
1?
14
18
b00 5
b0100 =
b10 :
17
b00000000 (
1>
#1306
0?
04
#1311
b00 !
1?
14
11
b01 5
12
19
b0101 =
b01 :
b00000001 (
1,
#1316
0?
04
#1321
1?
14
08
b00 5
b0000 =
b00 :
07
b00000010 (
0>
#1326
0?
04
#1331
1?
14
b01 5
b0001 =
b01 :
b00000011 (
#1336
0?
04
#1341
1?
14
b00 5
b0000 =
b10 :
b00000100 (
#1346
0?
04
#1351
1?
14
01
b01 5
02
09
b0001 =
b11 :
b00000101 (
0,
#1356
0?
04
#1361
1?
14
b00 5
b0010 =
b00 :
b00000110 (
#1366
0?
04
#1371
1?
14
b01 5
b0011 =
b01 :
b00000111 (
#1376
0?
04
#1381
1?
14
b00 5
b0100 =
b10 :
b00001000 (
#1386
0?
04
#1391
1?
1-
14
11
b01 5
12
19
1$
b0101 =
b11 :
b00001001 (
1/
1,
#1396
0?
04
#1401
1?
14
b00 5
b0110 =
b00 :
b00001010 (
#1406
0?
04
#1411
1?
14
b01 5
b0000 =
b01 :
b00001011 (
#1416
0?
04
#1421
1?
14
b00 5
b0001 =
b10 :
b00001100 (
#1426
0?
04
#1431
1?
14
b01 5
b0010 =
b11 :
b00001101 (
#1436
0?
04
#1441
1?
14
b00 5
b0011 =
b00 :
b00001110 (
#1446
0?
04
1&
16
#1451
b01 !
1?
14
b01 5
b0100 =
b01 :
b00001111 (
#1456
0?
04
#1461
b10 !
1?
b00001111 %
14
18
b00 5
b0101 =
b10 :
17
b00000000 (
1>
#1466
0?
04
#1471
14
b01 5
b0110 =
b00000001 (
0)
b11 !
1?
0"
01
0#
02
09
b01 :
0,
#1476
0?
04
#1481
1?
14
08
b00 5
b0000 =
b00 :
07
b00000010 (
0>
#1486
0?
04
#1491
1?
14
b01 5
b0001 =
b01 :
b00000011 (
#1496
0?
04
#1501
1?
14
b00 5
b0000 =
b10 :
b00000100 (
#1506
0?
04
#1511
1?
14
11
b01 5
12
19
b0001 =
b11 :
b00000101 (
1,
#1516
0?
04
#1521
1?
14
b00 5
b0010 =
b00 :
b00000110 (
#1526
0?
04
#1531
1?
14
b01 5
b0011 =
b01 :
b00000111 (
#1536
0?
04
#1541
1?
14
b00 5
b0100 =
b10 :
b00001000 (
#1546
0?
04
#1551
1?
14
b01 5
b0101 =
b11 :
b00001001 (
#1556
0?
04
#1561
1?
14
b00 5
b0110 =
b00 :
b00001010 (
#1566
0?
04
#1571
1?
14
b01 5
b0000 =
b01 :
b00001011 (
#1576
0?
04
#1581
1?
14
b00 5
b0001 =
b10 :
b00001100 (
#1586
0?
04
#1591
1?
14
b01 5
b0010 =
b11 :
b00001101 (
#1596
0?
04
#1601
1?
14
b00 5
b0011 =
b00 :
b00001110 (
#1606
0?
04
0&
06
#1611
b10 !
1?
14
b01 5
b0100 =
b01 :
b00001111 (
#1616
0?
04
#1621
b01 !
1?
14
18
b00 5
b0101 =
b10 :
17
b00000000 (
1>
#1626
0?
04
#1631
b00 !
1?
14
01
b01 5
02
09
b0110 =
b01 :
b00000001 (
0,
#1636
0?
04
#1641
1?
14
08
b00 5
b0000 =
b00 :
07
b00000010 (
0>
#1646
0?
04
#1651
1?
14
b01 5
b0001 =
b01 :
b00000011 (
#1656
0?
04
#1661
1?
14
b00 5
b0000 =
b10 :
b00000100 (
#1666
0?
04
#1671
1?
14
11
b01 5
12
19
b0001 =
b11 :
b00000101 (
1,
#1676
0?
04
#1681
1?
14
b00 5
b0010 =
b00 :
b00000110 (
#1686
0?
04
#1691
1?
14
b01 5
b0011 =
b01 :
b00000111 (
#1696
0?
04
#1701
1?
14
b00 5
b0100 =
b10 :
b00001000 (
#1706
0?
04
#1711
1?
14
b01 5
b0101 =
b11 :
b00001001 (
#1716
0?
04
#1721
1?
14
b00 5
b0110 =
b00 :
b00001010 (
#1726
0?
04
#1731
1?
14
b01 5
b0000 =
b01 :
b00001011 (
#1736
0?
04
#1741
1?
14
b00 5
b0001 =
b10 :
b00001100 (
#1746
0?
04
#1751
1?
14
b01 5
b0010 =
b11 :
b00001101 (
#1756
0?
04
#1761
1?
14
b00 5
b0011 =
b00 :
b00001110 (
#1766
0?
04
1&
16
#1771
b01 !
1?
14
b01 5
b0100 =
b01 :
b00001111 (
#1776
0?
04
#1781
b10 !
1?
14
18
b00 5
b0101 =
b10 :
17
b00000000 (
1>
#1786
0?
04
#1791
b11 !
1?
14
01
b01 5
02
09
b0110 =
b01 :
b00000001 (
0,
#1796
0?
04
#1801
1?
14
08
b00 5
b0000 =
b00 :
07
b00000010 (
0>
#1806
0?
04
#1811
1?
14
b01 5
b0001 =
b01 :
b00000011 (
#1816
0?
04
#1821
1?
14
b00 5
b0000 =
b10 :
b00000100 (
#1826
0?
04
#1831
1?
14
11
b01 5
12
19
b0001 =
b11 :
b00000101 (
1,
#1836
0?
04
#1841
1?
14
b00 5
b0010 =
b00 :
b00000110 (
#1846
0?
04
#1851
1?
14
b01 5
b0011 =
b01 :
b00000111 (
#1856
0?
04
#1861
1?
14
b00 5
b0100 =
b10 :
b00001000 (
#1866
0?
04
#1871
1?
14
b01 5
b0101 =
b11 :
b00001001 (
#1876
0?
04
#1881
1?
14
b00 5
b0110 =
b00 :
b00001010 (
#1886
0?
04
#1891
1?
14
b01 5
b0000 =
b01 :
b00001011 (
#1896
0?
04
#1901
1?
14
b00 5
b0001 =
b10 :
b00001100 (
#1906
0?
04
#1911
1?
14
b01 5
b0010 =
b11 :
b00001101 (
#1916
0?
04
#1921
1?
14
b00 5
b0011 =
b00 :
b00001110 (
#1926
0?
04
0&
06
#1931
b10 !
1?
14
b01 5
b0100 =
b01 :
b00001111 (
#1936
0?
04
#1941
b01 !
1?
14
18
b00 5
b0101 =
b10 :
17
b00000000 (
1>
#1946
0?
04
#1951
b00 !
1?
14
01
b01 5
02
09
b0110 =
b01 :
b00000001 (
0,
#1956
0?
04
#1961
1?
14
08
b00 5
b0000 =
b00 :
07
b00000010 (
0>
#1966
0?
04
#1971
1?
14
b01 5
b0001 =
b01 :
b00000011 (
#1976
0?
04
#1981
1?
14
b00 5
b0000 =
b10 :
b00000100 (
#1986
0?
04
#1991
1?
14
11
b01 5
12
19
b0001 =
b11 :
b00000101 (
1,
#1996
0?
04
#2001
1?
14
b00 5
b0010 =
b00 :
b00000110 (
#2006
0?
04
1&
16
#2011
b01 !
1?
14
b01 5
b0011 =
b01 :
b00000111 (
#2016
0?
04
#2021
b10 !
1?
b00000111 %
14
18
b00 5
b0100 =
b10 :
17
b00000000 (
1>
#2026
0?
04
#2031
0-
14
b01 5
b0101 =
b00000001 (
0/
1)
b11 !
1?
1"
01
1#
02
09
0$
b01 :
0,
#2036
0?
04
#2041
1?
14
08
b00 5
b0000 =
b00 :
07
b00000010 (
0>
#2046
0?
04
#2051
1?
14
b01 5
b0001 =
b01 :
b00000011 (
#2056
0?
04
#2061
1?
14
b00 5
b0000 =
b10 :
b00000100 (
#2066
0?
04
#2071
1?
14
11
b01 5
12
19
b0001 =
b11 :
b00000101 (
1,
#2076
0?
04
#2081
1?
14
b00 5
b0010 =
b00 :
b00000110 (
#2086
0?
04
0&
06
#2091
b10 !
1?
14
b01 5
b0011 =
b01 :
b00000111 (
#2096
0?
04
#2101
b01 !
1?
14
18
b00 5
b0100 =
b10 :
17
b00000000 (
1>
#2106
0?
04
#2111
b00 !
1?
14
01
b01 5
02
09
b0101 =
b01 :
b00000001 (
0,
#2116
0?
04
#2121
1?
14
08
b00 5
b0000 =
b00 :
07
b00000010 (
0>
#2126
0?
04
#2131
1?
14
b01 5
b0001 =
b01 :
b00000011 (
#2136
0?
04
#2141
1?
14
b00 5
b0000 =
b10 :
b00000100 (
#2146
0?
04
#2151
1?
14
11
b01 5
12
19
b0001 =
b11 :
b00000101 (
1,
#2156
0?
04
#2161
1?
14
b00 5
b0010 =
b00 :
b00000110 (
#2166
0?
04
1&
16
#2171
b01 !
1?
14
b01 5
b0011 =
b01 :
b00000111 (
#2176
0?
04
#2181
b10 !
1?
14
18
b00 5
b0100 =
b10 :
17
b00000000 (
1>
#2186
0?
04
#2191
b11 !
1?
14
01
b01 5
02
09
b0101 =
b01 :
b00000001 (
0,
#2196
0?
04
#2201
1?
14
08
b00 5
b0000 =
b00 :
07
b00000010 (
0>
#2206
0?
04
#2211
1?
14
b01 5
b0001 =
b01 :
b00000011 (
#2216
0?
04
#2221
1?
14
b00 5
b0000 =
b10 :
b00000100 (
#2226
0?
04
#2231
1?
14
11
b01 5
12
19
b0001 =
b11 :
b00000101 (
1,
#2236
0?
04
#2241
1?
14
b00 5
b0010 =
b00 :
b00000110 (
#2246
0?
04
0&
06
#2251
b10 !
1?
14
b01 5
b0011 =
b01 :
b00000111 (
#2256
0?
04
#2261
b01 !
1?
14
18
b00 5
b0100 =
b10 :
17
b00000000 (
1>
#2266
0?
04
#2271
b00 !
1?
14
01
b01 5
02
09
b0101 =
b01 :
b00000001 (
0,
#2276
0?
04
#2281
1?
14
08
b00 5
b0000 =
b00 :
07
b00000010 (
0>
#2286
0?
04
#2291
1?
14
b01 5
b0001 =
b01 :
b00000011 (
#2296
0?
04
#2301
1?
14
b00 5
b0000 =
b10 :
b00000100 (
#2306
0?
04
#2311
1?
14
11
b01 5
12
19
b0001 =
b11 :
b00000101 (
1,
#2316
0?
04
#2321
1?
14
b00 5
b0010 =
b00 :
b00000110 (
#2326
0?
04
1&
16
#2331
b01 !
1?
14
b01 5
b0011 =
b01 :
b00000111 (
#2336
0?
04
#2341
b10 !
1?
14
18
b00 5
b0100 =
b10 :
17
b00000000 (
1>
#2346
0?
04
#2351
b11 !
1?
14
01
b01 5
02
09
b0101 =
b01 :
b00000001 (
0,
#2356
0?
04
#2361
1?
14
08
b00 5
b0000 =
b00 :
07
b00000010 (
0>
#2366
0?
04
#2371
1?
14
b01 5
b0001 =
b01 :
b00000011 (
#2376
0?
04
#2381
1?
14
b00 5
b0000 =
b10 :
b00000100 (
#2386
0?
04
#2391
1?
14
11
b01 5
12
19
b0001 =
b11 :
b00000101 (
1,
#2396
0?
04
#2401
1?
14
b00 5
b0010 =
b00 :
b00000110 (
#2406
0?
04
0&
06
#2411
b10 !
1?
14
b01 5
b0011 =
b01 :
b00000111 (
#2416
0?
04
#2421
b01 !
1?
14
18
b00 5
b0100 =
b10 :
17
b00000000 (
1>
#2426
0?
04
#2431
b00 !
1?
14
01
b01 5
02
09
b0101 =
b01 :
b00000001 (
0,
#2436
0?
04
#2441
1?
14
08
b00 5
b0000 =
b00 :
07
b00000010 (
0>
#2446
0?
04
#2451
1?
14
b01 5
b0001 =
b01 :
b00000011 (
#2456
0?
04
#2461
1?
14
b00 5
b0000 =
b10 :
b00000100 (
#2466
0?
04
#2471
1?
14
11
b01 5
12
19
b0001 =
b11 :
b00000101 (
1,
#2476
0?
04
#2481
1?
14
b00 5
b0010 =
b00 :
b00000110 (
#2486
0?
04
1&
16
#2491
b01 !
1?
14
b01 5
b0011 =
b01 :
b00000111 (
#2496
0?
04
#2501
b10 !
1?
14
18
b00 5
b0100 =
b10 :
17
b00000000 (
1>
#2506
0?
04
#2511
b11 !
1?
14
01
b01 5
02
09
b0101 =
b01 :
b00000001 (
0,
#2516
0?
04
#2521
1?
14
08
b00 5
b0000 =
b00 :
07
b00000010 (
0>
#2526
0?
04
#2531
1?
14
b01 5
b0001 =
b01 :
b00000011 (
#2536
0?
04
#2541
1?
14
b00 5
b0000 =
b10 :
b00000100 (
#2546
0?
04
#2551
1?
14
11
b01 5
12
19
b0001 =
b11 :
b00000101 (
1,
#2556
0?
04
#2561
1?
14
b00 5
b0010 =
b00 :
b00000110 (
#2566
0?
04
0&
06
#2571
b10 !
1?
14
b01 5
b0011 =
b01 :
b00000111 (
#2576
0?
04
#2581
b01 !
1?
14
18
b00 5
b0100 =
b10 :
17
b00000000 (
1>
#2586
0?
04
#2591
b00 !
1?
14
01
b01 5
02
09
b0101 =
b01 :
b00000001 (
0,
#2596
0?
04
#2601
1?
14
08
b00 5
b0000 =
b00 :
07
b00000010 (
0>
#2606
0?
04
#2611
1?
14
b01 5
b0001 =
b01 :
b00000011 (
#2616
0?
04
#2621
1?
14
b00 5
b0000 =
b10 :
b00000100 (
#2626
0?
04
#2631
1?
14
11
b01 5
12
19
b0001 =
b11 :
b00000101 (
1,
#2636
0?
04
#2641
1?
14
b00 5
b0010 =
b00 :
b00000110 (
#2646
0?
04
1&
16
#2651
b01 !
1?
14
b01 5
b0011 =
b01 :
b00000111 (
#2656
0?
04
#2661
b10 !
1?
14
18
b00 5
b0100 =
b10 :
17
b00000000 (
1>
#2666
0?
04
#2671
b11 !
1?
14
01
b01 5
02
09
b0101 =
b01 :
b00000001 (
0,
#2676
0?
04
#2681
1?
14
08
b00 5
b0000 =
b00 :
07
b00000010 (
0>
#2686
0?
04
#2691
1?
14
b01 5
b0001 =
b01 :
b00000011 (
#2696
0?
04
#2701
1?
14
b00 5
b0000 =
b10 :
b00000100 (
#2706
0?
04
#2711
1?
14
11
b01 5
12
19
b0001 =
b11 :
b00000101 (
1,
#2716
0?
04
#2721
1?
14
b00 5
b0010 =
b00 :
b00000110 (
#2726
0?
04
0&
06
#2731
b10 !
1?
14
b01 5
b0011 =
b01 :
b00000111 (
#2736
0?
04
#2741
b01 !
1?
14
18
b00 5
b0100 =
b10 :
17
b00000000 (
1>
#2746
0?
04
#2751
b00 !
1?
14
01
b01 5
02
09
b0101 =
b01 :
b00000001 (
0,
#2756
0?
04
#2761
1?
14
08
b00 5
b0000 =
b00 :
07
b00000010 (
0>
#2766
0?
04
#2771
1?
14
b01 5
b0001 =
b01 :
b00000011 (
#2776
0?
04
#2781
1?
14
b00 5
b0000 =
b10 :
b00000100 (
#2786
0?
04
#2791
1?
14
11
b01 5
12
19
b0001 =
b11 :
b00000101 (
1,
#2796
0?
04
#2801
1?
14
b00 5
b0010 =
b00 :
b00000110 (
#2806
0?
04
1&
16
#2811
b01 !
1?
14
b01 5
b0011 =
b01 :
b00000111 (
#2816
0?
04
#2821
b10 !
1?
14
18
b00 5
b0100 =
b10 :
17
b00000000 (
1>
#2826
0?
04
#2831
b11 !
1?
14
01
b01 5
02
09
b0101 =
b01 :
b00000001 (
0,
#2836
0?
04
#2841
1?
14
08
b00 5
b0000 =
b00 :
07
b00000010 (
0>
#2846
0?
04
#2851
1?
14
b01 5
b0001 =
b01 :
b00000011 (
#2856
0?
04
#2861
1?
14
b00 5
b0000 =
b10 :
b00000100 (
#2866
0?
04
#2871
1?
14
11
b01 5
12
19
b0001 =
b11 :
b00000101 (
1,
#2876
0?
04
#2881
1?
14
b00 5
b0010 =
b00 :
b00000110 (
#2886
0?
04
0&
06
#2891
b10 !
1?
14
b01 5
b0011 =
b01 :
b00000111 (
#2896
0?
04
#2901
b01 !
1?
14
18
b00 5
b0100 =
b10 :
17
b00000000 (
1>
#2906
0?
04
#2911
b00 !
1?
14
01
b01 5
02
09
b0101 =
b01 :
b00000001 (
0,
#2916
0?
04
#2921
1?
14
08
b00 5
b0000 =
b00 :
07
b00000010 (
0>
#2926
0?
04
#2931
1?
14
b01 5
b0001 =
b01 :
b00000011 (
#2936
0?
04
#2941
1?
14
b00 5
b0000 =
b10 :
b00000100 (
#2946
0?
04
#2951
1?
14
11
b01 5
12
19
b0001 =
b11 :
b00000101 (
1,
#2956
0?
04
#2961
1?
14
b00 5
b0010 =
b00 :
b00000110 (
#2966
0?
04
1&
16
#2971
b01 !
1?
14
b01 5
b0011 =
b01 :
b00000111 (
#2976
0?
04
#2981
b10 !
1?
14
18
b00 5
b0100 =
b10 :
17
b00000000 (
1>
#2986
0?
04
#2991
b11 !
1?
14
01
b01 5
02
09
b0101 =
b01 :
b00000001 (
0,
#2996
0?
04
#3001
1?
14
08
b00 5
b0000 =
b00 :
07
b00000010 (
0>
#3006
0?
04
#3011
1?
14
b01 5
b0001 =
b01 :
b00000011 (
#3016
0?
04
#3021
1?
14
b00 5
b0000 =
b10 :
b00000100 (
#3026
0?
04
#3031
1?
14
11
b01 5
12
19
b0001 =
b11 :
b00000101 (
1,
#3036
0?
04
#3041
1?
14
b00 5
b0010 =
b00 :
b00000110 (
#3046
0?
04
0&
06
#3051
b10 !
1?
14
b01 5
b0011 =
b01 :
b00000111 (
#3056
0?
04
#3061
b01 !
1?
14
18
b00 5
b0100 =
b10 :
17
b00000000 (
1>
#3066
0?
04
#3071
b00 !
1?
14
01
b01 5
02
09
b0101 =
b01 :
b00000001 (
0,
#3076
0?
04
#3081
1?
14
08
b00 5
b0000 =
b00 :
07
b00000010 (
0>
#3086
0?
04
#3091
1?
14
b01 5
b0001 =
b01 :
b00000011 (
#3096
0?
04
#3101
1?
14
b00 5
b0000 =
b10 :
b00000100 (
#3106
0?
04
