Intervox_Reciever/test_run_dir/interVox_Reciever_should_pass/interVox_Reciever.vcd
$date
2023-01-14T23:13+0000
$end
$version
0.2
$end
$comment

$end
$timescale 1ns  $end
$scope module interVox_Reciever $end
 $var wire 1 $ io_BCLK $end
 $var wire 1 , io_INTERVOX_IN $end
 $var wire 1 - io_LRCLK $end
 $var wire 1 2 io_SDATA $end
 $var wire 1 3 io_DATA_OUT $end
 $var wire 1 4 io_CLK_REC $end
 $var wire 1 9 io_DBUG $end
 $var wire 16 A io_LEDS $end
 $var wire 1 B clockRec $end
 $var wire 1 C clock $end
 $var wire 1 G io_DBUG1 $end
 $var wire 1 O reset $end
 $var wire 1 V i2sTrans $end
 $var wire 1 W io_CLK_DBUG $end
  $scope module i2sTrans $end
   $var wire 1 & lrclk $end
   $var wire 1 ' io_DATA_IN $end
   $var wire 1 ) io_LRCLK $end
   $var wire 1 * sdata $end
   $var wire 1 + enable $end
   $var wire 1 / io_SDATA $end
   $var wire 6 1 bitCntr $end
   $var wire 1 ; reset $end
   $var wire 1 > io_NEXT $end
   $var wire 1 ? io_BCLK $end
   $var wire 1 L io_CLK_IN $end
   $var wire 1 N BCLKEDGE $end
   $var wire 1 P clock $end
    $scope module BCLKEDGE $end
     $var wire 1 ( clock $end
     $var wire 2 6 inBufrPrev $end
     $var wire 2 7 inBufr $end
     $var wire 1 8 io_INPUT $end
     $var wire 1 < reset $end
     $var wire 1 E rising $end
     $var wire 1 H io_RISE $end
    $upscope $end
  $upscope $end
  $scope module i2sTrans.BCLKEDGE $end
  $upscope $end
  $scope module clockRec $end
   $var wire 2 ! inBufr $end
   $var wire 1 " dataOut $end
   $var wire 1 # io_DATA_OUT $end
   $var wire 1 % zeroFlipped $end
   $var wire 8 . lastOne $end
   $var wire 1 0 syncFlipped1 $end
   $var wire 8 5 deltaCntr $end
   $var wire 1 : io_DBUG $end
   $var wire 1 = reset $end
   $var wire 1 @ io_CLK_OUT $end
   $var wire 16 D io_LEDS $end
   $var wire 1 F io_DATA_IN $end
   $var wire 1 I io_DBUG1 $end
   $var wire 1 J change_REG $end
   $var wire 1 K clkRec $end
   $var wire 1 M syncFlipped2 $end
   $var wire 1 Q change_REG_1 $end
   $var wire 1 R syncFlipped $end
   $var wire 1 S change $end
   $var wire 1 T syncWord $end
   $var wire 1 U clock $end
  $upscope $end
$upscope $end
$enddefinitions $end
$dumpvars
0%
0C
0;
0&
b0000000000000000 A
0<
0'
0R
0=
0S
0>
b0000000000000000 D
0T
0"
0U
0M
08
0#
0V
0N
09
0O
0:
02
0P
03
0Q
0I
04
0J
b00 6
0-
0K
b00 !
b00 7
0L
b000000 1
0/
0E
00
0(
0F
0)
0G
0?
0*
0H
0@
0+
b00000000 5
0,
0$
0W
0B
b00000000 .
$end
#0
1<
b0000000000001111 D
1O
1=
b0000000000001111 A
1;
#1
1C
1U
b00001111 .
1(
1P
#6
0<
0C
0U
0O
0(
0=
0P
0;
#11
1C
1U
b00000001 5
1(
1P
#16
0C
0U
0(
0P
#21
1C
1U
b00000010 5
1(
1P
#26
0C
0U
0(
0P
#31
1C
1U
b00000011 5
1(
1P
#36
0C
0U
0(
0P
#41
1C
1U
b00000100 5
1(
1P
#46
0C
0U
0(
0P
#51
1C
1U
b00000101 5
1(
1P
#56
0C
0U
0(
0P
#61
1C
1U
b00000110 5
1(
1P
#66
0C
0U
0(
0P
#71
1C
1U
b00000111 5
1(
1P
#76
0C
0U
0(
0P
#81
1C
1U
b00001000 5
1(
1P
#86
0C
0U
0(
0P
#91
1C
1U
b00001001 5
1(
1P
#96
0C
0U
0(
0P
#101
1C
1U
b00001010 5
1(
1P
#106
0C
0U
0(
0P
#111
1C
1U
b00001011 5
1(
1P
#116
0C
0U
0(
0P
#121
1C
1U
b00001100 5
1(
1P
#126
0C
0U
0(
0P
#131
1C
1U
b00001101 5
1(
1P
#136
0C
0U
0(
0P
#141
1C
1U
b00001110 5
1(
1P
#146
0C
0U
0(
0P
#151
1C
1U
b00001111 5
1(
1P
#156
0C
0U
0(
0P
#161
1C
1U
b00010000 5
1(
1P
#166
0C
0U
0(
0P
#171
1C
1U
b00010001 5
1(
1P
#176
0C
0U
0(
0P
#181
1?
1%
1C
1U
1@
18
b00010010 5
1K
1$
1(
1L
1P
#186
0C
0U
0(
0P
#191
1C
1U
b00010011 5
1(
b01 7
1P
#196
0C
0U
0(
0P
#201
1C
1U
b00010100 5
1H
1E
b01 6
1(
b10 7
1P
#206
0C
0U
0(
0P
#211
1C
1U
b00010101 5
0H
0E
1(
1P
#216
0C
0U
0(
0P
#221
1C
1U
b00010110 5
1(
1P
#226
0C
0U
0(
0P
#231
1C
1U
b00010111 5
1(
1P
#236
0C
0U
0(
0P
#241
1C
1U
b00011000 5
1(
1P
#246
0C
0U
0(
0P
#251
1C
1U
b00011001 5
1(
1P
#256
0C
0U
0(
0P
#261
1C
1U
b00011010 5
1(
1P
#266
0C
0U
0(
0P
#271
1C
1U
b00011011 5
1(
1P
#276
0C
0U
0(
0P
#281
1C
1U
b00011100 5
1(
1P
#286
0C
0U
0(
0P
#291
1C
1U
b00011101 5
1(
1P
#296
0C
0U
0(
0P
#301
1C
1U
b00011110 5
1(
1P
#306
0C
0U
0(
0P
#311
1C
1U
b00011111 5
1(
1P
#316
0C
0U
0(
0P
#321
1C
1U
b00100000 5
1(
1P
#326
1F
0C
0U
0(
0P
1,
#331
b01 !
0?
1C
1U
1R
0@
08
b00100001 5
0K
0$
1(
0L
1P
#336
0C
0U
0(
0P
#341
b10 !
1C
1U
b00100010 5
1S
19
b10 6
1(
b01 7
1:
1P
#346
0C
0U
0(
0P
#351
0%
1C
0R
b00000000 5
0S
1K
b01 6
1(
b00 7
1L
b11 !
1?
1U
1@
18
09
1$
0:
1P
#356
0C
0U
0(
0P
#361
1C
1U
b00000001 5
b00 6
1(
b01 7
1P
#366
0C
0U
0(
0P
#371
1C
1U
b00000010 5
1H
1E
b01 6
1(
b10 7
1P
#376
0C
0U
0(
0P
#381
1C
1U
b00000011 5
0H
0E
1(
1P
#386
0C
0U
0(
0P
#391
1C
1U
b00000100 5
1(
1P
#396
0C
0U
0(
0P
#401
1C
1U
b00000101 5
1(
1P
#406
0C
0U
0(
0P
#411
1C
1U
b00000110 5
1(
1P
#416
0C
0U
0(
0P
#421
1C
1U
b00000111 5
1(
1P
#426
0C
0U
0(
0P
#431
1C
1U
b00001000 5
1(
1P
#436
0C
0U
0(
0P
#441
1C
1U
b00001001 5
1(
1P
#446
0C
0U
0(
0P
#451
1C
1U
b00001010 5
1(
1P
#456
0C
0U
0(
0P
#461
1C
1U
b00001011 5
1(
1P
#466
0C
0U
0(
0P
#471
1C
1U
b00001100 5
1(
1P
#476
0C
0U
0(
0P
#481
1C
1U
b00001101 5
1(
1P
#486
0F
0C
0U
0(
0P
0,
#491
b10 !
1C
1U
b00001110 5
1(
1P
#496
0C
0U
0(
0P
#501
b01 !
1C
1U
b00001111 5
1S
19
1(
1:
1P
#506
0C
0U
0(
0P
#511
13
1C
b00000000 5
0S
1'
0K
1(
0L
b00 !
0?
1"
1U
0@
08
1#
09
0$
0:
1P
#516
0C
0U
0(
0P
#521
1C
1U
b00000001 5
b10 6
1(
b01 7
1P
#526
0C
0U
0(
0P
#531
1C
1U
b00000010 5
b01 6
1(
b00 7
1P
#536
0C
0U
0(
0P
#541
1C
1U
b00000011 5
1(
1P
#546
0C
0U
0(
0P
#551
1C
1U
b00000100 5
1(
1P
#556
0C
0U
0(
0P
#561
1C
1U
b00000101 5
1(
1P
#566
0C
0U
0(
0P
#571
1C
1U
b00000110 5
1(
1P
#576
0C
0U
0(
0P
#581
1C
1U
b00000111 5
1(
1P
#586
0C
0U
0(
0P
#591
1C
1U
b00001000 5
1(
1P
#596
0C
0U
0(
0P
#601
1C
1U
b00001001 5
1(
1P
#606
0C
0U
0(
0P
#611
1C
1U
b00001010 5
1(
1P
#616
0C
0U
0(
0P
#621
1C
1U
b00001011 5
1(
1P
#626
0C
0U
0(
0P
#631
1C
1U
b00001100 5
1(
1P
#636
0C
0U
0(
0P
#641
1C
1U
b00001101 5
1(
1P
#646
0C
0U
0(
0P
#651
1C
1U
b00001110 5
1(
1P
#656
0C
0U
0(
0P
#661
1C
1U
b00001111 5
1(
1P
#666
0C
0U
0(
0P
#671
1C
1U
b00010000 5
1(
1P
#676
0C
0U
0(
0P
#681
1C
1U
b00010001 5
1(
1P
#686
0C
0U
0(
0P
#691
03
1%
1C
b00010010 5
0'
1K
1(
1L
1?
0"
1U
1@
18
0#
1$
1P
#696
0C
0U
0(
0P
#701
1C
1U
b00010011 5
b00 6
1(
b01 7
1P
#706
0C
0U
0(
0P
#711
1C
1U
b00010100 5
1H
1E
b01 6
1(
b10 7
1P
#716
0C
0U
0(
0P
#721
1C
1U
b00010101 5
0H
0E
1(
1P
#726
0C
0U
0(
0P
#731
1C
1U
b00010110 5
1(
1P
#736
0C
0U
0(
0P
#741
1C
1U
b00010111 5
1(
1P
#746
0C
0U
0(
0P
#751
1C
1U
b00011000 5
1(
1P
#756
0C
0U
0(
0P
#761
1C
1U
b00011001 5
1(
1P
#766
0C
0U
0(
0P
#771
1C
1U
b00011010 5
1(
1P
#776
0C
0U
0(
0P
#781
1C
1U
b00011011 5
1(
1P
#786
0C
0U
0(
0P
#791
1C
1U
b00011100 5
1(
1P
#796
0C
0U
0(
0P
#801
1C
1U
b00011101 5
1(
1P
#806
1F
0C
0U
0(
0P
1,
#811
b01 !
1C
1U
b00011110 5
1(
1P
#816
0C
0U
0(
0P
#821
b10 !
1C
1U
b00011111 5
1S
19
1(
1:
1P
#826
0C
0U
0(
0P
#831
0%
1C
b00000000 5
0S
0K
1(
0L
b11 !
0?
1U
0@
08
09
0$
0:
1P
#836
0C
0U
0(
0P
#841
1C
1U
b00000001 5
b10 6
1(
b01 7
1P
#846
0C
0U
0(
0P
#851
1C
1U
b00000010 5
b01 6
1(
b00 7
1P
#856
0C
0U
0(
0P
#861
1C
1U
b00000011 5
1(
1P
#866
0C
0U
0(
0P
#871
1C
1U
b00000100 5
1(
1P
#876
0C
0U
0(
0P
#881
1C
1U
b00000101 5
1(
1P
#886
0C
0U
0(
0P
#891
1C
1U
b00000110 5
1(
1P
#896
0C
0U
0(
0P
#901
1C
1U
b00000111 5
1(
1P
#906
0C
0U
0(
0P
#911
1C
1U
b00001000 5
1(
1P
#916
0C
0U
0(
0P
#921
1C
1U
b00001001 5
1(
1P
#926
0C
0U
0(
0P
#931
1C
1U
b00001010 5
1(
1P
#936
0C
0U
0(
0P
#941
1C
1U
b00001011 5
1(
1P
#946
0C
0U
0(
0P
#951
1C
1U
b00001100 5
1(
1P
#956
0C
0U
0(
0P
#961
1C
1U
b00001101 5
1(
1P
#966
0C
0U
0(
0P
#971
1C
1U
b00001110 5
1(
1P
#976
0C
0U
0(
0P
#981
1C
1U
b00001111 5
1(
1P
#986
0C
0U
0(
0P
#991
1C
1U
b00010000 5
1(
1P
#996
0C
0U
0(
0P
#1001
1C
1U
b00010001 5
1(
1P
#1006
0C
0U
0(
0P
#1011
1?
1%
1C
1U
1@
18
b00010010 5
1K
1$
1(
1L
1P
#1016
0C
0U
0(
0P
#1021
1C
1U
b00010011 5
b00 6
1(
b01 7
1P
#1026
0C
0U
0(
0P
#1031
1C
1U
b00010100 5
1H
1E
b01 6
1(
b10 7
1P
#1036
0C
0U
0(
0P
#1041
1C
1U
b00010101 5
0H
0E
1(
1P
#1046
0C
0U
0(
0P
#1051
1C
1U
b00010110 5
1(
1P
#1056
0C
0U
0(
0P
#1061
1C
1U
b00010111 5
1(
1P
#1066
0C
0U
0(
0P
#1071
1C
1U
b00011000 5
1(
1P
#1076
0C
0U
0(
0P
#1081
1C
1U
b00011001 5
1(
1P
#1086
0C
0U
0(
0P
#1091
1C
1U
b00011010 5
1(
1P
#1096
0C
0U
0(
0P
#1101
1C
1U
b00011011 5
1(
1P
#1106
0C
0U
0(
0P
#1111
1C
1U
b00011100 5
1(
1P
#1116
0C
0U
0(
0P
#1121
1C
1U
b00011101 5
1(
1P
#1126
0F
0C
0U
0(
0P
0,
#1131
b10 !
1C
1U
b00011110 5
1(
1P
#1136
0C
0U
0(
0P
#1141
b01 !
1C
1U
b00011111 5
1S
19
1(
1:
1P
#1146
0C
0U
0(
0P
#1151
0%
1C
b00000000 5
0S
0K
1(
0L
b00 !
0?
1U
0@
08
09
0$
0:
1P
#1156
0C
0U
0(
0P
#1161
1C
1U
b00000001 5
b10 6
1(
b01 7
1P
#1166
0C
0U
0(
0P
#1171
1C
1U
b00000010 5
b01 6
1(
b00 7
1P
#1176
0C
0U
0(
0P
#1181
1C
1U
b00000011 5
1(
1P
#1186
0C
0U
0(
0P
#1191
1C
1U
b00000100 5
1(
1P
#1196
0C
0U
0(
0P
#1201
1C
1U
b00000101 5
1(
1P
#1206
0C
0U
0(
0P
#1211
1C
1U
b00000110 5
1(
1P
#1216
0C
0U
0(
0P
#1221
1C
1U
b00000111 5
1(
1P
#1226
0C
0U
0(
0P
#1231
1C
1U
b00001000 5
1(
1P
#1236
0C
0U
0(
0P
#1241
1C
1U
b00001001 5
1(
1P
#1246
0C
0U
0(
0P
#1251
1C
1U
b00001010 5
1(
1P
#1256
0C
0U
0(
0P
#1261
1C
1U
b00001011 5
1(
1P
#1266
0C
0U
0(
0P
#1271
1C
1U
b00001100 5
1(
1P
#1276
0C
0U
0(
0P
#1281
1C
1U
b00001101 5
1(
1P
#1286
0C
0U
0(
0P
#1291
1C
1U
b00001110 5
1(
1P
#1296
0C
0U
0(
0P
#1301
1C
1U
b00001111 5
1(
1P
#1306
0C
0U
0(
0P
#1311
1C
1U
b00010000 5
1(
1P
#1316
0C
0U
0(
0P
#1321
1C
1U
b00010001 5
1(
1P
#1326
0C
0U
0(
0P
#1331
1?
1%
1C
1U
1@
18
b00010010 5
1K
1$
1(
1L
1P
#1336
0C
0U
0(
0P
#1341
1C
1U
b00010011 5
b00 6
1(
b01 7
1P
#1346
0C
0U
0(
0P
#1351
1C
1U
b00010100 5
1H
1E
b01 6
1(
b10 7
1P
#1356
0C
0U
0(
0P
#1361
1C
1U
b00010101 5
0H
0E
1(
1P
#1366
0C
0U
0(
0P
#1371
1C
1U
b00010110 5
1(
1P
#1376
0C
0U
0(
0P
#1381
1C
1U
b00010111 5
1(
1P
#1386
0C
0U
0(
0P
#1391
1C
1U
b00011000 5
1(
1P
#1396
0C
0U
0(
0P
#1401
1C
1U
b00011001 5
1(
1P
#1406
0C
0U
0(
0P
#1411
1C
1U
b00011010 5
1(
1P
#1416
0C
0U
0(
0P
#1421
1C
1U
b00011011 5
1(
1P
#1426
0C
0U
0(
0P
#1431
1C
1U
b00011100 5
1(
1P
#1436
0C
0U
0(
0P
#1441
1C
1U
b00011101 5
1(
1P
#1446
1F
0C
0U
0(
0P
1,
#1451
b01 !
1C
1U
b00011110 5
1(
1P
#1456
0C
0U
0(
0P
#1461
b10 !
1C
1U
b00011111 5
1S
19
1(
1:
1P
#1466
0C
0U
0(
0P
#1471
0%
1C
b00000000 5
0S
0K
1(
0L
b11 !
0?
1U
0@
08
09
0$
0:
1P
#1476
0C
0U
0(
0P
#1481
1C
1U
b00000001 5
b10 6
1(
b01 7
1P
#1486
0C
0U
0(
0P
#1491
1C
1U
b00000010 5
b01 6
1(
b00 7
1P
#1496
0C
0U
0(
0P
#1501
1C
1U
b00000011 5
1(
1P
#1506
0C
0U
0(
0P
#1511
1C
1U
b00000100 5
1(
1P
#1516
0C
0U
0(
0P
#1521
1C
1U
b00000101 5
1(
1P
#1526
0C
0U
0(
0P
#1531
1C
1U
b00000110 5
1(
1P
#1536
0C
0U
0(
0P
#1541
1C
1U
b00000111 5
1(
1P
#1546
0C
0U
0(
0P
#1551
1C
1U
b00001000 5
1(
1P
#1556
0C
0U
0(
0P
#1561
1C
1U
b00001001 5
1(
1P
#1566
0C
0U
0(
0P
#1571
1C
1U
b00001010 5
1(
1P
#1576
0C
0U
0(
0P
#1581
1C
1U
b00001011 5
1(
1P
#1586
0C
0U
0(
0P
#1591
1C
1U
b00001100 5
1(
1P
#1596
0C
0U
0(
0P
#1601
1C
1U
b00001101 5
1(
1P
#1606
0C
0U
0(
0P
#1611
1C
1U
b00001110 5
1(
1P
#1616
0C
0U
0(
0P
#1621
1C
1U
b00001111 5
1(
1P
#1626
0C
0U
0(
0P
#1631
1C
1U
b00010000 5
1(
1P
#1636
0C
0U
0(
0P
#1641
1C
1U
b00010001 5
1(
1P
#1646
0C
0U
0(
0P
#1651
1?
1%
1C
1U
1@
18
b00010010 5
1K
1$
1(
1L
1P
#1656
0C
0U
0(
0P
#1661
1C
1U
b00010011 5
b00 6
1(
b01 7
1P
#1666
0C
0U
0(
0P
#1671
1C
1U
b00010100 5
1H
1E
b01 6
1(
b10 7
1P
#1676
0C
0U
0(
0P
#1681
1C
1U
b00010101 5
0H
0E
1(
1P
#1686
0C
0U
0(
0P
#1691
1C
1U
b00010110 5
1(
1P
#1696
0C
0U
0(
0P
#1701
1C
1U
b00010111 5
1(
1P
#1706
0C
0U
0(
0P
#1711
1C
1U
b00011000 5
1(
1P
#1716
0C
0U
0(
0P
#1721
1C
1U
b00011001 5
1(
1P
#1726
0C
0U
0(
0P
#1731
1C
1U
b00011010 5
1(
1P
#1736
0C
0U
0(
0P
#1741
1C
1U
b00011011 5
1(
1P
#1746
0C
0U
0(
0P
#1751
1C
1U
b00011100 5
1(
1P
#1756
0C
0U
0(
0P
#1761
1C
1U
b00011101 5
1(
1P
#1766
0F
0C
0U
0(
0P
0,
#1771
b10 !
1C
1U
b00011110 5
1(
1P
#1776
0C
0U
0(
0P
#1781
b01 !
1C
1U
b00011111 5
1S
19
1(
1:
1P
#1786
0C
0U
0(
0P
#1791
0%
1C
b00000000 5
0S
0K
1(
0L
b00 !
0?
1U
0@
08
09
0$
0:
1P
#1796
0C
0U
0(
0P
#1801
1C
1U
b00000001 5
b10 6
1(
b01 7
1P
#1806
0C
0U
0(
0P
#1811
1C
1U
b00000010 5
b01 6
1(
b00 7
1P
#1816
0C
0U
0(
0P
#1821
1C
1U
b00000011 5
1(
1P
#1826
0C
0U
0(
0P
#1831
1C
1U
b00000100 5
1(
1P
#1836
0C
0U
0(
0P
#1841
1C
1U
b00000101 5
1(
1P
#1846
0C
0U
0(
0P
#1851
1C
1U
b00000110 5
1(
1P
#1856
0C
0U
0(
0P
#1861
1C
1U
b00000111 5
1(
1P
#1866
0C
0U
0(
0P
#1871
1C
1U
b00001000 5
1(
1P
#1876
0C
0U
0(
0P
#1881
1C
1U
b00001001 5
1(
1P
#1886
0C
0U
0(
0P
#1891
1C
1U
b00001010 5
1(
1P
#1896
0C
0U
0(
0P
#1901
1C
1U
b00001011 5
1(
1P
#1906
0C
0U
0(
0P
#1911
1C
1U
b00001100 5
1(
1P
#1916
0C
0U
0(
0P
#1921
1C
1U
b00001101 5
1(
1P
#1926
0C
0U
0(
0P
#1931
1C
1U
b00001110 5
1(
1P
#1936
0C
0U
0(
0P
#1941
1C
1U
b00001111 5
1(
1P
#1946
0C
0U
0(
0P
#1951
1C
1U
b00010000 5
1(
1P
#1956
0C
0U
0(
0P
#1961
1C
1U
b00010001 5
1(
1P
#1966
0C
0U
0(
0P
#1971
1?
1%
1C
1U
1@
18
b00010010 5
1K
1$
1(
1L
1P
#1976
0C
0U
0(
0P
#1981
1C
1U
b00010011 5
b00 6
1(
b01 7
1P
#1986
0C
0U
0(
0P
#1991
1C
1U
b00010100 5
1H
1E
b01 6
1(
b10 7
1P
#1996
0C
0U
0(
0P
#2001
1C
1U
b00010101 5
0H
0E
1(
1P
#2006
0C
0U
0(
0P
#2011
1C
1U
b00010110 5
1(
1P
#2016
0C
0U
0(
0P
#2021
1C
1U
b00010111 5
1(
1P
#2026
0C
0U
0(
0P
#2031
1C
1U
b00011000 5
1(
1P
#2036
0C
0U
0(
0P
#2041
1C
1U
b00011001 5
1(
1P
#2046
0C
0U
0(
0P
#2051
1C
1U
b00011010 5
1(
1P
#2056
0C
0U
0(
0P
#2061
1C
1U
b00011011 5
1(
1P
#2066
0C
0U
0(
0P
#2071
1C
1U
b00011100 5
1(
1P
#2076
0C
0U
0(
0P
#2081
1C
1U
b00011101 5
1(
1P
#2086
1F
0C
0U
0(
0P
1,
#2091
b01 !
1C
1U
b00011110 5
1(
1P
#2096
0C
0U
0(
0P
#2101
b10 !
1C
1U
b00011111 5
1S
19
1(
1:
1P
#2106
0C
0U
0(
0P
#2111
0%
1C
b00000000 5
0S
0K
1(
0L
b11 !
0?
1U
0@
08
09
0$
0:
1P
#2116
0C
0U
0(
0P
#2121
1C
1U
b00000001 5
b10 6
1(
b01 7
1P
#2126
0C
0U
0(
0P
#2131
1C
1U
b00000010 5
b01 6
1(
b00 7
1P
#2136
0C
0U
0(
0P
#2141
1C
1U
b00000011 5
1(
1P
#2146
0C
0U
0(
0P
#2151
1C
1U
b00000100 5
1(
1P
#2156
0C
0U
0(
0P
#2161
1C
1U
b00000101 5
1(
1P
#2166
0C
0U
0(
0P
#2171
1C
1U
b00000110 5
1(
1P
#2176
0C
0U
0(
0P
#2181
1C
1U
b00000111 5
1(
1P
#2186
0C
0U
0(
0P
#2191
1C
1U
b00001000 5
1(
1P
#2196
0C
0U
0(
0P
#2201
1C
1U
b00001001 5
1(
1P
#2206
0C
0U
0(
0P
#2211
1C
1U
b00001010 5
1(
1P
#2216
0C
0U
0(
0P
#2221
1C
1U
b00001011 5
1(
1P
#2226
0C
0U
0(
0P
#2231
1C
1U
b00001100 5
1(
1P
#2236
0C
0U
0(
0P
#2241
1C
1U
b00001101 5
1(
1P
#2246
0C
0U
0(
0P
#2251
1C
1U
b00001110 5
1(
1P
#2256
0C
0U
0(
0P
#2261
1C
1U
b00001111 5
1(
1P
#2266
0C
0U
0(
0P
#2271
1C
1U
b00010000 5
1(
1P
#2276
0C
0U
0(
0P
#2281
1C
1U
b00010001 5
1(
1P
#2286
0C
0U
0(
0P
#2291
1?
1%
1C
1U
1@
18
b00010010 5
1K
1$
1(
1L
1P
#2296
0C
0U
0(
0P
#2301
1C
1U
b00010011 5
b00 6
1(
b01 7
1P
#2306
0C
0U
0(
0P
#2311
1C
1U
b00010100 5
1H
1E
b01 6
1(
b10 7
1P
#2316
0C
0U
0(
0P
#2321
1C
1U
b00010101 5
0H
0E
1(
1P
#2326
0C
0U
0(
0P
#2331
1C
1U
b00010110 5
1(
1P
#2336
0C
0U
0(
0P
#2341
1C
1U
b00010111 5
1(
1P
#2346
0C
0U
0(
0P
#2351
1C
1U
b00011000 5
1(
1P
#2356
0C
0U
0(
0P
#2361
1C
1U
b00011001 5
1(
1P
#2366
0C
0U
0(
0P
#2371
1C
1U
b00011010 5
1(
1P
#2376
0C
0U
0(
0P
#2381
1C
1U
b00011011 5
1(
1P
#2386
0C
0U
0(
0P
#2391
1C
1U
b00011100 5
1(
1P
#2396
0C
0U
0(
0P
#2401
1C
1U
b00011101 5
1(
1P
#2406
0F
0C
0U
0(
0P
0,
#2411
b10 !
1C
1U
b00011110 5
1(
1P
#2416
0C
0U
0(
0P
#2421
b01 !
1C
1U
b00011111 5
1S
19
1(
1:
1P
#2426
0C
0U
0(
0P
#2431
0%
1C
b00000000 5
0S
0K
1(
0L
b00 !
0?
1U
0@
08
09
0$
0:
1P
#2436
0C
0U
0(
0P
#2441
1C
1U
b00000001 5
b10 6
1(
b01 7
1P
#2446
0C
0U
0(
0P
#2451
1C
1U
b00000010 5
b01 6
1(
b00 7
1P
#2456
0C
0U
0(
0P
#2461
1C
1U
b00000011 5
1(
1P
#2466
0C
0U
0(
0P
#2471
1C
1U
b00000100 5
1(
1P
#2476
0C
0U
0(
0P
#2481
1C
1U
b00000101 5
1(
1P
#2486
0C
0U
0(
0P
#2491
1C
1U
b00000110 5
1(
1P
#2496
0C
0U
0(
0P
#2501
1C
1U
b00000111 5
1(
1P
#2506
0C
0U
0(
0P
#2511
1C
1U
b00001000 5
1(
1P
#2516
0C
0U
0(
0P
#2521
1C
1U
b00001001 5
1(
1P
#2526
0C
0U
0(
0P
#2531
1C
1U
b00001010 5
1(
1P
#2536
0C
0U
0(
0P
#2541
1C
1U
b00001011 5
1(
1P
#2546
0C
0U
0(
0P
#2551
1C
1U
b00001100 5
1(
1P
#2556
0C
0U
0(
0P
#2561
1C
1U
b00001101 5
1(
1P
#2566
0C
0U
0(
0P
#2571
1C
1U
b00001110 5
1(
1P
#2576
0C
0U
0(
0P
#2581
1C
1U
b00001111 5
1(
1P
#2586
0C
0U
0(
0P
#2591
1C
1U
b00010000 5
1(
1P
#2596
0C
0U
0(
0P
#2601
1C
1U
b00010001 5
1(
1P
#2606
0C
0U
0(
0P
#2611
1?
1%
1C
1U
1@
18
b00010010 5
1K
1$
1(
1L
1P
#2616
0C
0U
0(
0P
#2621
1C
1U
b00010011 5
b00 6
1(
b01 7
1P
#2626
0C
0U
0(
0P
#2631
1C
1U
b00010100 5
1H
1E
b01 6
1(
b10 7
1P
#2636
0C
0U
0(
0P
#2641
1C
1U
b00010101 5
0H
0E
1(
1P
#2646
0C
0U
0(
0P
#2651
1C
1U
b00010110 5
1(
1P
#2656
0C
0U
0(
0P
#2661
1C
1U
b00010111 5
1(
1P
#2666
0C
0U
0(
0P
#2671
1C
1U
b00011000 5
1(
1P
#2676
0C
0U
0(
0P
#2681
1C
1U
b00011001 5
1(
1P
#2686
0C
0U
0(
0P
#2691
1C
1U
b00011010 5
1(
1P
#2696
0C
0U
0(
0P
#2701
1C
1U
b00011011 5
1(
1P
#2706
0C
0U
0(
0P
#2711
1C
1U
b00011100 5
1(
1P
#2716
0C
0U
0(
0P
#2721
1C
1U
b00011101 5
1(
1P
#2726
1F
0C
0U
0(
0P
1,
#2731
b01 !
1C
1U
b00011110 5
1(
1P
#2736
0C
0U
0(
0P
#2741
b10 !
1C
1U
b00011111 5
1S
19
1(
1:
1P
#2746
0C
0U
0(
0P
#2751
0%
1C
b00000000 5
0S
0K
1(
0L
b11 !
0?
1U
0@
08
09
0$
0:
1P
#2756
0C
0U
0(
0P
#2761
1C
1U
b00000001 5
b10 6
1(
b01 7
1P
#2766
0C
0U
0(
0P
#2771
1C
1U
b00000010 5
b01 6
1(
b00 7
1P
#2776
0C
0U
0(
0P
#2781
1C
1U
b00000011 5
1(
1P
#2786
0C
0U
0(
0P
#2791
1C
1U
b00000100 5
1(
1P
#2796
0C
0U
0(
0P
#2801
1C
1U
b00000101 5
1(
1P
#2806
0C
0U
0(
0P
#2811
1C
1U
b00000110 5
1(
1P
#2816
0C
0U
0(
0P
#2821
1C
1U
b00000111 5
1(
1P
#2826
0C
0U
0(
0P
#2831
1C
1U
b00001000 5
1(
1P
#2836
0C
0U
0(
0P
#2841
1C
1U
b00001001 5
1(
1P
#2846
0C
0U
0(
0P
#2851
1C
1U
b00001010 5
1(
1P
#2856
0C
0U
0(
0P
#2861
1C
1U
b00001011 5
1(
1P
#2866
0C
0U
0(
0P
#2871
1C
1U
b00001100 5
1(
1P
#2876
0C
0U
0(
0P
#2881
1C
1U
b00001101 5
1(
1P
#2886
0C
0U
0(
0P
#2891
1C
1U
b00001110 5
1(
1P
#2896
0C
0U
0(
0P
#2901
1C
1U
b00001111 5
1(
1P
#2906
0C
0U
0(
0P
#2911
1C
1U
b00010000 5
1(
1P
#2916
0C
0U
0(
0P
#2921
1C
1U
b00010001 5
1(
1P
#2926
0C
0U
0(
0P
#2931
1?
1%
1C
1U
1@
18
b00010010 5
1K
1$
1(
1L
1P
#2936
0C
0U
0(
0P
#2941
1C
1U
b00010011 5
b00 6
1(
b01 7
1P
#2946
0C
0U
0(
0P
#2951
1C
1U
b00010100 5
1H
1E
b01 6
1(
b10 7
1P
#2956
0C
0U
0(
0P
#2961
1C
1U
b00010101 5
0H
0E
1(
1P
#2966
0C
0U
0(
0P
#2971
1C
1U
b00010110 5
1(
1P
#2976
0C
0U
0(
0P
#2981
1C
1U
b00010111 5
1(
1P
#2986
0C
0U
0(
0P
#2991
1C
1U
b00011000 5
1(
1P
#2996
0C
0U
0(
0P
#3001
1C
1U
b00011001 5
1(
1P
#3006
0C
0U
0(
0P
#3011
1C
1U
b00011010 5
1(
1P
#3016
0C
0U
0(
0P
#3021
1C
1U
b00011011 5
1(
1P
#3026
0C
0U
0(
0P
#3031
1C
1U
b00011100 5
1(
1P
#3036
0C
0U
0(
0P
#3041
1C
1U
b00011101 5
1(
1P
#3046
0F
0C
0U
0(
0P
0,
#3051
b10 !
1C
1U
b00011110 5
1(
1P
#3056
0C
0U
0(
0P
#3061
b01 !
1C
1U
b00011111 5
1S
19
1(
1:
1P
#3066
0C
0U
0(
0P
#3071
0%
1C
b00000000 5
0S
0K
1(
0L
b00 !
0?
1U
0@
08
09
0$
0:
1P
#3076
0C
0U
0(
0P
#3081
1C
1U
b00000001 5
b10 6
1(
b01 7
1P
#3086
0C
0U
0(
0P
#3091
1C
1U
b00000010 5
b01 6
1(
b00 7
1P
#3096
0C
0U
0(
0P
#3101
1C
1U
b00000011 5
1(
1P
#3106
0C
0U
0(
0P
#3111
1C
1U
b00000100 5
1(
1P
#3116
0C
0U
0(
0P
#3121
1C
1U
b00000101 5
1(
1P
#3126
0C
0U
0(
0P
#3131
1C
1U
b00000110 5
1(
1P
#3136
0C
0U
0(
0P
#3141
1C
1U
b00000111 5
1(
1P
#3146
0C
0U
0(
0P
#3151
1C
1U
b00001000 5
1(
1P
#3156
0C
0U
0(
0P
#3161
1C
1U
b00001001 5
1(
1P
#3166
0C
0U
0(
0P
#3171
1C
1U
b00001010 5
1(
1P
#3176
0C
0U
0(
0P
#3181
1C
1U
b00001011 5
1(
1P
#3186
0C
0U
0(
0P
