Intervox_Reciever/test_run_dir/interVox_Reciever_should_pass/interVox_Reciever.vcd
$date
2022-11-17T17:19+0000
$end
$version
0.2
$end
$comment

$end
$timescale 1ns  $end
$scope module interVox_Reciever $end
 $var wire 1 % io_INTERVOX_IN $end
 $var wire 1 ' io_CLK_REC $end
 $var wire 1 ( io_DATA_OUT $end
 $var wire 1 + io_NEXT_FRAME $end
 $var wire 1 / clock $end
 $var wire 1 0 clockRec $end
 $var wire 1 4 reset $end
  $scope module clockRec $end
   $var wire 1 ! dataOut $end
   $var wire 1 " io_DATA_OUT $end
   $var wire 9 # expected_cycles_syncword $end
   $var wire 6 $ expected_cycles_one $end
   $var wire 7 & expected_cycles_zero $end
   $var wire 1 ) nextFrame $end
   $var wire 1 * reset $end
   $var wire 1 , outReg $end
   $var wire 1 - io_CLK_OUT $end
   $var wire 1 . noChange $end
   $var wire 8 1 clkCntr $end
   $var wire 1 2 io_DATA_IN $end
   $var wire 1 3 inState $end
   $var wire 1 5 io_NEXT_FRAME $end
   $var wire 1 6 clock $end
  $upscope $end
$upscope $end
$enddefinitions $end
$dumpvars
0%
04
05
0-
0'
0.
b00000000 1
0/
06
0!
00
0(
b000000 $
0"
0)
0*
0+
02
0,
03
b000000000 #
b0000000 &
$end
#0
14
b0111111 &
b001111111 #
1*
b011111 $
#1
16
1/
#6
04
0*
06
0/
#11
b00000001 1
16
1/
#16
06
0/
#21
b00000010 1
16
1/
#26
06
0/
#31
b00000011 1
16
1/
#36
06
0/
#41
b00000100 1
16
1/
#46
06
0/
#51
b00000101 1
16
1/
#56
06
0/
#61
b00000110 1
16
1/
#66
06
0/
#71
b00000111 1
16
1/
#76
06
0/
#81
b00001000 1
16
1/
#86
06
0/
#91
b00001001 1
16
1/
#96
06
0/
#101
b00001010 1
16
1/
#106
06
0/
#111
b00001011 1
16
1/
#116
06
0/
#121
b00001100 1
16
1/
#126
06
0/
#131
b00001101 1
16
1/
#136
06
0/
#141
b00001110 1
16
1/
#146
06
0/
#151
b00001111 1
16
1/
#156
06
0/
#161
1-
b00010000 1
1'
16
1/
1,
#166
06
0/
#171
b00010001 1
1.
16
1/
#176
06
0/
#181
b00010010 1
16
1/
#186
06
0/
#191
b00010011 1
16
1/
#196
06
0/
#201
b00010100 1
16
1/
#206
06
0/
#211
b00010101 1
16
1/
#216
06
0/
#221
b00010110 1
16
1/
#226
06
0/
#231
b00010111 1
16
1/
#236
06
0/
#241
b00011000 1
16
1/
#246
06
0/
#251
b00011001 1
16
1/
#256
06
0/
#261
b00011010 1
16
1/
#266
06
0/
#271
b00011011 1
16
1/
#276
06
0/
#281
b00011100 1
16
1/
#286
06
0/
#291
b00011101 1
16
1/
#296
06
0/
#301
b00011110 1
16
1/
#306
06
0/
#311
b00011111 1
16
1/
#316
06
0/
#321
0-
b00100000 1
0'
16
1/
0,
#326
06
0/
#331
b00100001 1
16
1/
#336
06
0/
#341
b00100010 1
16
1/
#346
06
0/
#351
b00100011 1
16
1/
#356
06
0/
#361
b00100100 1
16
1/
#366
06
0/
#371
b00100101 1
16
1/
#376
06
0/
#381
b00100110 1
16
1/
#386
06
0/
#391
b00100111 1
16
1/
#396
06
0/
#401
b00101000 1
16
1/
#406
06
0/
#411
b00101001 1
16
1/
#416
06
0/
#421
b00101010 1
16
1/
#426
06
0/
#431
b00101011 1
16
1/
#436
06
0/
#441
b00101100 1
16
1/
#446
06
0/
#451
b00101101 1
16
1/
#456
06
0/
#461
b00101110 1
16
1/
#466
06
0/
#471
b00101111 1
16
1/
#476
06
0/
#481
1-
b00110000 1
1'
16
1/
1,
#486
06
0/
#491
b00110001 1
16
1/
#496
06
0/
#501
b00110010 1
16
1/
#506
06
0/
#511
b00110011 1
16
1/
#516
06
0/
#521
b00110100 1
16
1/
#526
06
0/
#531
b00110101 1
16
1/
#536
06
0/
#541
b00110110 1
16
1/
#546
06
0/
#551
b00110111 1
16
1/
#556
06
0/
#561
b00111000 1
16
1/
#566
06
0/
#571
b00111001 1
16
1/
#576
06
0/
#581
b00111010 1
16
1/
#586
06
0/
#591
b00111011 1
16
1/
#596
06
0/
#601
b00111100 1
16
1/
#606
06
0/
#611
b00111101 1
16
1/
#616
06
0/
#621
b00111110 1
16
1/
#626
06
0/
#631
b00111111 1
16
1/
#636
06
0/
#641
0-
b00000000 1
0'
16
1/
0,
#646
06
0/
#651
b00000001 1
16
1/
#656
06
0/
#661
b00000010 1
16
1/
#666
06
0/
#671
b00000011 1
16
1/
#676
06
0/
#681
b00000100 1
16
1/
#686
06
0/
#691
b00000101 1
16
1/
#696
06
0/
#701
b00000110 1
16
1/
#706
06
0/
#711
b00000111 1
16
1/
#716
06
0/
#721
b00001000 1
16
1/
#726
06
0/
#731
b00001001 1
16
1/
#736
06
0/
#741
b00001010 1
16
1/
#746
06
0/
#751
b00001011 1
16
1/
#756
06
0/
#761
b00001100 1
16
1/
#766
06
0/
#771
b00001101 1
16
1/
#776
06
0/
#781
b00001110 1
16
1/
#786
06
0/
#791
b00001111 1
16
1/
#796
06
0/
#801
1-
b00010000 1
1'
16
1/
1,
#806
06
0/
#811
b00010001 1
16
1/
#816
06
0/
#821
b00010010 1
16
1/
#826
06
0/
#831
b00010011 1
16
1/
#836
06
0/
#841
b00010100 1
16
1/
#846
06
0/
#851
b00010101 1
16
1/
#856
06
0/
#861
b00010110 1
16
1/
#866
06
0/
#871
b00010111 1
16
1/
#876
06
0/
#881
b00011000 1
16
1/
#886
06
0/
#891
b00011001 1
16
1/
#896
06
0/
#901
b00011010 1
16
1/
#906
06
0/
#911
b00011011 1
16
1/
#916
06
0/
#921
b00011100 1
16
1/
#926
06
0/
#931
b00011101 1
16
1/
#936
06
0/
#941
b00011110 1
16
1/
#946
06
0/
#951
b00011111 1
16
1/
#956
06
0/
#961
0-
b00100000 1
0'
16
1/
0,
#966
1%
12
06
0/
#971
13
b00100001 1
16
1/
#976
06
0/
#981
b00100010 1
16
1/
#986
06
0/
#991
b00100011 1
16
1/
#996
06
0/
#1001
b00100100 1
16
1/
#1006
06
0/
#1011
b00100101 1
16
1/
#1016
06
0/
#1021
b00100110 1
16
1/
#1026
06
0/
#1031
b00100111 1
16
1/
#1036
06
0/
#1041
b00101000 1
16
1/
#1046
06
0/
#1051
b00101001 1
16
1/
#1056
06
0/
#1061
b00101010 1
16
1/
#1066
06
0/
#1071
b00101011 1
16
1/
#1076
06
0/
#1081
b00101100 1
16
1/
#1086
06
0/
#1091
b00101101 1
16
1/
#1096
06
0/
#1101
b00101110 1
16
1/
#1106
06
0/
#1111
b00101111 1
16
1/
#1116
06
0/
#1121
1-
b00110000 1
1'
16
1/
1,
#1126
06
0/
#1131
b00110001 1
16
1/
#1136
06
0/
#1141
b00110010 1
16
1/
#1146
06
0/
#1151
b00110011 1
16
1/
#1156
06
0/
#1161
b00110100 1
16
1/
#1166
06
0/
#1171
b00110101 1
16
1/
#1176
06
0/
#1181
b00110110 1
16
1/
#1186
06
0/
#1191
b00110111 1
16
1/
#1196
06
0/
#1201
b00111000 1
16
1/
#1206
06
0/
#1211
b00111001 1
16
1/
#1216
06
0/
#1221
b00111010 1
16
1/
#1226
06
0/
#1231
b00111011 1
16
1/
#1236
06
0/
#1241
b00111100 1
16
1/
#1246
06
0/
#1251
b00111101 1
16
1/
#1256
06
0/
#1261
b00111110 1
16
1/
#1266
06
0/
#1271
b00111111 1
16
1/
#1276
06
0/
#1281
0-
b00000000 1
0'
16
1/
0,
#1286
0%
02
06
0/
#1291
03
b00000001 1
16
1/
#1296
06
0/
#1301
b00000010 1
16
1/
#1306
06
0/
#1311
b00000011 1
16
1/
#1316
06
0/
#1321
b00000100 1
16
1/
#1326
06
0/
#1331
b00000101 1
16
1/
#1336
06
0/
#1341
b00000110 1
16
1/
#1346
06
0/
#1351
b00000111 1
16
1/
#1356
06
0/
#1361
b00001000 1
16
1/
#1366
06
0/
#1371
b00001001 1
16
1/
#1376
06
0/
#1381
b00001010 1
16
1/
#1386
06
0/
#1391
b00001011 1
16
1/
#1396
06
0/
#1401
b00001100 1
16
1/
#1406
06
0/
#1411
b00001101 1
16
1/
#1416
06
0/
#1421
b00001110 1
16
1/
#1426
06
0/
#1431
b00001111 1
16
1/
#1436
06
0/
#1441
1-
b00010000 1
1'
16
1/
1,
#1446
1%
12
06
0/
#1451
13
b00010001 1
0.
16
1/
#1456
06
0/
#1461
b00010010 1
16
1/
#1466
06
0/
#1471
b00010011 1
16
1/
#1476
06
0/
#1481
b00010100 1
16
1/
#1486
06
0/
#1491
b00010101 1
16
1/
#1496
06
0/
#1501
b00010110 1
16
1/
#1506
06
0/
#1511
b00010111 1
16
1/
#1516
06
0/
#1521
b00011000 1
16
1/
#1526
06
0/
#1531
b00011001 1
16
1/
#1536
06
0/
#1541
b00011010 1
16
1/
#1546
06
0/
#1551
b00011011 1
16
1/
#1556
06
0/
#1561
b00011100 1
16
1/
#1566
06
0/
#1571
b00011101 1
16
1/
#1576
06
0/
#1581
b00011110 1
16
1/
#1586
06
0/
#1591
b00011111 1
16
1/
#1596
06
0/
#1601
1!
0-
1"
b00000000 1
0'
16
1(
1/
0,
#1606
0%
02
06
0/
#1611
03
b00000001 1
16
1/
#1616
06
0/
#1621
b00000010 1
16
1/
#1626
06
0/
#1631
b00000011 1
16
1/
#1636
06
0/
#1641
b00000100 1
16
1/
#1646
06
0/
#1651
b00000101 1
16
1/
#1656
06
0/
#1661
b00000110 1
16
1/
#1666
06
0/
#1671
b00000111 1
16
1/
#1676
06
0/
#1681
b00001000 1
16
1/
#1686
06
0/
#1691
b00001001 1
16
1/
#1696
06
0/
#1701
b00001010 1
16
1/
#1706
06
0/
#1711
b00001011 1
16
1/
#1716
06
0/
#1721
b00001100 1
16
1/
#1726
06
0/
#1731
b00001101 1
16
1/
#1736
06
0/
#1741
b00001110 1
16
1/
#1746
06
0/
#1751
b00001111 1
16
1/
#1756
06
0/
#1761
1-
b00010000 1
1'
16
1/
1,
#1766
1%
12
06
0/
#1771
13
b00010001 1
16
1/
#1776
06
0/
#1781
b00010010 1
16
1/
#1786
06
0/
#1791
b00010011 1
16
1/
#1796
06
0/
#1801
b00010100 1
16
1/
#1806
06
0/
#1811
b00010101 1
16
1/
#1816
06
0/
#1821
b00010110 1
16
1/
#1826
06
0/
#1831
b00010111 1
16
1/
#1836
06
0/
#1841
b00011000 1
16
1/
#1846
06
0/
#1851
b00011001 1
16
1/
#1856
06
0/
#1861
b00011010 1
16
1/
#1866
06
0/
#1871
b00011011 1
16
1/
#1876
06
0/
#1881
b00011100 1
16
1/
#1886
06
0/
#1891
b00011101 1
16
1/
#1896
06
0/
#1901
b00011110 1
16
1/
#1906
06
0/
#1911
b00011111 1
16
1/
#1916
06
0/
#1921
0-
b00000000 1
0'
16
1/
0,
#1926
0%
02
06
0/
#1931
03
b00000001 1
16
1/
#1936
06
0/
#1941
b00000010 1
16
1/
#1946
06
0/
#1951
b00000011 1
16
1/
#1956
06
0/
#1961
b00000100 1
16
1/
#1966
06
0/
#1971
b00000101 1
16
1/
#1976
06
0/
#1981
b00000110 1
16
1/
#1986
06
0/
#1991
b00000111 1
16
1/
#1996
06
0/
#2001
b00001000 1
16
1/
#2006
06
0/
#2011
b00001001 1
16
1/
#2016
06
0/
#2021
b00001010 1
16
1/
#2026
06
0/
#2031
b00001011 1
16
1/
#2036
06
0/
#2041
b00001100 1
16
1/
#2046
06
0/
#2051
b00001101 1
16
1/
#2056
06
0/
#2061
b00001110 1
16
1/
#2066
06
0/
#2071
b00001111 1
16
1/
#2076
06
0/
#2081
1-
b00010000 1
1'
16
1/
1,
#2086
1%
12
06
0/
#2091
13
b00010001 1
16
1/
#2096
06
0/
#2101
b00010010 1
16
1/
#2106
06
0/
#2111
b00010011 1
16
1/
#2116
06
0/
#2121
b00010100 1
16
1/
#2126
06
0/
#2131
b00010101 1
16
1/
#2136
06
0/
#2141
b00010110 1
16
1/
#2146
06
0/
#2151
b00010111 1
16
1/
#2156
06
0/
#2161
b00011000 1
16
1/
#2166
06
0/
#2171
b00011001 1
16
1/
#2176
06
0/
#2181
b00011010 1
16
1/
#2186
06
0/
#2191
b00011011 1
16
1/
#2196
06
0/
#2201
b00011100 1
16
1/
#2206
06
0/
#2211
b00011101 1
16
1/
#2216
06
0/
#2221
b00011110 1
16
1/
#2226
06
0/
#2231
b00011111 1
16
1/
#2236
06
0/
#2241
0-
b00000000 1
0'
16
1/
0,
#2246
0%
02
06
0/
#2251
03
b00000001 1
16
1/
#2256
06
0/
#2261
b00000010 1
16
1/
#2266
06
0/
#2271
b00000011 1
16
1/
#2276
06
0/
#2281
b00000100 1
16
1/
#2286
06
0/
#2291
b00000101 1
16
1/
#2296
06
0/
#2301
b00000110 1
16
1/
#2306
06
0/
#2311
b00000111 1
16
1/
#2316
06
0/
#2321
b00001000 1
16
1/
#2326
06
0/
#2331
b00001001 1
16
1/
#2336
06
0/
#2341
b00001010 1
16
1/
#2346
06
0/
#2351
b00001011 1
16
1/
#2356
06
0/
#2361
b00001100 1
16
1/
#2366
06
0/
#2371
b00001101 1
16
1/
#2376
06
0/
#2381
b00001110 1
16
1/
#2386
06
0/
#2391
b00001111 1
16
1/
#2396
06
0/
#2401
1-
b00010000 1
1'
16
1/
1,
#2406
1%
12
06
0/
#2411
13
b00010001 1
16
1/
#2416
06
0/
#2421
b00010010 1
16
1/
#2426
06
0/
#2431
b00010011 1
16
1/
#2436
06
0/
#2441
b00010100 1
16
1/
#2446
06
0/
#2451
b00010101 1
16
1/
#2456
06
0/
#2461
b00010110 1
16
1/
#2466
06
0/
#2471
b00010111 1
16
1/
#2476
06
0/
#2481
b00011000 1
16
1/
#2486
06
0/
#2491
b00011001 1
16
1/
#2496
06
0/
#2501
b00011010 1
16
1/
#2506
06
0/
#2511
b00011011 1
16
1/
#2516
06
0/
#2521
b00011100 1
16
1/
#2526
06
0/
#2531
b00011101 1
16
1/
#2536
06
0/
#2541
b00011110 1
16
1/
#2546
06
0/
#2551
b00011111 1
16
1/
#2556
06
0/
#2561
0-
b00000000 1
0'
16
1/
0,
#2566
0%
02
06
0/
#2571
03
b00000001 1
16
1/
#2576
06
0/
#2581
b00000010 1
16
1/
#2586
06
0/
#2591
b00000011 1
16
1/
#2596
06
0/
#2601
b00000100 1
16
1/
#2606
06
0/
#2611
b00000101 1
16
1/
#2616
06
0/
#2621
b00000110 1
16
1/
#2626
06
0/
#2631
b00000111 1
16
1/
#2636
06
0/
#2641
b00001000 1
16
1/
#2646
06
0/
#2651
b00001001 1
16
1/
#2656
06
0/
#2661
b00001010 1
16
1/
#2666
06
0/
#2671
b00001011 1
16
1/
#2676
06
0/
#2681
b00001100 1
16
1/
#2686
06
0/
#2691
b00001101 1
16
1/
#2696
06
0/
#2701
b00001110 1
16
1/
#2706
06
0/
#2711
b00001111 1
16
1/
#2716
06
0/
#2721
1-
b00010000 1
1'
16
1/
1,
#2726
06
0/
#2731
b00010001 1
1.
16
1/
#2736
06
0/
#2741
b00010010 1
16
1/
#2746
06
0/
#2751
b00010011 1
16
1/
#2756
06
0/
#2761
b00010100 1
16
1/
#2766
06
0/
#2771
b00010101 1
16
1/
#2776
06
0/
#2781
b00010110 1
16
1/
#2786
06
0/
#2791
b00010111 1
16
1/
#2796
06
0/
#2801
b00011000 1
16
1/
#2806
06
0/
#2811
b00011001 1
16
1/
#2816
06
0/
#2821
b00011010 1
16
1/
#2826
06
0/
#2831
b00011011 1
16
1/
#2836
06
0/
#2841
b00011100 1
16
1/
#2846
06
0/
#2851
b00011101 1
16
1/
#2856
06
0/
#2861
b00011110 1
16
1/
#2866
06
0/
#2871
b00011111 1
16
1/
#2876
06
0/
#2881
0-
b00100000 1
0'
16
1/
0,
#2886
1%
12
06
0/
#2891
0!
13
0"
b00100001 1
16
0(
1/
#2896
06
0/
#2901
b00100010 1
16
1/
#2906
06
0/
#2911
b00100011 1
16
1/
#2916
06
0/
#2921
b00100100 1
16
1/
#2926
06
0/
#2931
b00100101 1
16
1/
#2936
06
0/
#2941
b00100110 1
16
1/
#2946
06
0/
#2951
b00100111 1
16
1/
#2956
06
0/
#2961
b00101000 1
16
1/
#2966
06
0/
#2971
b00101001 1
16
1/
#2976
06
0/
#2981
b00101010 1
16
1/
#2986
06
0/
#2991
b00101011 1
16
1/
#2996
06
0/
#3001
b00101100 1
16
1/
#3006
06
0/
#3011
b00101101 1
16
1/
#3016
06
0/
#3021
b00101110 1
16
1/
#3026
06
0/
#3031
b00101111 1
16
1/
#3036
06
0/
#3041
1-
b00110000 1
1'
16
1/
1,
#3046
06
0/
#3051
b00110001 1
16
1/
#3056
06
0/
#3061
b00110010 1
16
1/
#3066
06
0/
#3071
b00110011 1
16
1/
#3076
06
0/
#3081
b00110100 1
16
1/
#3086
06
0/
#3091
b00110101 1
16
1/
#3096
06
0/
#3101
b00110110 1
16
1/
#3106
06
0/
#3111
b00110111 1
16
1/
#3116
06
0/
#3121
b00111000 1
16
1/
#3126
06
0/
#3131
b00111001 1
16
1/
#3136
06
0/
#3141
b00111010 1
16
1/
#3146
06
0/
#3151
b00111011 1
16
1/
#3156
06
0/
#3161
b00111100 1
16
1/
#3166
06
0/
#3171
b00111101 1
16
1/
#3176
06
0/
#3181
b00111110 1
16
1/
#3186
06
0/
#3191
b00111111 1
16
1/
#3196
06
0/
#3201
0-
b00000000 1
0'
16
1/
0,
#3206
0%
02
06
0/
#3211
03
b00000001 1
16
1/
#3216
06
0/
#3221
b00000010 1
16
1/
#3226
06
0/
#3231
b00000011 1
16
1/
#3236
06
0/
#3241
b00000100 1
16
1/
#3246
06
0/
#3251
b00000101 1
16
1/
#3256
06
0/
#3261
b00000110 1
16
1/
#3266
06
0/
#3271
b00000111 1
16
1/
#3276
06
0/
#3281
b00001000 1
16
1/
#3286
06
0/
#3291
b00001001 1
16
1/
#3296
06
0/
#3301
b00001010 1
16
1/
#3306
06
0/
#3311
b00001011 1
16
1/
#3316
06
0/
#3321
b00001100 1
16
1/
#3326
06
0/
#3331
b00001101 1
16
1/
#3336
06
0/
#3341
b00001110 1
16
1/
#3346
06
0/
#3351
b00001111 1
16
1/
#3356
06
0/
#3361
1-
b00010000 1
1'
16
1/
1,
#3366
06
0/
#3371
b00010001 1
16
1/
#3376
06
0/
#3381
b00010010 1
16
1/
#3386
06
0/
#3391
b00010011 1
16
1/
#3396
06
0/
#3401
b00010100 1
16
1/
#3406
06
0/
#3411
b00010101 1
16
1/
#3416
06
0/
#3421
b00010110 1
16
1/
#3426
06
0/
#3431
b00010111 1
16
1/
#3436
06
0/
#3441
b00011000 1
16
1/
#3446
06
0/
#3451
b00011001 1
16
1/
#3456
06
0/
#3461
b00011010 1
16
1/
#3466
06
0/
#3471
b00011011 1
16
1/
#3476
06
0/
#3481
b00011100 1
16
1/
#3486
06
0/
#3491
b00011101 1
16
1/
#3496
06
0/
#3501
b00011110 1
16
1/
#3506
06
0/
#3511
b00011111 1
16
1/
#3516
06
0/
#3521
0-
b00100000 1
0'
16
1/
0,
#3526
1%
12
06
0/
#3531
13
b00100001 1
16
1/
#3536
06
0/
#3541
b00100010 1
16
1/
#3546
06
0/
#3551
b00100011 1
16
1/
#3556
06
0/
#3561
b00100100 1
16
1/
#3566
06
0/
#3571
b00100101 1
16
1/
#3576
06
0/
#3581
b00100110 1
16
1/
#3586
06
0/
#3591
b00100111 1
16
1/
#3596
06
0/
#3601
b00101000 1
16
1/
#3606
06
0/
#3611
b00101001 1
16
1/
#3616
06
0/
#3621
b00101010 1
16
1/
#3626
06
0/
#3631
b00101011 1
16
1/
#3636
06
0/
#3641
b00101100 1
16
1/
#3646
06
0/
#3651
b00101101 1
16
1/
#3656
06
0/
#3661
b00101110 1
16
1/
#3666
06
0/
#3671
b00101111 1
16
1/
#3676
06
0/
#3681
1-
b00110000 1
1'
16
1/
1,
#3686
06
0/
#3691
b00110001 1
16
1/
#3696
06
0/
#3701
b00110010 1
16
1/
#3706
06
0/
#3711
b00110011 1
16
1/
#3716
06
0/
#3721
b00110100 1
16
1/
#3726
06
0/
#3731
b00110101 1
16
1/
#3736
06
0/
#3741
b00110110 1
16
1/
#3746
06
0/
#3751
b00110111 1
16
1/
#3756
06
0/
#3761
b00111000 1
16
1/
#3766
06
0/
#3771
b00111001 1
16
1/
#3776
06
0/
#3781
b00111010 1
16
1/
#3786
06
0/
#3791
b00111011 1
16
1/
#3796
06
0/
#3801
b00111100 1
16
1/
#3806
06
0/
#3811
b00111101 1
16
1/
#3816
06
0/
#3821
b00111110 1
16
1/
#3826
06
0/
#3831
b00111111 1
16
1/
#3836
06
0/
#3841
0-
b00000000 1
0'
16
1/
0,
#3846
0%
02
06
0/
#3851
03
b00000001 1
16
1/
#3856
06
0/
#3861
b00000010 1
16
1/
#3866
06
0/
#3871
b00000011 1
16
1/
#3876
06
0/
#3881
b00000100 1
16
1/
#3886
06
0/
#3891
b00000101 1
16
1/
#3896
06
0/
#3901
b00000110 1
16
1/
#3906
06
0/
#3911
b00000111 1
16
1/
#3916
06
0/
#3921
b00001000 1
16
1/
#3926
06
0/
#3931
b00001001 1
16
1/
#3936
06
0/
#3941
b00001010 1
16
1/
#3946
06
0/
#3951
b00001011 1
16
1/
#3956
06
0/
#3961
b00001100 1
16
1/
#3966
06
0/
#3971
b00001101 1
16
1/
#3976
06
0/
#3981
b00001110 1
16
1/
#3986
06
0/
#3991
b00001111 1
16
1/
#3996
06
0/
#4001
1-
b00010000 1
1'
16
1/
1,
#4006
1%
12
06
0/
#4011
13
b00010001 1
0.
16
1/
#4016
06
0/
#4021
b00010010 1
16
1/
#4026
06
0/
#4031
b00010011 1
16
1/
#4036
06
0/
#4041
b00010100 1
16
1/
#4046
06
0/
#4051
b00010101 1
16
1/
#4056
06
0/
#4061
b00010110 1
16
1/
#4066
06
0/
#4071
b00010111 1
16
1/
#4076
06
0/
#4081
b00011000 1
16
1/
#4086
06
0/
#4091
b00011001 1
16
1/
#4096
06
0/
#4101
b00011010 1
16
1/
#4106
06
0/
#4111
b00011011 1
16
1/
#4116
06
0/
#4121
b00011100 1
16
1/
#4126
06
0/
#4131
b00011101 1
16
1/
#4136
06
0/
#4141
b00011110 1
16
1/
#4146
06
0/
#4151
b00011111 1
16
1/
#4156
06
0/
#4161
1!
0-
1"
b00000000 1
0'
16
1(
1/
0,
#4166
0%
02
06
0/
#4171
03
b00000001 1
16
1/
#4176
06
0/
#4181
b00000010 1
16
1/
#4186
06
0/
#4191
b00000011 1
16
1/
#4196
06
0/
#4201
b00000100 1
16
1/
#4206
06
0/
#4211
b00000101 1
16
1/
#4216
06
0/
#4221
b00000110 1
16
1/
#4226
06
0/
#4231
b00000111 1
16
1/
#4236
06
0/
#4241
b00001000 1
16
1/
#4246
06
0/
#4251
b00001001 1
16
1/
#4256
06
0/
#4261
b00001010 1
16
1/
#4266
06
0/
#4271
b00001011 1
16
1/
#4276
06
0/
#4281
b00001100 1
16
1/
#4286
06
0/
#4291
b00001101 1
16
1/
#4296
06
0/
#4301
b00001110 1
16
1/
#4306
06
0/
#4311
b00001111 1
16
1/
#4316
06
0/
#4321
1-
b00010000 1
1'
16
1/
1,
#4326
1%
12
06
0/
#4331
13
b00010001 1
16
1/
#4336
06
0/
#4341
b00010010 1
16
1/
#4346
06
0/
#4351
b00010011 1
16
1/
#4356
06
0/
#4361
b00010100 1
16
1/
#4366
06
0/
#4371
b00010101 1
16
1/
#4376
06
0/
#4381
b00010110 1
16
1/
#4386
06
0/
#4391
b00010111 1
16
1/
#4396
06
0/
#4401
b00011000 1
16
1/
#4406
06
0/
#4411
b00011001 1
16
1/
#4416
06
0/
#4421
b00011010 1
16
1/
#4426
06
0/
#4431
b00011011 1
16
1/
#4436
06
0/
#4441
b00011100 1
16
1/
#4446
06
0/
#4451
b00011101 1
16
1/
#4456
06
0/
#4461
b00011110 1
16
1/
#4466
06
0/
#4471
b00011111 1
16
1/
#4476
06
0/
#4481
0-
b00000000 1
0'
16
1/
0,
#4486
0%
02
06
0/
#4491
03
b00000001 1
16
1/
#4496
06
0/
#4501
b00000010 1
16
1/
#4506
06
0/
#4511
b00000011 1
16
1/
#4516
06
0/
#4521
b00000100 1
16
1/
#4526
06
0/
#4531
b00000101 1
16
1/
#4536
06
0/
#4541
b00000110 1
16
1/
#4546
06
0/
#4551
b00000111 1
16
1/
#4556
06
0/
#4561
b00001000 1
16
1/
#4566
06
0/
#4571
b00001001 1
16
1/
#4576
06
0/
#4581
b00001010 1
16
1/
#4586
06
0/
#4591
b00001011 1
16
1/
#4596
06
0/
#4601
b00001100 1
16
1/
#4606
06
0/
#4611
b00001101 1
16
1/
#4616
06
0/
#4621
b00001110 1
16
1/
#4626
06
0/
#4631
b00001111 1
16
1/
#4636
06
0/
#4641
1-
b00010000 1
1'
16
1/
1,
#4646
1%
12
06
0/
#4651
13
b00010001 1
16
1/
#4656
06
0/
#4661
b00010010 1
16
1/
#4666
06
0/
#4671
b00010011 1
16
1/
#4676
06
0/
#4681
b00010100 1
16
1/
#4686
06
0/
#4691
b00010101 1
16
1/
#4696
06
0/
#4701
b00010110 1
16
1/
#4706
06
0/
#4711
b00010111 1
16
1/
#4716
06
0/
#4721
b00011000 1
16
1/
#4726
06
0/
#4731
b00011001 1
16
1/
#4736
06
0/
#4741
b00011010 1
16
1/
#4746
06
0/
#4751
b00011011 1
16
1/
#4756
06
0/
#4761
b00011100 1
16
1/
#4766
06
0/
#4771
b00011101 1
16
1/
#4776
06
0/
#4781
b00011110 1
16
1/
#4786
06
0/
#4791
b00011111 1
16
1/
#4796
06
0/
#4801
0-
b00000000 1
0'
16
1/
0,
#4806
0%
02
06
0/
#4811
03
b00000001 1
16
1/
#4816
06
0/
#4821
b00000010 1
16
1/
#4826
06
0/
#4831
b00000011 1
16
1/
#4836
06
0/
#4841
b00000100 1
16
1/
#4846
06
0/
#4851
b00000101 1
16
1/
#4856
06
0/
#4861
b00000110 1
16
1/
#4866
06
0/
#4871
b00000111 1
16
1/
#4876
06
0/
#4881
b00001000 1
16
1/
#4886
06
0/
#4891
b00001001 1
16
1/
#4896
06
0/
#4901
b00001010 1
16
1/
#4906
06
0/
#4911
b00001011 1
16
1/
#4916
06
0/
#4921
b00001100 1
16
1/
#4926
06
0/
#4931
b00001101 1
16
1/
#4936
06
0/
#4941
b00001110 1
16
1/
#4946
06
0/
#4951
b00001111 1
16
1/
#4956
06
0/
#4961
1-
b00010000 1
1'
16
1/
1,
#4966
1%
12
06
0/
#4971
13
b00010001 1
16
1/
#4976
06
0/
#4981
b00010010 1
16
1/
#4986
06
0/
#4991
b00010011 1
16
1/
#4996
06
0/
#5001
b00010100 1
16
1/
#5006
06
0/
#5011
b00010101 1
16
1/
#5016
06
0/
#5021
b00010110 1
16
1/
#5026
06
0/
#5031
b00010111 1
16
1/
#5036
06
0/
#5041
b00011000 1
16
1/
#5046
06
0/
#5051
b00011001 1
16
1/
#5056
06
0/
#5061
b00011010 1
16
1/
#5066
06
0/
#5071
b00011011 1
16
1/
#5076
06
0/
#5081
b00011100 1
16
1/
#5086
06
0/
#5091
b00011101 1
16
1/
#5096
06
0/
#5101
b00011110 1
16
1/
#5106
06
0/
#5111
b00011111 1
16
1/
#5116
06
0/
#5121
0-
b00000000 1
0'
16
1/
0,
#5126
0%
02
06
0/
#5131
03
b00000001 1
16
1/
#5136
06
0/
#5141
b00000010 1
16
1/
#5146
06
0/
#5151
b00000011 1
16
1/
#5156
06
0/
#5161
b00000100 1
16
1/
#5166
06
0/
#5171
b00000101 1
16
1/
#5176
06
0/
#5181
b00000110 1
16
1/
#5186
06
0/
#5191
b00000111 1
16
1/
#5196
06
0/
#5201
b00001000 1
16
1/
#5206
06
0/
#5211
b00001001 1
16
1/
#5216
06
0/
#5221
b00001010 1
16
1/
#5226
06
0/
#5231
b00001011 1
16
1/
#5236
06
0/
#5241
b00001100 1
16
1/
#5246
06
0/
#5251
b00001101 1
16
1/
#5256
06
0/
#5261
b00001110 1
16
1/
#5266
06
0/
#5271
b00001111 1
16
1/
#5276
06
0/
#5281
1-
b00010000 1
1'
16
1/
1,
#5286
1%
12
06
0/
#5291
13
b00010001 1
16
1/
#5296
06
0/
#5301
b00010010 1
16
1/
#5306
06
0/
#5311
b00010011 1
16
1/
#5316
06
0/
#5321
b00010100 1
16
1/
#5326
06
0/
#5331
b00010101 1
16
1/
#5336
06
0/
#5341
b00010110 1
16
1/
#5346
06
0/
#5351
b00010111 1
16
1/
#5356
06
0/
#5361
b00011000 1
16
1/
#5366
06
0/
#5371
b00011001 1
16
1/
#5376
06
0/
#5381
b00011010 1
16
1/
#5386
06
0/
#5391
b00011011 1
16
1/
#5396
06
0/
#5401
b00011100 1
16
1/
#5406
06
0/
#5411
b00011101 1
16
1/
#5416
06
0/
#5421
b00011110 1
16
1/
#5426
06
0/
#5431
b00011111 1
16
1/
#5436
06
0/
#5441
0-
b00000000 1
0'
16
1/
0,
#5446
0%
02
06
0/
#5451
03
b00000001 1
16
1/
#5456
06
0/
#5461
b00000010 1
16
1/
#5466
06
0/
#5471
b00000011 1
16
1/
#5476
06
0/
#5481
b00000100 1
16
1/
#5486
06
0/
#5491
b00000101 1
16
1/
#5496
06
0/
#5501
b00000110 1
16
1/
#5506
06
0/
#5511
b00000111 1
16
1/
#5516
06
0/
#5521
b00001000 1
16
1/
#5526
06
0/
#5531
b00001001 1
16
1/
#5536
06
0/
#5541
b00001010 1
16
1/
#5546
06
0/
#5551
b00001011 1
16
1/
#5556
06
0/
#5561
b00001100 1
16
1/
#5566
06
0/
#5571
b00001101 1
16
1/
#5576
06
0/
#5581
b00001110 1
16
1/
#5586
06
0/
#5591
b00001111 1
16
1/
#5596
06
0/
