Intervox_Reciever/test_run_dir/interVox_Reciever_should_pass/interVox_Reciever.vcd
$date
2022-11-22T15:24+0000
$end
$version
0.2
$end
$comment

$end
$timescale 1ns  $end
$scope module interVox_Reciever $end
 $var wire 1 & io_INTERVOX_IN $end
 $var wire 1 ) io_DATA_OUT $end
 $var wire 1 * io_CLK_REC $end
 $var wire 1 + pll $end
 $var wire 1 , io_DBUG $end
 $var wire 1 / io_NEXT_FRAME $end
 $var wire 1 3 clockRec $end
 $var wire 1 4 clock $end
 $var wire 1 7 io_DBUG1 $end
 $var wire 1 = reset $end
  $scope module clockRec $end
   $var wire 2 ! inBufr $end
   $var wire 1 " dataOut $end
   $var wire 1 # io_DATA_OUT $end
   $var wire 1 $ zeroPeriode $end
   $var wire 8 % clkDelta $end
   $var wire 8 ' lastOne $end
   $var wire 8 ( clkCntr1 $end
   $var wire 1 - io_DBUG $end
   $var wire 1 . reset $end
   $var wire 1 2 io_CLK_OUT $end
   $var wire 2 5 clkCntr $end
   $var wire 1 6 io_DATA_IN $end
   $var wire 1 8 io_DBUG1 $end
   $var wire 4 9 clkCntr3 $end
   $var wire 1 : clkRec $end
   $var wire 2 ; whatChange $end
   $var wire 4 > clkCntr2 $end
   $var wire 1 ? change $end
   $var wire 1 @ syncWord $end
   $var wire 1 A clock $end
  $upscope $end
  $scope module pll $end
   $var wire 1 0 locked $end
   $var wire 1 1 PLL_IN $end
   $var wire 1 < PLL_MCLK $end
  $upscope $end
$upscope $end
$enddefinitions $end
$dumpvars
0&
0<
b0000 >
0=
06
07
0"
b0000 9
08
0#
b00000000 %
0:
02
b00 ;
03
b00000000 '
04
b00000000 (
b00 5
0-
b00 !
0.
0/
00
01
0)
0?
0*
0@
0+
0A
0,
0$
$end
#0
1.
1=
#1
14
b00000111 '
1A
#6
04
0.
0=
0A
#11
14
b01 5
b00000001 (
1A
b0001 >
b01 ;
#16
04
0A
#21
14
b00 5
b00000010 (
1A
b0000 >
b10 ;
#26
04
0A
#31
14
11
b01 5
12
1:
b00000011 (
1A
1,
b11 ;
b0001 >
#36
04
0A
#41
14
b00 5
b00000100 (
1A
b0010 >
b00 ;
#46
04
0A
#51
14
b01 5
b00000101 (
1A
b0011 >
b01 ;
#56
04
0A
#61
14
b00 5
b00000110 (
1A
b0000 >
b10 ;
#66
04
0A
#71
14
01
b01 5
02
0:
b00000111 (
1A
0,
b11 ;
b0001 >
#76
04
0A
#81
14
b00 5
b00001000 (
1A
b0010 >
b00 ;
#86
04
0A
#91
14
b01 5
1$
b00001001 (
1A
b0011 >
b01 ;
#96
04
0A
#101
14
b00 5
b00001010 (
1A
b0100 >
b10 ;
#106
04
0A
#111
14
b01 5
b00001011 (
1A
b0101 >
b11 ;
#116
04
0A
#121
14
b00 5
b00001100 (
1A
b0110 >
b00 ;
#126
04
0A
#131
14
11
b01 5
12
1:
b00001101 (
1A
1,
b01 ;
b0000 >
#136
04
0A
#141
14
b00 5
b00001110 (
1A
b0001 >
b10 ;
#146
04
0A
#151
14
b01 5
b00001111 (
1A
b0010 >
b11 ;
#156
04
0A
#161
1-
14
1@
b00 5
b00010000 (
1A
1/
b00 ;
b0011 >
#166
04
0A
#171
14
01
b01 5
02
b0001 9
0:
b00010001 (
1A
0,
b01 ;
b0100 >
#176
04
0A
#181
14
b00 5
b0010 9
b00010010 (
1A
b0101 >
b10 ;
#186
04
0A
#191
14
b01 5
b0011 9
b00010011 (
1A
b0110 >
b11 ;
#196
04
0A
#201
14
b00 5
b0000 9
b00010100 (
1A
b0000 >
b00 ;
#206
04
0A
#211
14
11
b01 5
12
b0001 9
1:
b00010101 (
1A
1,
b01 ;
b0001 >
#216
04
0A
#221
14
b00 5
b0010 9
b00010110 (
1A
b0010 >
b10 ;
#226
04
0A
#231
14
b01 5
b0011 9
b00010111 (
1A
b0011 >
b11 ;
#236
04
0A
#241
14
b00 5
b0000 9
b00011000 (
1A
b0100 >
b00 ;
#246
04
0A
#251
14
01
b01 5
02
b0001 9
0:
b00011001 (
1A
0,
b01 ;
b0101 >
#256
04
0A
#261
14
b00 5
b0010 9
b00011010 (
1A
b0110 >
b10 ;
#266
04
0A
#271
14
b01 5
b0011 9
b00011011 (
1A
b0000 >
b11 ;
#276
04
0A
#281
14
b00 5
b0000 9
b00011100 (
1A
b0001 >
b00 ;
#286
04
0A
#291
14
11
b01 5
12
b0001 9
1:
b00011101 (
1A
1,
b01 ;
b0010 >
#296
04
0A
#301
14
b00 5
b0010 9
b00011110 (
1A
b0011 >
b10 ;
#306
04
0A
#311
14
b01 5
b0011 9
b00011111 (
1A
b0100 >
b11 ;
#316
04
0A
#321
14
b00 5
b0000 9
b00100000 (
1A
b0101 >
b00 ;
#326
04
0A
#331
14
01
b01 5
02
b0001 9
0:
b00100001 (
1A
0,
b01 ;
b0110 >
#336
04
0A
#341
14
b00 5
b0010 9
b00100010 (
1A
b0000 >
b10 ;
#346
04
0A
#351
14
b01 5
b0011 9
b00100011 (
1A
b0001 >
b11 ;
#356
04
0A
#361
14
b00 5
b0000 9
b00100100 (
1A
b0010 >
b00 ;
#366
04
0A
#371
14
11
b01 5
12
b0001 9
1:
b00100101 (
1A
1,
b01 ;
b0011 >
#376
04
0A
#381
14
b00 5
b0010 9
b00100110 (
1A
b0100 >
b10 ;
#386
04
0A
#391
14
b01 5
b0011 9
b00100111 (
1A
b0101 >
b11 ;
#396
04
0A
#401
14
b00 5
b0000 9
b00101000 (
1A
b0110 >
b00 ;
#406
04
0A
#411
14
01
b01 5
02
b0001 9
0:
b00101001 (
1A
0,
b01 ;
b0000 >
#416
04
0A
#421
14
b00 5
b0010 9
b00101010 (
1A
b0001 >
b10 ;
#426
04
0A
#431
14
b01 5
b0011 9
b00101011 (
1A
b0010 >
b11 ;
#436
04
0A
#441
14
b00 5
b0000 9
b00101100 (
1A
b0011 >
b00 ;
#446
04
0A
#451
14
11
b01 5
12
b0001 9
1:
b00101101 (
1A
1,
b01 ;
b0100 >
#456
04
0A
#461
14
b00 5
b0010 9
b00101110 (
1A
b0101 >
b10 ;
#466
04
0A
#471
14
b01 5
b0011 9
b00101111 (
1A
b0110 >
b11 ;
#476
04
0A
#481
14
b00 5
b0000 9
b00110000 (
1A
b0000 >
b00 ;
#486
04
1&
16
0A
#491
b01 !
14
01
b01 5
02
b0001 9
0:
b00110001 (
1A
0,
b01 ;
b0001 >
#496
04
0A
#501
b10 !
1?
b00110001 %
14
18
b00 5
b0010 9
b00000000 (
17
1A
b0010 >
b10 ;
#506
04
0A
#511
0-
14
b01 5
b00000001 (
0/
b0011 >
b11 !
11
0@
12
b0011 9
1:
1A
1,
b01 ;
#516
04
0A
#521
0?
14
08
b00 5
0$
b00000010 (
07
1A
b0000 >
b00 ;
#526
04
0A
#531
14
b01 5
b00000011 (
1A
b0001 >
b01 ;
#536
04
0A
#541
14
b00 5
b00000100 (
1A
b0000 >
b10 ;
#546
04
0A
#551
14
01
b01 5
02
b0000 9
0:
b00000101 (
1A
0,
b11 ;
b0001 >
#556
04
0A
#561
14
b00 5
b00000110 (
1A
b0010 >
b00 ;
#566
04
0A
#571
14
b01 5
b00000111 (
1A
b0011 >
b01 ;
#576
04
0A
#581
14
b00 5
b00001000 (
1A
b0100 >
b10 ;
#586
04
0A
#591
14
11
b01 5
12
1$
1:
b00001001 (
1A
1,
b11 ;
b0101 >
#596
04
0A
#601
14
b00 5
b00001010 (
1A
b0110 >
b00 ;
#606
04
0A
#611
14
b01 5
b00001011 (
1A
b0000 >
b01 ;
#616
04
0A
#621
14
b00 5
b00001100 (
1A
b0001 >
b10 ;
#626
04
0A
#631
14
01
b01 5
02
0:
b00001101 (
1A
0,
b11 ;
b0010 >
#636
04
0A
#641
14
b00 5
b00001110 (
1A
b0011 >
b00 ;
#646
04
0&
06
0A
#651
b10 !
14
b01 5
b00001111 (
1A
b0100 >
b01 ;
#656
04
0A
#661
1-
b00001111 %
14
b00 5
b00000000 (
17
1/
b0101 >
b01 !
1?
1@
18
1A
b10 ;
#666
04
0A
#671
0-
14
b01 5
b00000001 (
0/
b0110 >
b00 !
11
0@
12
b0001 9
1:
1A
1,
b01 ;
#676
04
0A
#681
0?
14
08
b00 5
0$
b00000010 (
07
1A
b0000 >
b00 ;
#686
04
0A
#691
14
b01 5
b00000011 (
1A
b0001 >
b01 ;
#696
04
0A
#701
14
b00 5
b00000100 (
1A
b0000 >
b10 ;
#706
04
0A
#711
14
01
b01 5
02
b0000 9
0:
b00000101 (
1A
0,
b11 ;
b0001 >
#716
04
0A
#721
14
b00 5
b00000110 (
1A
b0010 >
b00 ;
#726
04
1&
16
0A
#731
b01 !
14
b01 5
b00000111 (
1A
b0011 >
b01 ;
#736
04
0A
#741
b10 !
1?
b00000111 %
14
18
b00 5
b00000000 (
17
1A
b0100 >
b10 ;
#746
04
0A
#751
14
b01 5
b00000001 (
b0101 >
1)
b11 !
1"
11
1#
12
1:
1A
1,
b01 ;
#756
04
0A
#761
0?
14
08
b00 5
b00000010 (
07
1A
b0000 >
b00 ;
#766
04
0A
#771
14
b01 5
b00000011 (
1A
b0001 >
b01 ;
#776
04
0A
#781
14
b00 5
b00000100 (
1A
b0000 >
b10 ;
#786
04
0A
#791
14
01
b01 5
02
0:
b00000101 (
1A
0,
b11 ;
b0001 >
#796
04
0A
#801
14
b00 5
b00000110 (
1A
b0010 >
b00 ;
#806
04
0&
06
0A
#811
b10 !
14
b01 5
b00000111 (
1A
b0011 >
b01 ;
#816
04
0A
#821
b01 !
1?
14
18
b00 5
b00000000 (
17
1A
b0100 >
b10 ;
#826
04
0A
#831
b00 !
14
11
b01 5
12
1:
b00000001 (
1A
1,
b01 ;
b0101 >
#836
04
0A
#841
0?
14
08
b00 5
b00000010 (
07
1A
b0000 >
b00 ;
#846
04
0A
#851
14
b01 5
b00000011 (
1A
b0001 >
b01 ;
#856
04
0A
#861
14
b00 5
b00000100 (
1A
b0000 >
b10 ;
#866
04
0A
#871
14
01
b01 5
02
0:
b00000101 (
1A
0,
b11 ;
b0001 >
#876
04
0A
#881
14
b00 5
b00000110 (
1A
b0010 >
b00 ;
#886
04
1&
16
0A
#891
b01 !
14
b01 5
b00000111 (
1A
b0011 >
b01 ;
#896
04
0A
#901
b10 !
1?
14
18
b00 5
b00000000 (
17
1A
b0100 >
b10 ;
#906
04
0A
#911
b11 !
14
11
b01 5
12
1:
b00000001 (
1A
1,
b01 ;
b0101 >
#916
04
0A
#921
0?
14
08
b00 5
b00000010 (
07
1A
b0000 >
b00 ;
#926
04
0A
#931
14
b01 5
b00000011 (
1A
b0001 >
b01 ;
#936
04
0A
#941
14
b00 5
b00000100 (
1A
b0000 >
b10 ;
#946
04
0A
#951
14
01
b01 5
02
0:
b00000101 (
1A
0,
b11 ;
b0001 >
#956
04
0A
#961
14
b00 5
b00000110 (
1A
b0010 >
b00 ;
#966
04
0&
06
0A
#971
b10 !
14
b01 5
b00000111 (
1A
b0011 >
b01 ;
#976
04
0A
#981
b01 !
1?
14
18
b00 5
b00000000 (
17
1A
b0100 >
b10 ;
#986
04
0A
#991
b00 !
14
11
b01 5
12
1:
b00000001 (
1A
1,
b01 ;
b0101 >
#996
04
0A
#1001
0?
14
08
b00 5
b00000010 (
07
1A
b0000 >
b00 ;
#1006
04
0A
#1011
14
b01 5
b00000011 (
1A
b0001 >
b01 ;
#1016
04
0A
#1021
14
b00 5
b00000100 (
1A
b0000 >
b10 ;
#1026
04
0A
#1031
14
01
b01 5
02
0:
b00000101 (
1A
0,
b11 ;
b0001 >
#1036
04
0A
#1041
14
b00 5
b00000110 (
1A
b0010 >
b00 ;
#1046
04
1&
16
0A
#1051
b01 !
14
b01 5
b00000111 (
1A
b0011 >
b01 ;
#1056
04
0A
#1061
b10 !
1?
14
18
b00 5
b00000000 (
17
1A
b0100 >
b10 ;
#1066
04
0A
#1071
b11 !
14
11
b01 5
12
1:
b00000001 (
1A
1,
b01 ;
b0101 >
#1076
04
0A
#1081
0?
14
08
b00 5
b00000010 (
07
1A
b0000 >
b00 ;
#1086
04
0A
#1091
14
b01 5
b00000011 (
1A
b0001 >
b01 ;
#1096
04
0A
#1101
14
b00 5
b00000100 (
1A
b0000 >
b10 ;
#1106
04
0A
#1111
14
01
b01 5
02
0:
b00000101 (
1A
0,
b11 ;
b0001 >
#1116
04
0A
#1121
14
b00 5
b00000110 (
1A
b0010 >
b00 ;
#1126
04
0&
06
0A
#1131
b10 !
14
b01 5
b00000111 (
1A
b0011 >
b01 ;
#1136
04
0A
#1141
b01 !
1?
14
18
b00 5
b00000000 (
17
1A
b0100 >
b10 ;
#1146
04
0A
#1151
b00 !
14
11
b01 5
12
1:
b00000001 (
1A
1,
b01 ;
b0101 >
#1156
04
0A
#1161
0?
14
08
b00 5
b00000010 (
07
1A
b0000 >
b00 ;
#1166
04
0A
#1171
14
b01 5
b00000011 (
1A
b0001 >
b01 ;
#1176
04
0A
#1181
14
b00 5
b00000100 (
1A
b0000 >
b10 ;
#1186
04
0A
#1191
14
01
b01 5
02
0:
b00000101 (
1A
0,
b11 ;
b0001 >
#1196
04
0A
#1201
14
b00 5
b00000110 (
1A
b0010 >
b00 ;
#1206
04
1&
16
0A
#1211
b01 !
14
b01 5
b00000111 (
1A
b0011 >
b01 ;
#1216
04
0A
#1221
b10 !
1?
14
18
b00 5
b00000000 (
17
1A
b0100 >
b10 ;
#1226
04
0A
#1231
b11 !
14
11
b01 5
12
1:
b00000001 (
1A
1,
b01 ;
b0101 >
#1236
04
0A
#1241
0?
14
08
b00 5
b00000010 (
07
1A
b0000 >
b00 ;
#1246
04
0A
#1251
14
b01 5
b00000011 (
1A
b0001 >
b01 ;
#1256
04
0A
#1261
14
b00 5
b00000100 (
1A
b0000 >
b10 ;
#1266
04
0A
#1271
14
01
b01 5
02
0:
b00000101 (
1A
0,
b11 ;
b0001 >
#1276
04
0A
#1281
14
b00 5
b00000110 (
1A
b0010 >
b00 ;
#1286
04
0&
06
0A
#1291
b10 !
14
b01 5
b00000111 (
1A
b0011 >
b01 ;
#1296
04
0A
#1301
b01 !
1?
14
18
b00 5
b00000000 (
17
1A
b0100 >
b10 ;
#1306
04
0A
#1311
b00 !
14
11
b01 5
12
1:
b00000001 (
1A
1,
b01 ;
b0101 >
#1316
04
0A
#1321
0?
14
08
b00 5
b00000010 (
07
1A
b0000 >
b00 ;
#1326
04
0A
#1331
14
b01 5
b00000011 (
1A
b0001 >
b01 ;
#1336
04
0A
#1341
14
b00 5
b00000100 (
1A
b0000 >
b10 ;
#1346
04
0A
#1351
14
01
b01 5
02
0:
b00000101 (
1A
0,
b11 ;
b0001 >
#1356
04
0A
#1361
14
b00 5
b00000110 (
1A
b0010 >
b00 ;
#1366
04
0A
#1371
14
b01 5
b00000111 (
1A
b0011 >
b01 ;
#1376
04
0A
#1381
14
b00 5
b00001000 (
1A
b0100 >
b10 ;
#1386
04
0A
#1391
14
11
b01 5
12
1$
1:
b00001001 (
1A
1,
b11 ;
b0101 >
#1396
04
0A
#1401
14
b00 5
b00001010 (
1A
b0110 >
b00 ;
#1406
04
0A
#1411
14
b01 5
b00001011 (
1A
b0000 >
b01 ;
#1416
04
0A
#1421
14
b00 5
b00001100 (
1A
b0001 >
b10 ;
#1426
04
0A
#1431
14
01
b01 5
02
0:
b00001101 (
1A
0,
b11 ;
b0010 >
#1436
04
0A
#1441
14
b00 5
b00001110 (
1A
b0011 >
b00 ;
#1446
04
1&
16
0A
#1451
b01 !
14
b01 5
b00001111 (
1A
b0100 >
b01 ;
#1456
04
0A
#1461
b10 !
1?
b00001111 %
14
18
b00 5
b00000000 (
17
1A
b0101 >
b10 ;
#1466
04
0A
#1471
14
b01 5
b00000001 (
b0110 >
0)
b11 !
0"
11
0#
12
1:
1A
1,
b01 ;
#1476
04
0A
#1481
0?
14
08
b00 5
0$
b00000010 (
07
1A
b0000 >
b00 ;
#1486
04
0A
#1491
14
b01 5
b00000011 (
1A
b0001 >
b01 ;
#1496
04
0A
#1501
14
b00 5
b00000100 (
1A
b0000 >
b10 ;
#1506
04
0A
#1511
14
01
b01 5
02
0:
b00000101 (
1A
0,
b11 ;
b0001 >
#1516
04
0A
#1521
14
b00 5
b00000110 (
1A
b0010 >
b00 ;
#1526
04
0A
#1531
14
b01 5
b00000111 (
1A
b0011 >
b01 ;
#1536
04
0A
#1541
14
b00 5
b00001000 (
1A
b0100 >
b10 ;
#1546
04
0A
#1551
14
11
b01 5
12
1$
1:
b00001001 (
1A
1,
b11 ;
b0101 >
#1556
04
0A
#1561
14
b00 5
b00001010 (
1A
b0110 >
b00 ;
#1566
04
0A
#1571
14
b01 5
b00001011 (
1A
b0000 >
b01 ;
#1576
04
0A
#1581
14
b00 5
b00001100 (
1A
b0001 >
b10 ;
#1586
04
0A
#1591
14
01
b01 5
02
0:
b00001101 (
1A
0,
b11 ;
b0010 >
#1596
04
0A
#1601
14
b00 5
b00001110 (
1A
b0011 >
b00 ;
#1606
04
0&
06
0A
#1611
b10 !
14
b01 5
b00001111 (
1A
b0100 >
b01 ;
#1616
04
0A
#1621
b01 !
1-
1?
14
1@
18
b00 5
b00000000 (
17
1A
1/
b10 ;
b0101 >
#1626
04
0A
#1631
0-
14
b01 5
b00000001 (
0/
b0110 >
b00 !
11
0@
12
b0001 9
1:
1A
1,
b01 ;
#1636
04
0A
#1641
0?
14
08
b00 5
0$
b00000010 (
07
1A
b0000 >
b00 ;
#1646
04
0A
#1651
14
b01 5
b00000011 (
1A
b0001 >
b01 ;
#1656
04
0A
#1661
14
b00 5
b00000100 (
1A
b0000 >
b10 ;
#1666
04
0A
#1671
14
01
b01 5
02
b0000 9
0:
b00000101 (
1A
0,
b11 ;
b0001 >
#1676
04
0A
#1681
14
b00 5
b00000110 (
1A
b0010 >
b00 ;
#1686
04
0A
#1691
14
b01 5
b00000111 (
1A
b0011 >
b01 ;
#1696
04
0A
#1701
14
b00 5
b00001000 (
1A
b0100 >
b10 ;
#1706
04
0A
#1711
14
11
b01 5
12
1$
1:
b00001001 (
1A
1,
b11 ;
b0101 >
#1716
04
0A
#1721
14
b00 5
b00001010 (
1A
b0110 >
b00 ;
#1726
04
0A
#1731
14
b01 5
b00001011 (
1A
b0000 >
b01 ;
#1736
04
0A
#1741
14
b00 5
b00001100 (
1A
b0001 >
b10 ;
#1746
04
0A
#1751
14
01
b01 5
02
0:
b00001101 (
1A
0,
b11 ;
b0010 >
#1756
04
0A
#1761
14
b00 5
b00001110 (
1A
b0011 >
b00 ;
#1766
04
1&
16
0A
#1771
b01 !
14
b01 5
b00001111 (
1A
b0100 >
b01 ;
#1776
04
0A
#1781
b10 !
1?
14
18
b00 5
b00000000 (
17
1A
b0101 >
b10 ;
#1786
04
0A
#1791
b11 !
14
11
b01 5
12
1:
b00000001 (
1A
1,
b01 ;
b0110 >
#1796
04
0A
#1801
0?
14
08
b00 5
0$
b00000010 (
07
1A
b0000 >
b00 ;
#1806
04
0A
#1811
14
b01 5
b00000011 (
1A
b0001 >
b01 ;
#1816
04
0A
#1821
14
b00 5
b00000100 (
1A
b0000 >
b10 ;
#1826
04
0A
#1831
14
01
b01 5
02
0:
b00000101 (
1A
0,
b11 ;
b0001 >
#1836
04
0A
#1841
14
b00 5
b00000110 (
1A
b0010 >
b00 ;
#1846
04
0A
#1851
14
b01 5
b00000111 (
1A
b0011 >
b01 ;
#1856
04
0A
#1861
14
b00 5
b00001000 (
1A
b0100 >
b10 ;
#1866
04
0A
#1871
14
11
b01 5
12
1$
1:
b00001001 (
1A
1,
b11 ;
b0101 >
#1876
04
0A
#1881
14
b00 5
b00001010 (
1A
b0110 >
b00 ;
#1886
04
0A
#1891
14
b01 5
b00001011 (
1A
b0000 >
b01 ;
#1896
04
0A
#1901
14
b00 5
b00001100 (
1A
b0001 >
b10 ;
#1906
04
0A
#1911
14
01
b01 5
02
0:
b00001101 (
1A
0,
b11 ;
b0010 >
#1916
04
0A
#1921
14
b00 5
b00001110 (
1A
b0011 >
b00 ;
#1926
04
0&
06
0A
#1931
b10 !
14
b01 5
b00001111 (
1A
b0100 >
b01 ;
#1936
04
0A
#1941
b01 !
1-
1?
14
1@
18
b00 5
b00000000 (
17
1A
1/
b10 ;
b0101 >
#1946
04
0A
#1951
0-
14
b01 5
b00000001 (
0/
b0110 >
b00 !
11
0@
12
b0001 9
1:
1A
1,
b01 ;
#1956
04
0A
#1961
0?
14
08
b00 5
0$
b00000010 (
07
1A
b0000 >
b00 ;
#1966
04
0A
#1971
14
b01 5
b00000011 (
1A
b0001 >
b01 ;
#1976
04
0A
#1981
14
b00 5
b00000100 (
1A
b0000 >
b10 ;
#1986
04
0A
#1991
14
01
b01 5
02
b0000 9
0:
b00000101 (
1A
0,
b11 ;
b0001 >
#1996
04
0A
#2001
14
b00 5
b00000110 (
1A
b0010 >
b00 ;
#2006
04
1&
16
0A
#2011
b01 !
14
b01 5
b00000111 (
1A
b0011 >
b01 ;
#2016
04
0A
#2021
b10 !
1?
b00000111 %
14
18
b00 5
b00000000 (
17
1A
b0100 >
b10 ;
#2026
04
0A
#2031
14
b01 5
b00000001 (
b0101 >
1)
b11 !
1"
11
1#
12
1:
1A
1,
b01 ;
#2036
04
0A
#2041
0?
14
08
b00 5
b00000010 (
07
1A
b0000 >
b00 ;
#2046
04
0A
#2051
14
b01 5
b00000011 (
1A
b0001 >
b01 ;
#2056
04
0A
#2061
14
b00 5
b00000100 (
1A
b0000 >
b10 ;
#2066
04
0A
#2071
14
01
b01 5
02
0:
b00000101 (
1A
0,
b11 ;
b0001 >
#2076
04
0A
#2081
14
b00 5
b00000110 (
1A
b0010 >
b00 ;
#2086
04
0&
06
0A
#2091
b10 !
14
b01 5
b00000111 (
1A
b0011 >
b01 ;
#2096
04
0A
#2101
b01 !
1?
14
18
b00 5
b00000000 (
17
1A
b0100 >
b10 ;
#2106
04
0A
#2111
b00 !
14
11
b01 5
12
1:
b00000001 (
1A
1,
b01 ;
b0101 >
#2116
04
0A
#2121
0?
14
08
b00 5
b00000010 (
07
1A
b0000 >
b00 ;
#2126
04
0A
#2131
14
b01 5
b00000011 (
1A
b0001 >
b01 ;
#2136
04
0A
#2141
14
b00 5
b00000100 (
1A
b0000 >
b10 ;
#2146
04
0A
#2151
14
01
b01 5
02
0:
b00000101 (
1A
0,
b11 ;
b0001 >
#2156
04
0A
#2161
14
b00 5
b00000110 (
1A
b0010 >
b00 ;
#2166
04
1&
16
0A
#2171
b01 !
14
b01 5
b00000111 (
1A
b0011 >
b01 ;
#2176
04
0A
#2181
b10 !
1?
14
18
b00 5
b00000000 (
17
1A
b0100 >
b10 ;
#2186
04
0A
#2191
b11 !
14
11
b01 5
12
1:
b00000001 (
1A
1,
b01 ;
b0101 >
#2196
04
0A
#2201
0?
14
08
b00 5
b00000010 (
07
1A
b0000 >
b00 ;
#2206
04
0A
#2211
14
b01 5
b00000011 (
1A
b0001 >
b01 ;
#2216
04
0A
#2221
14
b00 5
b00000100 (
1A
b0000 >
b10 ;
#2226
04
0A
#2231
14
01
b01 5
02
0:
b00000101 (
1A
0,
b11 ;
b0001 >
#2236
04
0A
#2241
14
b00 5
b00000110 (
1A
b0010 >
b00 ;
#2246
04
0&
06
0A
#2251
b10 !
14
b01 5
b00000111 (
1A
b0011 >
b01 ;
#2256
04
0A
#2261
b01 !
1?
14
18
b00 5
b00000000 (
17
1A
b0100 >
b10 ;
#2266
04
0A
#2271
b00 !
14
11
b01 5
12
1:
b00000001 (
1A
1,
b01 ;
b0101 >
#2276
04
0A
#2281
0?
14
08
b00 5
b00000010 (
07
1A
b0000 >
b00 ;
#2286
04
0A
#2291
14
b01 5
b00000011 (
1A
b0001 >
b01 ;
#2296
04
0A
#2301
14
b00 5
b00000100 (
1A
b0000 >
b10 ;
#2306
04
0A
#2311
14
01
b01 5
02
0:
b00000101 (
1A
0,
b11 ;
b0001 >
#2316
04
0A
#2321
14
b00 5
b00000110 (
1A
b0010 >
b00 ;
#2326
04
1&
16
0A
#2331
b01 !
14
b01 5
b00000111 (
1A
b0011 >
b01 ;
#2336
04
0A
#2341
b10 !
1?
14
18
b00 5
b00000000 (
17
1A
b0100 >
b10 ;
#2346
04
0A
#2351
b11 !
14
11
b01 5
12
1:
b00000001 (
1A
1,
b01 ;
b0101 >
#2356
04
0A
#2361
0?
14
08
b00 5
b00000010 (
07
1A
b0000 >
b00 ;
#2366
04
0A
#2371
14
b01 5
b00000011 (
1A
b0001 >
b01 ;
#2376
04
0A
#2381
14
b00 5
b00000100 (
1A
b0000 >
b10 ;
#2386
04
0A
#2391
14
01
b01 5
02
0:
b00000101 (
1A
0,
b11 ;
b0001 >
#2396
04
0A
#2401
14
b00 5
b00000110 (
1A
b0010 >
b00 ;
#2406
04
0&
06
0A
#2411
b10 !
14
b01 5
b00000111 (
1A
b0011 >
b01 ;
#2416
04
0A
#2421
b01 !
1?
14
18
b00 5
b00000000 (
17
1A
b0100 >
b10 ;
#2426
04
0A
#2431
b00 !
14
11
b01 5
12
1:
b00000001 (
1A
1,
b01 ;
b0101 >
#2436
04
0A
#2441
0?
14
08
b00 5
b00000010 (
07
1A
b0000 >
b00 ;
#2446
04
0A
#2451
14
b01 5
b00000011 (
1A
b0001 >
b01 ;
#2456
04
0A
#2461
14
b00 5
b00000100 (
1A
b0000 >
b10 ;
#2466
04
0A
#2471
14
01
b01 5
02
0:
b00000101 (
1A
0,
b11 ;
b0001 >
#2476
04
0A
#2481
14
b00 5
b00000110 (
1A
b0010 >
b00 ;
#2486
04
1&
16
0A
#2491
b01 !
14
b01 5
b00000111 (
1A
b0011 >
b01 ;
#2496
04
0A
#2501
b10 !
1?
14
18
b00 5
b00000000 (
17
1A
b0100 >
b10 ;
#2506
04
0A
#2511
b11 !
14
11
b01 5
12
1:
b00000001 (
1A
1,
b01 ;
b0101 >
#2516
04
0A
#2521
0?
14
08
b00 5
b00000010 (
07
1A
b0000 >
b00 ;
#2526
04
0A
#2531
14
b01 5
b00000011 (
1A
b0001 >
b01 ;
#2536
04
0A
#2541
14
b00 5
b00000100 (
1A
b0000 >
b10 ;
#2546
04
0A
#2551
14
01
b01 5
02
0:
b00000101 (
1A
0,
b11 ;
b0001 >
#2556
04
0A
#2561
14
b00 5
b00000110 (
1A
b0010 >
b00 ;
#2566
04
0&
06
0A
#2571
b10 !
14
b01 5
b00000111 (
1A
b0011 >
b01 ;
#2576
04
0A
#2581
b01 !
1?
14
18
b00 5
b00000000 (
17
1A
b0100 >
b10 ;
#2586
04
0A
#2591
b00 !
14
11
b01 5
12
1:
b00000001 (
1A
1,
b01 ;
b0101 >
#2596
04
0A
#2601
0?
14
08
b00 5
b00000010 (
07
1A
b0000 >
b00 ;
#2606
04
0A
#2611
14
b01 5
b00000011 (
1A
b0001 >
b01 ;
#2616
04
0A
#2621
14
b00 5
b00000100 (
1A
b0000 >
b10 ;
#2626
04
0A
#2631
14
01
b01 5
02
0:
b00000101 (
1A
0,
b11 ;
b0001 >
#2636
04
0A
#2641
14
b00 5
b00000110 (
1A
b0010 >
b00 ;
#2646
04
1&
16
0A
#2651
b01 !
14
b01 5
b00000111 (
1A
b0011 >
b01 ;
#2656
04
0A
#2661
b10 !
1?
14
18
b00 5
b00000000 (
17
1A
b0100 >
b10 ;
#2666
04
0A
#2671
b11 !
14
11
b01 5
12
1:
b00000001 (
1A
1,
b01 ;
b0101 >
#2676
04
0A
#2681
0?
14
08
b00 5
b00000010 (
07
1A
b0000 >
b00 ;
#2686
04
0A
#2691
14
b01 5
b00000011 (
1A
b0001 >
b01 ;
#2696
04
0A
#2701
14
b00 5
b00000100 (
1A
b0000 >
b10 ;
#2706
04
0A
#2711
14
01
b01 5
02
0:
b00000101 (
1A
0,
b11 ;
b0001 >
#2716
04
0A
#2721
14
b00 5
b00000110 (
1A
b0010 >
b00 ;
#2726
04
0&
06
0A
#2731
b10 !
14
b01 5
b00000111 (
1A
b0011 >
b01 ;
#2736
04
0A
#2741
b01 !
1?
14
18
b00 5
b00000000 (
17
1A
b0100 >
b10 ;
#2746
04
0A
#2751
b00 !
14
11
b01 5
12
1:
b00000001 (
1A
1,
b01 ;
b0101 >
#2756
04
0A
#2761
0?
14
08
b00 5
b00000010 (
07
1A
b0000 >
b00 ;
#2766
04
0A
#2771
14
b01 5
b00000011 (
1A
b0001 >
b01 ;
#2776
04
0A
#2781
14
b00 5
b00000100 (
1A
b0000 >
b10 ;
#2786
04
0A
#2791
14
01
b01 5
02
0:
b00000101 (
1A
0,
b11 ;
b0001 >
#2796
04
0A
#2801
14
b00 5
b00000110 (
1A
b0010 >
b00 ;
#2806
04
1&
16
0A
#2811
b01 !
14
b01 5
b00000111 (
1A
b0011 >
b01 ;
#2816
04
0A
#2821
b10 !
1?
14
18
b00 5
b00000000 (
17
1A
b0100 >
b10 ;
#2826
04
0A
#2831
b11 !
14
11
b01 5
12
1:
b00000001 (
1A
1,
b01 ;
b0101 >
#2836
04
0A
#2841
0?
14
08
b00 5
b00000010 (
07
1A
b0000 >
b00 ;
#2846
04
0A
#2851
14
b01 5
b00000011 (
1A
b0001 >
b01 ;
#2856
04
0A
#2861
14
b00 5
b00000100 (
1A
b0000 >
b10 ;
#2866
04
0A
#2871
14
01
b01 5
02
0:
b00000101 (
1A
0,
b11 ;
b0001 >
#2876
04
0A
#2881
14
b00 5
b00000110 (
1A
b0010 >
b00 ;
#2886
04
0&
06
0A
#2891
b10 !
14
b01 5
b00000111 (
1A
b0011 >
b01 ;
#2896
04
0A
#2901
b01 !
1?
14
18
b00 5
b00000000 (
17
1A
b0100 >
b10 ;
#2906
04
0A
#2911
b00 !
14
11
b01 5
12
1:
b00000001 (
1A
1,
b01 ;
b0101 >
#2916
04
0A
