Intervox_Reciever/test_run_dir/interVox_Reciever_should_pass/interVox_Reciever.vcd
$date
2022-11-21T16:47+0000
$end
$version
0.2
$end
$comment

$end
$timescale 1ns  $end
$scope module interVox_Reciever $end
 $var wire 1 % io_INTERVOX_IN $end
 $var wire 1 ' io_CLK_REC $end
 $var wire 1 ( io_DATA_OUT $end
 $var wire 1 ) pll $end
 $var wire 1 * io_DBUG $end
 $var wire 1 - io_NEXT_FRAME $end
 $var wire 1 2 clock $end
 $var wire 1 3 clockRec $end
 $var wire 1 6 io_DBUG1 $end
 $var wire 1 8 reset $end
  $scope module clockRec $end
   $var wire 2 ! inBufr $end
   $var wire 1 " io_DATA_OUT $end
   $var wire 8 # pllCntr $end
   $var wire 8 $ clkDelta $end
   $var wire 8 & clkCntr1 $end
   $var wire 1 + nextFrame $end
   $var wire 1 , reset $end
   $var wire 1 . outReg $end
   $var wire 1 1 io_CLK_OUT $end
   $var wire 2 4 clkCntr $end
   $var wire 1 5 io_DATA_IN $end
   $var wire 1 9 io_NEXT_FRAME $end
   $var wire 1 : change $end
   $var wire 1 ; clock $end
  $upscope $end
  $scope module pll $end
   $var wire 1 / locked $end
   $var wire 1 0 PLL_IN $end
   $var wire 1 7 PLL_MCLK $end
  $upscope $end
$upscope $end
$enddefinitions $end
$dumpvars
0%
0;
05
0-
b00 !
0'
0.
0/
b00000000 #
06
00
b00000000 $
0(
07
0"
01
0)
08
0*
09
0+
0:
b00000000 &
02
0,
03
b00 4
$end
#0
18
1,
#1
12
1;
#6
08
02
0,
0;
#11
b01 4
b00000001 &
b00000001 #
12
1;
#16
02
0;
#21
b00 4
b00000010 &
b00000010 #
12
1;
#26
02
0;
#31
b01 4
b00000011 &
b00000011 #
12
1;
#36
02
0;
#41
b00 4
b00000100 &
b00000100 #
12
1;
#46
02
0;
#51
b01 4
b00000101 &
b00000101 #
12
1;
#56
02
0;
#61
b00 4
b00000110 &
b00000110 #
12
1;
#66
02
0;
#71
b01 4
b00000111 &
b00000111 #
12
1;
#76
02
0;
#81
10
b00 4
11
1.
b00001000 &
b00000000 #
12
1*
1;
#86
02
0;
#91
b01 4
b00001001 &
b00000001 #
12
1;
#96
02
0;
#101
b00 4
b00001010 &
b00000010 #
12
1;
#106
02
0;
#111
b01 4
b00001011 &
b00000011 #
12
1;
#116
02
0;
#121
b00 4
b00001100 &
b00000100 #
12
1;
#126
02
0;
#131
b01 4
b00001101 &
b00000101 #
12
1;
#136
02
0;
#141
b00 4
b00001110 &
b00000110 #
12
1;
#146
02
0;
#151
b01 4
b00001111 &
b00000111 #
12
1;
#156
02
0;
#161
00
b00 4
01
0.
b00010000 &
b00000000 #
12
0*
1;
#166
02
0;
#171
b01 4
b00010001 &
b00000001 #
12
1;
#176
02
0;
#181
b00 4
b00010010 &
b00000010 #
12
1;
#186
02
0;
#191
b01 4
b00010011 &
b00000011 #
12
1;
#196
02
0;
#201
b00 4
b00010100 &
b00000100 #
12
1;
#206
02
0;
#211
b01 4
b00010101 &
b00000101 #
12
1;
#216
02
0;
#221
b00 4
b00010110 &
b00000110 #
12
1;
#226
02
0;
#231
b01 4
b00010111 &
b00000111 #
12
1;
#236
02
0;
#241
10
b00 4
11
1.
b00011000 &
b00000000 #
12
1*
1;
#246
02
0;
#251
b01 4
b00011001 &
b00000001 #
12
1;
#256
02
0;
#261
b00 4
b00011010 &
b00000010 #
12
1;
#266
02
0;
#271
b01 4
b00011011 &
b00000011 #
12
1;
#276
02
0;
#281
b00 4
b00011100 &
b00000100 #
12
1;
#286
02
0;
#291
b01 4
b00011101 &
b00000101 #
12
1;
#296
02
0;
#301
b00 4
b00011110 &
b00000110 #
12
1;
#306
02
0;
#311
b01 4
b00011111 &
b00000111 #
12
1;
#316
02
0;
#321
00
b00 4
01
0.
b00100000 &
b00000000 #
12
0*
1;
#326
02
0;
#331
b01 4
b00100001 &
b00000001 #
12
1;
#336
02
0;
#341
b00 4
b00100010 &
b00000010 #
12
1;
#346
02
0;
#351
b01 4
b00100011 &
b00000011 #
12
1;
#356
02
0;
#361
b00 4
b00100100 &
b00000100 #
12
1;
#366
02
0;
#371
b01 4
b00100101 &
b00000101 #
12
1;
#376
02
0;
#381
b00 4
b00100110 &
b00000110 #
12
1;
#386
02
0;
#391
b01 4
b00100111 &
b00000111 #
12
1;
#396
02
0;
#401
10
b00 4
11
1.
b00101000 &
b00000000 #
12
1*
1;
#406
02
0;
#411
b01 4
b00101001 &
b00000001 #
12
1;
#416
02
0;
#421
b00 4
b00101010 &
b00000010 #
12
1;
#426
02
0;
#431
b01 4
b00101011 &
b00000011 #
12
1;
#436
02
0;
#441
b00 4
b00101100 &
b00000100 #
12
1;
#446
02
0;
#451
b01 4
b00101101 &
b00000101 #
12
1;
#456
02
0;
#461
b00 4
b00101110 &
b00000110 #
12
1;
#466
02
0;
#471
b01 4
b00101111 &
b00000111 #
12
1;
#476
02
0;
#481
00
b00 4
01
0.
b00110000 &
b00000000 #
12
0*
1;
#486
1%
15
02
0;
#491
b01 !
b01 4
b00110001 &
b00000001 #
12
1;
#496
02
0;
#501
b10 !
1"
b00 4
b00000000 &
b00000010 #
12
b00110001 $
1:
1(
1;
#506
02
0;
#511
b11 !
b01 4
b00000001 &
b00000011 #
12
1;
#516
02
0;
#521
0"
b00 4
b00000010 &
b00000100 #
12
0:
0(
1;
#526
02
0;
#531
b01 4
b00000011 &
b00000101 #
12
1;
#536
02
0;
#541
b00 4
b00000100 &
b00000110 #
12
1;
#546
02
0;
#551
b01 4
b00000101 &
b00000111 #
12
1;
#556
02
0;
#561
10
b00 4
11
1.
b00000110 &
b00000000 #
12
1*
1;
#566
02
0;
#571
b01 4
b00000111 &
b00000001 #
12
1;
#576
02
0;
#581
b00 4
b00001000 &
b00000010 #
12
1;
#586
02
0;
#591
b01 4
b00001001 &
b00000011 #
12
1;
#596
02
0;
#601
b00 4
b00001010 &
b00000100 #
12
1;
#606
02
0;
#611
b01 4
b00001011 &
b00000101 #
12
1;
#616
02
0;
#621
b00 4
b00001100 &
b00000110 #
12
1;
#626
02
0;
#631
b01 4
b00001101 &
b00000111 #
12
1;
#636
02
0;
#641
00
b00 4
01
0.
b00001110 &
b00000000 #
12
0*
1;
#646
0%
05
02
0;
#651
b10 !
b01 4
b00001111 &
b00000001 #
12
1;
#656
02
0;
#661
b01 !
1"
b00 4
b00000000 &
b00000010 #
12
b00001111 $
1:
1(
1;
#666
02
0;
#671
b00 !
b01 4
b00000001 &
b00000011 #
12
1;
#676
02
0;
#681
0"
b00 4
b00000010 &
b00000100 #
12
0:
0(
1;
#686
02
0;
#691
b01 4
b00000011 &
b00000101 #
12
1;
#696
02
0;
#701
b00 4
b00000100 &
b00000110 #
12
1;
#706
02
0;
#711
b01 4
b00000101 &
b00000111 #
12
1;
#716
02
0;
#721
10
b00 4
11
1.
b00000110 &
b00000000 #
12
1*
1;
#726
1%
15
02
0;
#731
b01 !
b01 4
b00000111 &
b00000001 #
12
1;
#736
02
0;
#741
b10 !
1"
b00 4
b00000000 &
b00000010 #
12
b00000111 $
1:
1(
1;
#746
02
0;
#751
b11 !
1-
b01 4
b00000001 &
b00000011 #
12
19
1+
1;
#756
02
0;
#761
0"
b00 4
b00000010 &
b00000100 #
12
0:
0(
1;
#766
02
0;
#771
b01 4
b00000011 &
b00000101 #
12
1;
#776
02
0;
#781
b00 4
b00000100 &
b00000110 #
12
1;
#786
02
0;
#791
b01 4
b00000101 &
b00000111 #
12
1;
#796
02
0;
#801
00
b00 4
01
0.
b00000110 &
b00000000 #
12
0*
1;
#806
0%
05
02
0;
#811
b10 !
b01 4
b00000111 &
b00000001 #
12
1;
#816
02
0;
#821
b01 !
1"
b00 4
b00000000 &
b00000010 #
12
1:
1(
1;
#826
02
0;
#831
b00 !
b01 4
b00000001 &
b00000011 #
12
1;
#836
02
0;
#841
0"
b00 4
b00000010 &
b00000100 #
12
0:
0(
1;
#846
02
0;
#851
b01 4
b00000011 &
b00000101 #
12
1;
#856
02
0;
#861
b00 4
b00000100 &
b00000110 #
12
1;
#866
02
0;
#871
b01 4
b00000101 &
b00000111 #
12
1;
#876
02
0;
#881
10
b00 4
11
1.
b00000110 &
b00000000 #
12
1*
1;
#886
1%
15
02
0;
#891
b01 !
b01 4
b00000111 &
b00000001 #
12
1;
#896
02
0;
#901
b10 !
1"
b00 4
b00000000 &
b00000010 #
12
1:
1(
1;
#906
02
0;
#911
b11 !
b01 4
b00000001 &
b00000011 #
12
1;
#916
02
0;
#921
0"
b00 4
b00000010 &
b00000100 #
12
0:
0(
1;
#926
02
0;
#931
b01 4
b00000011 &
b00000101 #
12
1;
#936
02
0;
#941
b00 4
b00000100 &
b00000110 #
12
1;
#946
02
0;
#951
b01 4
b00000101 &
b00000111 #
12
1;
#956
02
0;
#961
00
b00 4
01
0.
b00000110 &
b00000000 #
12
0*
1;
#966
0%
05
02
0;
#971
b10 !
b01 4
b00000111 &
b00000001 #
12
1;
#976
02
0;
#981
b01 !
1"
b00 4
b00000000 &
b00000010 #
12
1:
1(
1;
#986
02
0;
#991
b00 !
b01 4
b00000001 &
b00000011 #
12
1;
#996
02
0;
#1001
0"
b00 4
b00000010 &
b00000100 #
12
0:
0(
1;
#1006
02
0;
#1011
b01 4
b00000011 &
b00000101 #
12
1;
#1016
02
0;
#1021
b00 4
b00000100 &
b00000110 #
12
1;
#1026
02
0;
#1031
b01 4
b00000101 &
b00000111 #
12
1;
#1036
02
0;
#1041
10
b00 4
11
1.
b00000110 &
b00000000 #
12
1*
1;
#1046
1%
15
02
0;
#1051
b01 !
b01 4
b00000111 &
b00000001 #
12
1;
#1056
02
0;
#1061
b10 !
1"
b00 4
b00000000 &
b00000010 #
12
1:
1(
1;
#1066
02
0;
#1071
b11 !
b01 4
b00000001 &
b00000011 #
12
1;
#1076
02
0;
#1081
0"
b00 4
b00000010 &
b00000100 #
12
0:
0(
1;
#1086
02
0;
#1091
b01 4
b00000011 &
b00000101 #
12
1;
#1096
02
0;
#1101
b00 4
b00000100 &
b00000110 #
12
1;
#1106
02
0;
#1111
b01 4
b00000101 &
b00000111 #
12
1;
#1116
02
0;
#1121
00
b00 4
01
0.
b00000110 &
b00000000 #
12
0*
1;
#1126
0%
05
02
0;
#1131
b10 !
b01 4
b00000111 &
b00000001 #
12
1;
#1136
02
0;
#1141
b01 !
1"
b00 4
b00000000 &
b00000010 #
12
1:
1(
1;
#1146
02
0;
#1151
b00 !
b01 4
b00000001 &
b00000011 #
12
1;
#1156
02
0;
#1161
0"
b00 4
b00000010 &
b00000100 #
12
0:
0(
1;
#1166
02
0;
#1171
b01 4
b00000011 &
b00000101 #
12
1;
#1176
02
0;
#1181
b00 4
b00000100 &
b00000110 #
12
1;
#1186
02
0;
#1191
b01 4
b00000101 &
b00000111 #
12
1;
#1196
02
0;
#1201
10
b00 4
11
1.
b00000110 &
b00000000 #
12
1*
1;
#1206
1%
15
02
0;
#1211
b01 !
b01 4
b00000111 &
b00000001 #
12
1;
#1216
02
0;
#1221
b10 !
1"
b00 4
b00000000 &
b00000010 #
12
1:
1(
1;
#1226
02
0;
#1231
b11 !
b01 4
b00000001 &
b00000011 #
12
1;
#1236
02
0;
#1241
0"
b00 4
b00000010 &
b00000100 #
12
0:
0(
1;
#1246
02
0;
#1251
b01 4
b00000011 &
b00000101 #
12
1;
#1256
02
0;
#1261
b00 4
b00000100 &
b00000110 #
12
1;
#1266
02
0;
#1271
b01 4
b00000101 &
b00000111 #
12
1;
#1276
02
0;
#1281
00
b00 4
01
0.
b00000110 &
b00000000 #
12
0*
1;
#1286
0%
05
02
0;
#1291
b10 !
b01 4
b00000111 &
b00000001 #
12
1;
#1296
02
0;
#1301
b01 !
1"
b00 4
b00000000 &
b00000010 #
12
1:
1(
1;
#1306
02
0;
#1311
b00 !
b01 4
b00000001 &
b00000011 #
12
1;
#1316
02
0;
#1321
0"
b00 4
b00000010 &
b00000100 #
12
0:
0(
1;
#1326
02
0;
#1331
b01 4
b00000011 &
b00000101 #
12
1;
#1336
02
0;
#1341
b00 4
b00000100 &
b00000110 #
12
1;
#1346
02
0;
#1351
b01 4
b00000101 &
b00000111 #
12
1;
#1356
02
0;
#1361
10
b00 4
11
1.
b00000110 &
b00000000 #
12
1*
1;
#1366
02
0;
#1371
b01 4
b00000111 &
b00000001 #
12
1;
#1376
02
0;
#1381
b00 4
b00001000 &
b00000010 #
12
1;
#1386
02
0;
#1391
b01 4
b00001001 &
b00000011 #
12
1;
#1396
02
0;
#1401
b00 4
b00001010 &
b00000100 #
12
1;
#1406
02
0;
#1411
b01 4
b00001011 &
b00000101 #
12
1;
#1416
02
0;
#1421
b00 4
b00001100 &
b00000110 #
12
1;
#1426
02
0;
#1431
b01 4
b00001101 &
b00000111 #
12
1;
#1436
02
0;
#1441
00
b00 4
01
0.
b00001110 &
b00000000 #
12
0*
1;
#1446
1%
15
02
0;
#1451
b01 !
b01 4
b00001111 &
b00000001 #
12
1;
#1456
02
0;
#1461
b10 !
1"
b00 4
b00000000 &
b00000010 #
12
b00001111 $
1:
1(
1;
#1466
02
0;
#1471
b11 !
0-
b01 4
b00000001 &
b00000011 #
12
09
0+
1;
#1476
02
0;
#1481
0"
b00 4
b00000010 &
b00000100 #
12
0:
0(
1;
#1486
02
0;
#1491
b01 4
b00000011 &
b00000101 #
12
1;
#1496
02
0;
#1501
b00 4
b00000100 &
b00000110 #
12
1;
#1506
02
0;
#1511
b01 4
b00000101 &
b00000111 #
12
1;
#1516
02
0;
#1521
10
b00 4
11
1.
b00000110 &
b00000000 #
12
1*
1;
#1526
02
0;
#1531
b01 4
b00000111 &
b00000001 #
12
1;
#1536
02
0;
#1541
b00 4
b00001000 &
b00000010 #
12
1;
#1546
02
0;
#1551
b01 4
b00001001 &
b00000011 #
12
1;
#1556
02
0;
#1561
b00 4
b00001010 &
b00000100 #
12
1;
#1566
02
0;
#1571
b01 4
b00001011 &
b00000101 #
12
1;
#1576
02
0;
#1581
b00 4
b00001100 &
b00000110 #
12
1;
#1586
02
0;
#1591
b01 4
b00001101 &
b00000111 #
12
1;
#1596
02
0;
#1601
00
b00 4
01
0.
b00001110 &
b00000000 #
12
0*
1;
#1606
0%
05
02
0;
#1611
b10 !
b01 4
b00001111 &
b00000001 #
12
1;
#1616
02
0;
#1621
b01 !
1"
b00 4
b00000000 &
b00000010 #
12
1:
1(
1;
#1626
02
0;
#1631
b00 !
b01 4
b00000001 &
b00000011 #
12
1;
#1636
02
0;
#1641
0"
b00 4
b00000010 &
b00000100 #
12
0:
0(
1;
#1646
02
0;
#1651
b01 4
b00000011 &
b00000101 #
12
1;
#1656
02
0;
#1661
b00 4
b00000100 &
b00000110 #
12
1;
#1666
02
0;
#1671
b01 4
b00000101 &
b00000111 #
12
1;
#1676
02
0;
#1681
10
b00 4
11
1.
b00000110 &
b00000000 #
12
1*
1;
#1686
02
0;
#1691
b01 4
b00000111 &
b00000001 #
12
1;
#1696
02
0;
#1701
b00 4
b00001000 &
b00000010 #
12
1;
#1706
02
0;
#1711
b01 4
b00001001 &
b00000011 #
12
1;
#1716
02
0;
#1721
b00 4
b00001010 &
b00000100 #
12
1;
#1726
02
0;
#1731
b01 4
b00001011 &
b00000101 #
12
1;
#1736
02
0;
#1741
b00 4
b00001100 &
b00000110 #
12
1;
#1746
02
0;
#1751
b01 4
b00001101 &
b00000111 #
12
1;
#1756
02
0;
#1761
00
b00 4
01
0.
b00001110 &
b00000000 #
12
0*
1;
#1766
1%
15
02
0;
#1771
b01 !
b01 4
b00001111 &
b00000001 #
12
1;
#1776
02
0;
#1781
b10 !
1"
b00 4
b00000000 &
b00000010 #
12
1:
1(
1;
#1786
02
0;
#1791
b11 !
b01 4
b00000001 &
b00000011 #
12
1;
#1796
02
0;
#1801
0"
b00 4
b00000010 &
b00000100 #
12
0:
0(
1;
#1806
02
0;
#1811
b01 4
b00000011 &
b00000101 #
12
1;
#1816
02
0;
#1821
b00 4
b00000100 &
b00000110 #
12
1;
#1826
02
0;
#1831
b01 4
b00000101 &
b00000111 #
12
1;
#1836
02
0;
#1841
10
b00 4
11
1.
b00000110 &
b00000000 #
12
1*
1;
#1846
02
0;
#1851
b01 4
b00000111 &
b00000001 #
12
1;
#1856
02
0;
#1861
b00 4
b00001000 &
b00000010 #
12
1;
#1866
02
0;
#1871
b01 4
b00001001 &
b00000011 #
12
1;
#1876
02
0;
#1881
b00 4
b00001010 &
b00000100 #
12
1;
#1886
02
0;
#1891
b01 4
b00001011 &
b00000101 #
12
1;
#1896
02
0;
#1901
b00 4
b00001100 &
b00000110 #
12
1;
#1906
02
0;
#1911
b01 4
b00001101 &
b00000111 #
12
1;
#1916
02
0;
#1921
00
b00 4
01
0.
b00001110 &
b00000000 #
12
0*
1;
#1926
0%
05
02
0;
#1931
b10 !
b01 4
b00001111 &
b00000001 #
12
1;
#1936
02
0;
#1941
b01 !
1"
b00 4
b00000000 &
b00000010 #
12
1:
1(
1;
#1946
02
0;
#1951
b00 !
b01 4
b00000001 &
b00000011 #
12
1;
#1956
02
0;
#1961
0"
b00 4
b00000010 &
b00000100 #
12
0:
0(
1;
#1966
02
0;
#1971
b01 4
b00000011 &
b00000101 #
12
1;
#1976
02
0;
#1981
b00 4
b00000100 &
b00000110 #
12
1;
#1986
02
0;
#1991
b01 4
b00000101 &
b00000111 #
12
1;
#1996
02
0;
#2001
10
b00 4
11
1.
b00000110 &
b00000000 #
12
1*
1;
#2006
1%
15
02
0;
#2011
b01 !
b01 4
b00000111 &
b00000001 #
12
1;
#2016
02
0;
#2021
b10 !
1"
b00 4
b00000000 &
b00000010 #
12
b00000111 $
1:
1(
1;
#2026
02
0;
#2031
b11 !
1-
b01 4
b00000001 &
b00000011 #
12
19
1+
1;
#2036
02
0;
#2041
0"
b00 4
b00000010 &
b00000100 #
12
0:
0(
1;
#2046
02
0;
#2051
b01 4
b00000011 &
b00000101 #
12
1;
#2056
02
0;
#2061
b00 4
b00000100 &
b00000110 #
12
1;
#2066
02
0;
#2071
b01 4
b00000101 &
b00000111 #
12
1;
#2076
02
0;
#2081
00
b00 4
01
0.
b00000110 &
b00000000 #
12
0*
1;
#2086
0%
05
02
0;
#2091
b10 !
b01 4
b00000111 &
b00000001 #
12
1;
#2096
02
0;
#2101
b01 !
1"
b00 4
b00000000 &
b00000010 #
12
1:
1(
1;
#2106
02
0;
#2111
b00 !
b01 4
b00000001 &
b00000011 #
12
1;
#2116
02
0;
#2121
0"
b00 4
b00000010 &
b00000100 #
12
0:
0(
1;
#2126
02
0;
#2131
b01 4
b00000011 &
b00000101 #
12
1;
#2136
02
0;
#2141
b00 4
b00000100 &
b00000110 #
12
1;
#2146
02
0;
#2151
b01 4
b00000101 &
b00000111 #
12
1;
#2156
02
0;
#2161
10
b00 4
11
1.
b00000110 &
b00000000 #
12
1*
1;
#2166
1%
15
02
0;
#2171
b01 !
b01 4
b00000111 &
b00000001 #
12
1;
#2176
02
0;
#2181
b10 !
1"
b00 4
b00000000 &
b00000010 #
12
1:
1(
1;
#2186
02
0;
#2191
b11 !
b01 4
b00000001 &
b00000011 #
12
1;
#2196
02
0;
#2201
0"
b00 4
b00000010 &
b00000100 #
12
0:
0(
1;
#2206
02
0;
#2211
b01 4
b00000011 &
b00000101 #
12
1;
#2216
02
0;
#2221
b00 4
b00000100 &
b00000110 #
12
1;
#2226
02
0;
#2231
b01 4
b00000101 &
b00000111 #
12
1;
#2236
02
0;
#2241
00
b00 4
01
0.
b00000110 &
b00000000 #
12
0*
1;
#2246
0%
05
02
0;
#2251
b10 !
b01 4
b00000111 &
b00000001 #
12
1;
#2256
02
0;
#2261
b01 !
1"
b00 4
b00000000 &
b00000010 #
12
1:
1(
1;
#2266
02
0;
#2271
b00 !
b01 4
b00000001 &
b00000011 #
12
1;
#2276
02
0;
#2281
0"
b00 4
b00000010 &
b00000100 #
12
0:
0(
1;
#2286
02
0;
#2291
b01 4
b00000011 &
b00000101 #
12
1;
#2296
02
0;
#2301
b00 4
b00000100 &
b00000110 #
12
1;
#2306
02
0;
#2311
b01 4
b00000101 &
b00000111 #
12
1;
#2316
02
0;
#2321
10
b00 4
11
1.
b00000110 &
b00000000 #
12
1*
1;
#2326
1%
15
02
0;
#2331
b01 !
b01 4
b00000111 &
b00000001 #
12
1;
#2336
02
0;
#2341
b10 !
1"
b00 4
b00000000 &
b00000010 #
12
1:
1(
1;
#2346
02
0;
#2351
b11 !
b01 4
b00000001 &
b00000011 #
12
1;
#2356
02
0;
#2361
0"
b00 4
b00000010 &
b00000100 #
12
0:
0(
1;
#2366
02
0;
#2371
b01 4
b00000011 &
b00000101 #
12
1;
#2376
02
0;
#2381
b00 4
b00000100 &
b00000110 #
12
1;
#2386
02
0;
#2391
b01 4
b00000101 &
b00000111 #
12
1;
#2396
02
0;
#2401
00
b00 4
01
0.
b00000110 &
b00000000 #
12
0*
1;
#2406
0%
05
02
0;
#2411
b10 !
b01 4
b00000111 &
b00000001 #
12
1;
#2416
02
0;
#2421
b01 !
1"
b00 4
b00000000 &
b00000010 #
12
1:
1(
1;
#2426
02
0;
#2431
b00 !
b01 4
b00000001 &
b00000011 #
12
1;
#2436
02
0;
#2441
0"
b00 4
b00000010 &
b00000100 #
12
0:
0(
1;
#2446
02
0;
#2451
b01 4
b00000011 &
b00000101 #
12
1;
#2456
02
0;
#2461
b00 4
b00000100 &
b00000110 #
12
1;
#2466
02
0;
#2471
b01 4
b00000101 &
b00000111 #
12
1;
#2476
02
0;
#2481
10
b00 4
11
1.
b00000110 &
b00000000 #
12
1*
1;
#2486
1%
15
02
0;
#2491
b01 !
b01 4
b00000111 &
b00000001 #
12
1;
#2496
02
0;
#2501
b10 !
1"
b00 4
b00000000 &
b00000010 #
12
1:
1(
1;
#2506
02
0;
#2511
b11 !
b01 4
b00000001 &
b00000011 #
12
1;
#2516
02
0;
#2521
0"
b00 4
b00000010 &
b00000100 #
12
0:
0(
1;
#2526
02
0;
#2531
b01 4
b00000011 &
b00000101 #
12
1;
#2536
02
0;
#2541
b00 4
b00000100 &
b00000110 #
12
1;
#2546
02
0;
#2551
b01 4
b00000101 &
b00000111 #
12
1;
#2556
02
0;
#2561
00
b00 4
01
0.
b00000110 &
b00000000 #
12
0*
1;
#2566
0%
05
02
0;
#2571
b10 !
b01 4
b00000111 &
b00000001 #
12
1;
#2576
02
0;
#2581
b01 !
1"
b00 4
b00000000 &
b00000010 #
12
1:
1(
1;
#2586
02
0;
#2591
b00 !
b01 4
b00000001 &
b00000011 #
12
1;
#2596
02
0;
#2601
0"
b00 4
b00000010 &
b00000100 #
12
0:
0(
1;
#2606
02
0;
#2611
b01 4
b00000011 &
b00000101 #
12
1;
#2616
02
0;
#2621
b00 4
b00000100 &
b00000110 #
12
1;
#2626
02
0;
#2631
b01 4
b00000101 &
b00000111 #
12
1;
#2636
02
0;
#2641
10
b00 4
11
1.
b00000110 &
b00000000 #
12
1*
1;
#2646
1%
15
02
0;
#2651
b01 !
b01 4
b00000111 &
b00000001 #
12
1;
#2656
02
0;
#2661
b10 !
1"
b00 4
b00000000 &
b00000010 #
12
1:
1(
1;
#2666
02
0;
#2671
b11 !
b01 4
b00000001 &
b00000011 #
12
1;
#2676
02
0;
#2681
0"
b00 4
b00000010 &
b00000100 #
12
0:
0(
1;
#2686
02
0;
#2691
b01 4
b00000011 &
b00000101 #
12
1;
#2696
02
0;
#2701
b00 4
b00000100 &
b00000110 #
12
1;
#2706
02
0;
#2711
b01 4
b00000101 &
b00000111 #
12
1;
#2716
02
0;
#2721
00
b00 4
01
0.
b00000110 &
b00000000 #
12
0*
1;
#2726
0%
05
02
0;
#2731
b10 !
b01 4
b00000111 &
b00000001 #
12
1;
#2736
02
0;
#2741
b01 !
1"
b00 4
b00000000 &
b00000010 #
12
1:
1(
1;
#2746
02
0;
#2751
b00 !
b01 4
b00000001 &
b00000011 #
12
1;
#2756
02
0;
#2761
0"
b00 4
b00000010 &
b00000100 #
12
0:
0(
1;
#2766
02
0;
#2771
b01 4
b00000011 &
b00000101 #
12
1;
#2776
02
0;
#2781
b00 4
b00000100 &
b00000110 #
12
1;
#2786
02
0;
#2791
b01 4
b00000101 &
b00000111 #
12
1;
#2796
02
0;
#2801
10
b00 4
11
1.
b00000110 &
b00000000 #
12
1*
1;
#2806
1%
15
02
0;
#2811
b01 !
b01 4
b00000111 &
b00000001 #
12
1;
#2816
02
0;
#2821
b10 !
1"
b00 4
b00000000 &
b00000010 #
12
1:
1(
1;
#2826
02
0;
#2831
b11 !
b01 4
b00000001 &
b00000011 #
12
1;
#2836
02
0;
#2841
0"
b00 4
b00000010 &
b00000100 #
12
0:
0(
1;
#2846
02
0;
#2851
b01 4
b00000011 &
b00000101 #
12
1;
#2856
02
0;
#2861
b00 4
b00000100 &
b00000110 #
12
1;
#2866
02
0;
#2871
b01 4
b00000101 &
b00000111 #
12
1;
#2876
02
0;
#2881
00
b00 4
01
0.
b00000110 &
b00000000 #
12
0*
1;
#2886
0%
05
02
0;
#2891
b10 !
b01 4
b00000111 &
b00000001 #
12
1;
#2896
02
0;
#2901
b01 !
1"
b00 4
b00000000 &
b00000010 #
12
1:
1(
1;
#2906
02
0;
#2911
b00 !
b01 4
b00000001 &
b00000011 #
12
1;
#2916
02
0;
#2921
0"
b00 4
b00000010 &
b00000100 #
12
0:
0(
1;
#2926
02
0;
#2931
b01 4
b00000011 &
b00000101 #
12
1;
#2936
02
0;
#2941
b00 4
b00000100 &
b00000110 #
12
1;
#2946
02
0;
#2951
b01 4
b00000101 &
b00000111 #
12
1;
#2956
02
0;
#2961
10
b00 4
11
1.
b00000110 &
b00000000 #
12
1*
1;
#2966
1%
15
02
0;
#2971
b01 !
b01 4
b00000111 &
b00000001 #
12
1;
#2976
02
0;
#2981
b10 !
1"
b00 4
b00000000 &
b00000010 #
12
1:
1(
1;
#2986
02
0;
#2991
b11 !
b01 4
b00000001 &
b00000011 #
12
1;
#2996
02
0;
#3001
0"
b00 4
b00000010 &
b00000100 #
12
0:
0(
1;
#3006
02
0;
#3011
b01 4
b00000011 &
b00000101 #
12
1;
#3016
02
0;
#3021
b00 4
b00000100 &
b00000110 #
12
1;
#3026
02
0;
#3031
b01 4
b00000101 &
b00000111 #
12
1;
#3036
02
0;
#3041
00
b00 4
01
0.
b00000110 &
b00000000 #
12
0*
1;
#3046
0%
05
02
0;
#3051
b10 !
b01 4
b00000111 &
b00000001 #
12
1;
#3056
02
0;
#3061
b01 !
1"
b00 4
b00000000 &
b00000010 #
12
1:
1(
1;
#3066
02
0;
#3071
b00 !
b01 4
b00000001 &
b00000011 #
12
1;
#3076
02
0;
#3081
0"
b00 4
b00000010 &
b00000100 #
12
0:
0(
1;
#3086
02
0;
#3091
b01 4
b00000011 &
b00000101 #
12
1;
#3096
02
0;
#3101
b00 4
b00000100 &
b00000110 #
12
1;
#3106
02
0;
#3111
b01 4
b00000101 &
b00000111 #
12
1;
#3116
02
0;
#3121
10
b00 4
11
1.
b00000110 &
b00000000 #
12
1*
1;
#3126
1%
15
02
0;
#3131
b01 !
b01 4
b00000111 &
b00000001 #
12
1;
#3136
02
0;
#3141
b10 !
1"
b00 4
b00000000 &
b00000010 #
12
1:
1(
1;
#3146
02
0;
#3151
b11 !
b01 4
b00000001 &
b00000011 #
12
1;
#3156
02
0;
#3161
0"
b00 4
b00000010 &
b00000100 #
12
0:
0(
1;
#3166
02
0;
#3171
b01 4
b00000011 &
b00000101 #
12
1;
#3176
02
0;
#3181
b00 4
b00000100 &
b00000110 #
12
1;
#3186
02
0;
#3191
b01 4
b00000101 &
b00000111 #
12
1;
#3196
02
0;
#3201
00
b00 4
01
0.
b00000110 &
b00000000 #
12
0*
1;
#3206
0%
05
02
0;
#3211
b10 !
b01 4
b00000111 &
b00000001 #
12
1;
#3216
02
0;
#3221
b01 !
1"
b00 4
b00000000 &
b00000010 #
12
1:
1(
1;
#3226
02
0;
#3231
b00 !
b01 4
b00000001 &
b00000011 #
12
1;
#3236
02
0;
#3241
0"
b00 4
b00000010 &
b00000100 #
12
0:
0(
1;
#3246
02
0;
#3251
b01 4
b00000011 &
b00000101 #
12
1;
#3256
02
0;
#3261
b00 4
b00000100 &
b00000110 #
12
1;
#3266
02
0;
#3271
b01 4
b00000101 &
b00000111 #
12
1;
#3276
02
0;
#3281
10
b00 4
11
1.
b00000110 &
b00000000 #
12
1*
1;
#3286
1%
15
02
0;
#3291
b01 !
b01 4
b00000111 &
b00000001 #
12
1;
#3296
02
0;
#3301
b10 !
1"
b00 4
b00000000 &
b00000010 #
12
1:
1(
1;
#3306
02
0;
#3311
b11 !
b01 4
b00000001 &
b00000011 #
12
1;
#3316
02
0;
#3321
0"
b00 4
b00000010 &
b00000100 #
12
0:
0(
1;
#3326
02
0;
#3331
b01 4
b00000011 &
b00000101 #
12
1;
#3336
02
0;
#3341
b00 4
b00000100 &
b00000110 #
12
1;
#3346
02
0;
#3351
b01 4
b00000101 &
b00000111 #
12
1;
#3356
02
0;
#3361
00
b00 4
01
0.
b00000110 &
b00000000 #
12
0*
1;
#3366
0%
05
02
0;
#3371
b10 !
b01 4
b00000111 &
b00000001 #
12
1;
#3376
02
0;
#3381
b01 !
1"
b00 4
b00000000 &
b00000010 #
12
1:
1(
1;
#3386
02
0;
#3391
b00 !
b01 4
b00000001 &
b00000011 #
12
1;
#3396
02
0;
#3401
0"
b00 4
b00000010 &
b00000100 #
12
0:
0(
1;
#3406
02
0;
#3411
b01 4
b00000011 &
b00000101 #
12
1;
#3416
02
0;
#3421
b00 4
b00000100 &
b00000110 #
12
1;
#3426
02
0;
#3431
b01 4
b00000101 &
b00000111 #
12
1;
#3436
02
0;
