Intervox_Reciever/test_run_dir/interVox_Reciever_should_pass/interVox_Reciever.vcd
$date
2023-01-14T01:16+0000
$end
$version
0.2
$end
$comment

$end
$timescale 1ns  $end
$scope module interVox_Reciever $end
 $var wire 1 & io_INTERVOX_IN $end
 $var wire 1 ) io_DATA_OUT $end
 $var wire 1 * io_CLK_REC $end
 $var wire 1 , pll $end
 $var wire 1 - io_DBUG $end
 $var wire 16 2 io_LEDS $end
 $var wire 1 4 clockRec $end
 $var wire 1 5 clock $end
 $var wire 1 8 io_DBUG1 $end
 $var wire 1 < reset $end
 $var wire 1 B io_CLK_DBUG $end
  $scope module clockRec $end
   $var wire 2 ! inBufr $end
   $var wire 1 " dataOut $end
   $var wire 1 # io_DATA_OUT $end
   $var wire 1 $ zeroFlipped $end
   $var wire 8 ' lastOne $end
   $var wire 1 ( syncFlipped1 $end
   $var wire 8 + deltaCntr $end
   $var wire 1 . io_DBUG $end
   $var wire 1 / reset $end
   $var wire 1 1 io_CLK_OUT $end
   $var wire 16 6 io_LEDS $end
   $var wire 1 7 io_DATA_IN $end
   $var wire 1 9 io_DBUG1 $end
   $var wire 1 : change_REG $end
   $var wire 1 ; clkRec $end
   $var wire 1 = syncFlipped $end
   $var wire 1 > change_REG_1 $end
   $var wire 1 ? change $end
   $var wire 1 @ syncWord $end
   $var wire 1 A clock $end
  $upscope $end
  $scope module pll $end
   $var wire 1 % CLK_OUT $end
   $var wire 1 0 locked $end
   $var wire 1 3 CLK_IN $end
  $upscope $end
$upscope $end
$enddefinitions $end
$dumpvars
0%
0;
0&
0<
0=
0>
07
b00000000 +
0"
08
0#
09
0:
03
b00000000 '
04
05
0-
b00 !
0.
0/
00
0(
b0000000000000000 6
01
0)
0?
0*
0@
0A
0,
0$
b0000000000000000 2
0B
$end
#0
1<
b0000000000001111 2
b0000000000001111 6
1/
#1
15
b00001111 '
1A
#6
0<
05
0/
0A
#11
15
b00000001 +
1A
#16
05
0A
#21
15
b00000010 +
1A
#26
05
0A
#31
15
b00000011 +
1A
#36
05
0A
#41
15
b00000100 +
1A
#46
05
0A
#51
15
b00000101 +
1A
#56
05
0A
#61
15
b00000110 +
1A
#66
05
0A
#71
15
b00000111 +
1A
#76
05
0A
#81
15
b00001000 +
1A
#86
05
0A
#91
15
b00001001 +
1A
#96
05
0A
#101
15
b00001010 +
1A
#106
05
0A
#111
15
b00001011 +
1A
#116
05
0A
#121
15
b00001100 +
1A
#126
05
0A
#131
15
b00001101 +
1A
#136
05
0A
#141
15
b00001110 +
1A
#146
05
0A
#151
15
b00001111 +
1A
#156
05
0A
#161
15
b00010000 +
1A
#166
05
0A
#171
15
b00010001 +
1A
#176
05
0A
#181
15
b00010010 +
1A
#186
05
0A
#191
13
1B
11
15
1$
b00010011 +
1A
1;
#196
05
0A
#201
15
b00010100 +
1A
#206
05
0A
#211
15
b00010101 +
1A
#216
05
0A
#221
15
b00010110 +
1A
#226
05
0A
#231
15
b00010111 +
1A
#236
05
0A
#241
15
b00011000 +
1A
#246
05
0A
#251
15
b00011001 +
1A
#256
05
0A
#261
15
b00011010 +
1A
#266
05
0A
#271
15
b00011011 +
1A
#276
05
0A
#281
15
b00011100 +
1A
#286
05
0A
#291
15
b00011101 +
1A
#296
05
0A
#301
15
b00011110 +
1A
#306
05
0A
#311
15
b00011111 +
1A
#316
05
0A
#321
15
b00100000 +
1A
#326
1&
05
17
0A
#331
b01 !
15
b00100001 +
1A
#336
05
0A
#341
03
0B
1?
1-
b10 !
01
1.
15
1=
b00100010 +
1A
0;
#346
05
0A
#351
13
1B
0?
0-
b11 !
11
0.
15
0$
0=
b00000000 +
1A
1;
#356
05
0A
#361
15
b00000001 +
1A
#366
05
0A
#371
15
b00000010 +
1A
#376
05
0A
#381
15
b00000011 +
1A
#386
05
0A
#391
15
b00000100 +
1A
#396
05
0A
#401
15
b00000101 +
1A
#406
05
0A
#411
15
b00000110 +
1A
#416
05
0A
#421
15
b00000111 +
1A
#426
05
0A
#431
15
b00001000 +
1A
#436
05
0A
#441
15
b00001001 +
1A
#446
05
0A
#451
15
b00001010 +
1A
#456
05
0A
#461
15
b00001011 +
1A
#466
05
0A
#471
15
b00001100 +
1A
#476
05
0A
#481
15
b00001101 +
1A
#486
0&
05
07
0A
#491
b10 !
15
b00001110 +
1A
#496
05
0A
#501
b01 !
1?
1-
1.
15
b00001111 +
1A
#506
05
0A
#511
03
0B
0-
0.
15
1)
b00 !
0?
1"
01
1#
b00000000 +
1A
0;
#516
05
0A
#521
15
b00000001 +
1A
#526
05
0A
#531
15
b00000010 +
1A
#536
05
0A
#541
15
b00000011 +
1A
#546
05
0A
#551
15
b00000100 +
1A
#556
05
0A
#561
15
b00000101 +
1A
#566
05
0A
#571
15
b00000110 +
1A
#576
05
0A
#581
15
b00000111 +
1A
#586
05
0A
#591
15
b00001000 +
1A
#596
05
0A
#601
15
b00001001 +
1A
#606
05
0A
#611
15
b00001010 +
1A
#616
05
0A
#621
15
b00001011 +
1A
#626
05
0A
#631
15
b00001100 +
1A
#636
05
0A
#641
15
b00001101 +
1A
#646
05
0A
#651
15
b00001110 +
1A
#656
05
0A
#661
15
b00001111 +
1A
#666
05
0A
#671
15
b00010000 +
1A
#676
05
0A
#681
15
b00010001 +
1A
#686
05
0A
#691
15
b00010010 +
1A
#696
05
0A
#701
13
1B
0"
11
15
0#
1$
b00010011 +
1A
0)
1;
#706
05
0A
#711
15
b00010100 +
1A
#716
05
0A
#721
15
b00010101 +
1A
#726
05
0A
#731
15
b00010110 +
1A
#736
05
0A
#741
15
b00010111 +
1A
#746
05
0A
#751
15
b00011000 +
1A
#756
05
0A
#761
15
b00011001 +
1A
#766
05
0A
#771
15
b00011010 +
1A
#776
05
0A
#781
15
b00011011 +
1A
#786
05
0A
#791
15
b00011100 +
1A
#796
05
0A
#801
15
b00011101 +
1A
#806
1&
05
17
0A
#811
b01 !
15
b00011110 +
1A
#816
05
0A
#821
b10 !
1?
1-
1.
15
b00011111 +
1A
#826
05
0A
#831
03
0B
0?
0-
b11 !
01
0.
15
0$
b00000000 +
1A
0;
#836
05
0A
#841
15
b00000001 +
1A
#846
05
0A
#851
15
b00000010 +
1A
#856
05
0A
#861
15
b00000011 +
1A
#866
05
0A
#871
15
b00000100 +
1A
#876
05
0A
#881
15
b00000101 +
1A
#886
05
0A
#891
15
b00000110 +
1A
#896
05
0A
#901
15
b00000111 +
1A
#906
05
0A
#911
15
b00001000 +
1A
#916
05
0A
#921
15
b00001001 +
1A
#926
05
0A
#931
15
b00001010 +
1A
#936
05
0A
#941
15
b00001011 +
1A
#946
05
0A
#951
15
b00001100 +
1A
#956
05
0A
#961
15
b00001101 +
1A
#966
05
0A
#971
15
b00001110 +
1A
#976
05
0A
#981
15
b00001111 +
1A
#986
05
0A
#991
15
b00010000 +
1A
#996
05
0A
#1001
15
b00010001 +
1A
#1006
05
0A
#1011
15
b00010010 +
1A
#1016
05
0A
#1021
13
1B
11
15
1$
b00010011 +
1A
1;
#1026
05
0A
#1031
15
b00010100 +
1A
#1036
05
0A
#1041
15
b00010101 +
1A
#1046
05
0A
#1051
15
b00010110 +
1A
#1056
05
0A
#1061
15
b00010111 +
1A
#1066
05
0A
#1071
15
b00011000 +
1A
#1076
05
0A
#1081
15
b00011001 +
1A
#1086
05
0A
#1091
15
b00011010 +
1A
#1096
05
0A
#1101
15
b00011011 +
1A
#1106
05
0A
#1111
15
b00011100 +
1A
#1116
05
0A
#1121
15
b00011101 +
1A
#1126
0&
05
07
0A
#1131
b10 !
15
b00011110 +
1A
#1136
05
0A
#1141
b01 !
1?
1-
1.
15
b00011111 +
1A
#1146
05
0A
#1151
03
0B
0?
0-
b00 !
01
0.
15
0$
b00000000 +
1A
0;
#1156
05
0A
#1161
15
b00000001 +
1A
#1166
05
0A
#1171
15
b00000010 +
1A
#1176
05
0A
#1181
15
b00000011 +
1A
#1186
05
0A
#1191
15
b00000100 +
1A
#1196
05
0A
#1201
15
b00000101 +
1A
#1206
05
0A
#1211
15
b00000110 +
1A
#1216
05
0A
#1221
15
b00000111 +
1A
#1226
05
0A
#1231
15
b00001000 +
1A
#1236
05
0A
#1241
15
b00001001 +
1A
#1246
05
0A
#1251
15
b00001010 +
1A
#1256
05
0A
#1261
15
b00001011 +
1A
#1266
05
0A
#1271
15
b00001100 +
1A
#1276
05
0A
#1281
15
b00001101 +
1A
#1286
05
0A
#1291
15
b00001110 +
1A
#1296
05
0A
#1301
15
b00001111 +
1A
#1306
05
0A
#1311
15
b00010000 +
1A
#1316
05
0A
#1321
15
b00010001 +
1A
#1326
05
0A
#1331
15
b00010010 +
1A
#1336
05
0A
#1341
13
1B
11
15
1$
b00010011 +
1A
1;
#1346
05
0A
#1351
15
b00010100 +
1A
#1356
05
0A
#1361
15
b00010101 +
1A
#1366
05
0A
#1371
15
b00010110 +
1A
#1376
05
0A
#1381
15
b00010111 +
1A
#1386
05
0A
#1391
15
b00011000 +
1A
#1396
05
0A
#1401
15
b00011001 +
1A
#1406
05
0A
#1411
15
b00011010 +
1A
#1416
05
0A
#1421
15
b00011011 +
1A
#1426
05
0A
#1431
15
b00011100 +
1A
#1436
05
0A
#1441
15
b00011101 +
1A
#1446
1&
05
17
0A
#1451
b01 !
15
b00011110 +
1A
#1456
05
0A
#1461
b10 !
1?
1-
1.
15
b00011111 +
1A
#1466
05
0A
#1471
03
0B
0?
0-
b11 !
01
0.
15
0$
b00000000 +
1A
0;
#1476
05
0A
#1481
15
b00000001 +
1A
#1486
05
0A
#1491
15
b00000010 +
1A
#1496
05
0A
#1501
15
b00000011 +
1A
#1506
05
0A
#1511
15
b00000100 +
1A
#1516
05
0A
#1521
15
b00000101 +
1A
#1526
05
0A
#1531
15
b00000110 +
1A
#1536
05
0A
#1541
15
b00000111 +
1A
#1546
05
0A
#1551
15
b00001000 +
1A
#1556
05
0A
#1561
15
b00001001 +
1A
#1566
05
0A
#1571
15
b00001010 +
1A
#1576
05
0A
#1581
15
b00001011 +
1A
#1586
05
0A
#1591
15
b00001100 +
1A
#1596
05
0A
#1601
15
b00001101 +
1A
#1606
05
0A
#1611
15
b00001110 +
1A
#1616
05
0A
#1621
15
b00001111 +
1A
#1626
05
0A
#1631
15
b00010000 +
1A
#1636
05
0A
#1641
15
b00010001 +
1A
#1646
05
0A
#1651
15
b00010010 +
1A
#1656
05
0A
#1661
13
1B
11
15
1$
b00010011 +
1A
1;
#1666
05
0A
#1671
15
b00010100 +
1A
#1676
05
0A
#1681
15
b00010101 +
1A
#1686
05
0A
#1691
15
b00010110 +
1A
#1696
05
0A
#1701
15
b00010111 +
1A
#1706
05
0A
#1711
15
b00011000 +
1A
#1716
05
0A
#1721
15
b00011001 +
1A
#1726
05
0A
#1731
15
b00011010 +
1A
#1736
05
0A
#1741
15
b00011011 +
1A
#1746
05
0A
#1751
15
b00011100 +
1A
#1756
05
0A
#1761
15
b00011101 +
1A
#1766
0&
05
07
0A
#1771
b10 !
15
b00011110 +
1A
#1776
05
0A
#1781
b01 !
1?
1-
1.
15
b00011111 +
1A
#1786
05
0A
#1791
03
0B
0?
0-
b00 !
01
0.
15
0$
b00000000 +
1A
0;
#1796
05
0A
#1801
15
b00000001 +
1A
#1806
05
0A
#1811
15
b00000010 +
1A
#1816
05
0A
#1821
15
b00000011 +
1A
#1826
05
0A
#1831
15
b00000100 +
1A
#1836
05
0A
#1841
15
b00000101 +
1A
#1846
05
0A
#1851
15
b00000110 +
1A
#1856
05
0A
#1861
15
b00000111 +
1A
#1866
05
0A
#1871
15
b00001000 +
1A
#1876
05
0A
#1881
15
b00001001 +
1A
#1886
05
0A
#1891
15
b00001010 +
1A
#1896
05
0A
#1901
15
b00001011 +
1A
#1906
05
0A
#1911
15
b00001100 +
1A
#1916
05
0A
#1921
15
b00001101 +
1A
#1926
05
0A
#1931
15
b00001110 +
1A
#1936
05
0A
#1941
15
b00001111 +
1A
#1946
05
0A
#1951
15
b00010000 +
1A
#1956
05
0A
#1961
15
b00010001 +
1A
#1966
05
0A
#1971
15
b00010010 +
1A
#1976
05
0A
#1981
13
1B
11
15
1$
b00010011 +
1A
1;
#1986
05
0A
#1991
15
b00010100 +
1A
#1996
05
0A
#2001
15
b00010101 +
1A
#2006
05
0A
#2011
15
b00010110 +
1A
#2016
05
0A
#2021
15
b00010111 +
1A
#2026
05
0A
#2031
15
b00011000 +
1A
#2036
05
0A
#2041
15
b00011001 +
1A
#2046
05
0A
#2051
15
b00011010 +
1A
#2056
05
0A
#2061
15
b00011011 +
1A
#2066
05
0A
#2071
15
b00011100 +
1A
#2076
05
0A
#2081
15
b00011101 +
1A
#2086
1&
05
17
0A
#2091
b01 !
15
b00011110 +
1A
#2096
05
0A
#2101
b10 !
1?
1-
1.
15
b00011111 +
1A
#2106
05
0A
#2111
03
0B
0?
0-
b11 !
01
0.
15
0$
b00000000 +
1A
0;
#2116
05
0A
#2121
15
b00000001 +
1A
#2126
05
0A
#2131
15
b00000010 +
1A
#2136
05
0A
#2141
15
b00000011 +
1A
#2146
05
0A
#2151
15
b00000100 +
1A
#2156
05
0A
#2161
15
b00000101 +
1A
#2166
05
0A
#2171
15
b00000110 +
1A
#2176
05
0A
#2181
15
b00000111 +
1A
#2186
05
0A
#2191
15
b00001000 +
1A
#2196
05
0A
#2201
15
b00001001 +
1A
#2206
05
0A
#2211
15
b00001010 +
1A
#2216
05
0A
#2221
15
b00001011 +
1A
#2226
05
0A
#2231
15
b00001100 +
1A
#2236
05
0A
#2241
15
b00001101 +
1A
#2246
05
0A
#2251
15
b00001110 +
1A
#2256
05
0A
#2261
15
b00001111 +
1A
#2266
05
0A
#2271
15
b00010000 +
1A
#2276
05
0A
#2281
15
b00010001 +
1A
#2286
05
0A
#2291
15
b00010010 +
1A
#2296
05
0A
#2301
13
1B
11
15
1$
b00010011 +
1A
1;
#2306
05
0A
#2311
15
b00010100 +
1A
#2316
05
0A
#2321
15
b00010101 +
1A
#2326
05
0A
#2331
15
b00010110 +
1A
#2336
05
0A
#2341
15
b00010111 +
1A
#2346
05
0A
#2351
15
b00011000 +
1A
#2356
05
0A
#2361
15
b00011001 +
1A
#2366
05
0A
#2371
15
b00011010 +
1A
#2376
05
0A
#2381
15
b00011011 +
1A
#2386
05
0A
#2391
15
b00011100 +
1A
#2396
05
0A
#2401
15
b00011101 +
1A
#2406
0&
05
07
0A
#2411
b10 !
15
b00011110 +
1A
#2416
05
0A
#2421
b01 !
1?
1-
1.
15
b00011111 +
1A
#2426
05
0A
#2431
03
0B
0?
0-
b00 !
01
0.
15
0$
b00000000 +
1A
0;
#2436
05
0A
#2441
15
b00000001 +
1A
#2446
05
0A
#2451
15
b00000010 +
1A
#2456
05
0A
#2461
15
b00000011 +
1A
#2466
05
0A
#2471
15
b00000100 +
1A
#2476
05
0A
#2481
15
b00000101 +
1A
#2486
05
0A
#2491
15
b00000110 +
1A
#2496
05
0A
#2501
15
b00000111 +
1A
#2506
05
0A
#2511
15
b00001000 +
1A
#2516
05
0A
#2521
15
b00001001 +
1A
#2526
05
0A
#2531
15
b00001010 +
1A
#2536
05
0A
#2541
15
b00001011 +
1A
#2546
05
0A
#2551
15
b00001100 +
1A
#2556
05
0A
#2561
15
b00001101 +
1A
#2566
05
0A
#2571
15
b00001110 +
1A
#2576
05
0A
#2581
15
b00001111 +
1A
#2586
05
0A
#2591
15
b00010000 +
1A
#2596
05
0A
#2601
15
b00010001 +
1A
#2606
05
0A
#2611
15
b00010010 +
1A
#2616
05
0A
#2621
13
1B
11
15
1$
b00010011 +
1A
1;
#2626
05
0A
#2631
15
b00010100 +
1A
#2636
05
0A
#2641
15
b00010101 +
1A
#2646
05
0A
#2651
15
b00010110 +
1A
#2656
05
0A
#2661
15
b00010111 +
1A
#2666
05
0A
#2671
15
b00011000 +
1A
#2676
05
0A
#2681
15
b00011001 +
1A
#2686
05
0A
#2691
15
b00011010 +
1A
#2696
05
0A
#2701
15
b00011011 +
1A
#2706
05
0A
#2711
15
b00011100 +
1A
#2716
05
0A
#2721
15
b00011101 +
1A
#2726
1&
05
17
0A
#2731
b01 !
15
b00011110 +
1A
#2736
05
0A
#2741
b10 !
1?
1-
1.
15
b00011111 +
1A
#2746
05
0A
#2751
03
0B
0?
0-
b11 !
01
0.
15
0$
b00000000 +
1A
0;
#2756
05
0A
#2761
15
b00000001 +
1A
#2766
05
0A
#2771
15
b00000010 +
1A
#2776
05
0A
#2781
15
b00000011 +
1A
#2786
05
0A
#2791
15
b00000100 +
1A
#2796
05
0A
#2801
15
b00000101 +
1A
#2806
05
0A
#2811
15
b00000110 +
1A
#2816
05
0A
#2821
15
b00000111 +
1A
#2826
05
0A
#2831
15
b00001000 +
1A
#2836
05
0A
#2841
15
b00001001 +
1A
#2846
05
0A
#2851
15
b00001010 +
1A
#2856
05
0A
#2861
15
b00001011 +
1A
#2866
05
0A
#2871
15
b00001100 +
1A
#2876
05
0A
#2881
15
b00001101 +
1A
#2886
05
0A
#2891
15
b00001110 +
1A
#2896
05
0A
#2901
15
b00001111 +
1A
#2906
05
0A
#2911
15
b00010000 +
1A
#2916
05
0A
#2921
15
b00010001 +
1A
#2926
05
0A
#2931
15
b00010010 +
1A
#2936
05
0A
#2941
13
1B
11
15
1$
b00010011 +
1A
1;
#2946
05
0A
#2951
15
b00010100 +
1A
#2956
05
0A
#2961
15
b00010101 +
1A
#2966
05
0A
#2971
15
b00010110 +
1A
#2976
05
0A
#2981
15
b00010111 +
1A
#2986
05
0A
#2991
15
b00011000 +
1A
#2996
05
0A
#3001
15
b00011001 +
1A
#3006
05
0A
#3011
15
b00011010 +
1A
#3016
05
0A
#3021
15
b00011011 +
1A
#3026
05
0A
#3031
15
b00011100 +
1A
#3036
05
0A
#3041
15
b00011101 +
1A
#3046
0&
05
07
0A
#3051
b10 !
15
b00011110 +
1A
#3056
05
0A
#3061
b01 !
1?
1-
1.
15
b00011111 +
1A
#3066
05
0A
#3071
03
0B
0?
0-
b00 !
01
0.
15
0$
b00000000 +
1A
0;
#3076
05
0A
#3081
15
b00000001 +
1A
#3086
05
0A
#3091
15
b00000010 +
1A
#3096
05
0A
#3101
15
b00000011 +
1A
#3106
05
0A
#3111
15
b00000100 +
1A
#3116
05
0A
#3121
15
b00000101 +
1A
#3126
05
0A
#3131
15
b00000110 +
1A
#3136
05
0A
#3141
15
b00000111 +
1A
#3146
05
0A
#3151
15
b00001000 +
1A
#3156
05
0A
#3161
15
b00001001 +
1A
#3166
05
0A
#3171
15
b00001010 +
1A
#3176
05
0A
#3181
15
b00001011 +
1A
#3186
05
0A
#3191
15
b00001100 +
1A
#3196
05
0A
#3201
15
b00001101 +
1A
#3206
1&
05
17
0A
#3211
b01 !
15
b00001110 +
1A
#3216
05
0A
#3221
b10 !
1?
1-
1.
15
b00001111 +
1A
#3226
05
0A
#3231
13
1B
0-
0.
15
1)
b11 !
0?
1"
11
1#
b00000000 +
1A
1;
#3236
05
0A
#3241
15
b00000001 +
1A
#3246
05
0A
#3251
15
b00000010 +
1A
#3256
05
0A
#3261
15
b00000011 +
1A
#3266
05
0A
#3271
15
b00000100 +
1A
#3276
05
0A
#3281
15
b00000101 +
1A
#3286
05
0A
#3291
15
b00000110 +
1A
#3296
05
0A
#3301
15
b00000111 +
1A
#3306
05
0A
#3311
15
b00001000 +
1A
#3316
05
0A
#3321
15
b00001001 +
1A
#3326
05
0A
#3331
15
b00001010 +
1A
#3336
05
0A
#3341
15
b00001011 +
1A
#3346
05
0A
#3351
15
b00001100 +
1A
#3356
05
0A
#3361
15
b00001101 +
1A
#3366
0&
05
07
0A
#3371
b10 !
15
b00001110 +
1A
#3376
05
0A
#3381
b01 !
1?
1-
1.
15
b00001111 +
1A
#3386
05
0A
#3391
03
0B
0?
0-
b00 !
01
0.
15
b00000000 +
1A
0;
#3396
05
0A
#3401
15
b00000001 +
1A
#3406
05
0A
#3411
15
b00000010 +
1A
#3416
05
0A
#3421
15
b00000011 +
1A
#3426
05
0A
#3431
15
b00000100 +
1A
#3436
05
0A
#3441
15
b00000101 +
1A
#3446
05
0A
#3451
15
b00000110 +
1A
#3456
05
0A
#3461
15
b00000111 +
1A
#3466
05
0A
#3471
15
b00001000 +
1A
#3476
05
0A
#3481
15
b00001001 +
1A
#3486
05
0A
#3491
15
b00001010 +
1A
#3496
05
0A
#3501
15
b00001011 +
1A
#3506
05
0A
#3511
15
b00001100 +
1A
#3516
05
0A
#3521
15
b00001101 +
1A
#3526
1&
05
17
0A
#3531
b01 !
15
b00001110 +
1A
#3536
05
0A
#3541
b10 !
1?
1-
1.
15
b00001111 +
1A
#3546
05
0A
#3551
13
1B
0?
0-
b11 !
11
0.
15
b00000000 +
1A
1;
#3556
05
0A
#3561
15
b00000001 +
1A
#3566
05
0A
#3571
15
b00000010 +
1A
#3576
05
0A
#3581
15
b00000011 +
1A
#3586
05
0A
#3591
15
b00000100 +
1A
#3596
05
0A
#3601
15
b00000101 +
1A
#3606
05
0A
#3611
15
b00000110 +
1A
#3616
05
0A
#3621
15
b00000111 +
1A
#3626
05
0A
#3631
15
b00001000 +
1A
#3636
05
0A
#3641
15
b00001001 +
1A
#3646
05
0A
#3651
15
b00001010 +
1A
#3656
05
0A
#3661
15
b00001011 +
1A
#3666
05
0A
#3671
15
b00001100 +
1A
#3676
05
0A
#3681
15
b00001101 +
1A
#3686
0&
05
07
0A
#3691
b10 !
15
b00001110 +
1A
#3696
05
0A
#3701
b01 !
1?
1-
1.
15
b00001111 +
1A
#3706
05
0A
#3711
03
0B
0?
0-
b00 !
01
0.
15
b00000000 +
1A
0;
#3716
05
0A
#3721
15
b00000001 +
1A
#3726
05
0A
#3731
15
b00000010 +
1A
#3736
05
0A
#3741
15
b00000011 +
1A
#3746
05
0A
#3751
15
b00000100 +
1A
#3756
05
0A
#3761
15
b00000101 +
1A
#3766
05
0A
#3771
15
b00000110 +
1A
#3776
05
0A
#3781
15
b00000111 +
1A
#3786
05
0A
#3791
15
b00001000 +
1A
#3796
05
0A
#3801
15
b00001001 +
1A
#3806
05
0A
#3811
15
b00001010 +
1A
#3816
05
0A
#3821
15
b00001011 +
1A
#3826
05
0A
#3831
15
b00001100 +
1A
#3836
05
0A
#3841
15
b00001101 +
1A
#3846
1&
05
17
0A
#3851
b01 !
15
b00001110 +
1A
#3856
05
0A
#3861
b10 !
1?
1-
1.
15
b00001111 +
1A
#3866
05
0A
#3871
13
1B
0?
0-
b11 !
11
0.
15
b00000000 +
1A
1;
#3876
05
0A
#3881
15
b00000001 +
1A
#3886
05
0A
#3891
15
b00000010 +
1A
#3896
05
0A
#3901
15
b00000011 +
1A
#3906
05
0A
#3911
15
b00000100 +
1A
#3916
05
0A
#3921
15
b00000101 +
1A
#3926
05
0A
#3931
15
b00000110 +
1A
#3936
05
0A
#3941
15
b00000111 +
1A
#3946
05
0A
#3951
15
b00001000 +
1A
#3956
05
0A
#3961
15
b00001001 +
1A
#3966
05
0A
#3971
15
b00001010 +
1A
#3976
05
0A
#3981
15
b00001011 +
1A
#3986
05
0A
#3991
15
b00001100 +
1A
#3996
05
0A
#4001
15
b00001101 +
1A
#4006
0&
05
07
0A
#4011
b10 !
15
b00001110 +
1A
#4016
05
0A
#4021
b01 !
1?
1-
1.
15
b00001111 +
1A
#4026
05
0A
#4031
03
0B
0?
0-
b00 !
01
0.
15
b00000000 +
1A
0;
#4036
05
0A
#4041
15
b00000001 +
1A
#4046
05
0A
#4051
15
b00000010 +
1A
#4056
05
0A
#4061
15
b00000011 +
1A
#4066
05
0A
#4071
15
b00000100 +
1A
#4076
05
0A
#4081
15
b00000101 +
1A
#4086
05
0A
#4091
15
b00000110 +
1A
#4096
05
0A
#4101
15
b00000111 +
1A
#4106
05
0A
#4111
15
b00001000 +
1A
#4116
05
0A
#4121
15
b00001001 +
1A
#4126
05
0A
#4131
15
b00001010 +
1A
#4136
05
0A
#4141
15
b00001011 +
1A
#4146
05
0A
#4151
15
b00001100 +
1A
#4156
05
0A
#4161
15
b00001101 +
1A
#4166
1&
05
17
0A
#4171
b01 !
15
b00001110 +
1A
#4176
05
0A
#4181
b10 !
1?
1-
1.
15
b00001111 +
1A
#4186
05
0A
#4191
13
1B
0?
0-
b11 !
11
0.
15
b00000000 +
1A
1;
#4196
05
0A
#4201
15
b00000001 +
1A
#4206
05
0A
#4211
15
b00000010 +
1A
#4216
05
0A
#4221
15
b00000011 +
1A
#4226
05
0A
#4231
15
b00000100 +
1A
#4236
05
0A
#4241
15
b00000101 +
1A
#4246
05
0A
#4251
15
b00000110 +
1A
#4256
05
0A
#4261
15
b00000111 +
1A
#4266
05
0A
#4271
15
b00001000 +
1A
#4276
05
0A
#4281
15
b00001001 +
1A
#4286
05
0A
#4291
15
b00001010 +
1A
#4296
05
0A
#4301
15
b00001011 +
1A
#4306
05
0A
#4311
15
b00001100 +
1A
#4316
05
0A
#4321
15
b00001101 +
1A
#4326
0&
05
07
0A
#4331
b10 !
15
b00001110 +
1A
#4336
05
0A
#4341
b01 !
1?
1-
1.
15
b00001111 +
1A
#4346
05
0A
#4351
03
0B
0?
0-
b00 !
01
0.
15
b00000000 +
1A
0;
#4356
05
0A
#4361
15
b00000001 +
1A
#4366
05
0A
#4371
15
b00000010 +
1A
#4376
05
0A
#4381
15
b00000011 +
1A
#4386
05
0A
#4391
15
b00000100 +
1A
#4396
05
0A
#4401
15
b00000101 +
1A
#4406
05
0A
#4411
15
b00000110 +
1A
#4416
05
0A
#4421
15
b00000111 +
1A
#4426
05
0A
#4431
15
b00001000 +
1A
#4436
05
0A
#4441
15
b00001001 +
1A
#4446
05
0A
#4451
15
b00001010 +
1A
#4456
05
0A
#4461
15
b00001011 +
1A
#4466
05
0A
#4471
15
b00001100 +
1A
#4476
05
0A
#4481
15
b00001101 +
1A
#4486
1&
05
17
0A
#4491
b01 !
15
b00001110 +
1A
#4496
05
0A
#4501
b10 !
1?
1-
1.
15
b00001111 +
1A
#4506
05
0A
#4511
13
1B
0?
0-
b11 !
11
0.
15
b00000000 +
1A
1;
#4516
05
0A
#4521
15
b00000001 +
1A
#4526
05
0A
#4531
15
b00000010 +
1A
#4536
05
0A
#4541
15
b00000011 +
1A
#4546
05
0A
#4551
15
b00000100 +
1A
#4556
05
0A
#4561
15
b00000101 +
1A
#4566
05
0A
#4571
15
b00000110 +
1A
#4576
05
0A
#4581
15
b00000111 +
1A
#4586
05
0A
#4591
15
b00001000 +
1A
#4596
05
0A
#4601
15
b00001001 +
1A
#4606
05
0A
#4611
15
b00001010 +
1A
#4616
05
0A
#4621
15
b00001011 +
1A
#4626
05
0A
#4631
15
b00001100 +
1A
#4636
05
0A
#4641
15
b00001101 +
1A
#4646
0&
05
07
0A
#4651
b10 !
15
b00001110 +
1A
#4656
05
0A
#4661
b01 !
1?
1-
1.
15
b00001111 +
1A
#4666
05
0A
#4671
03
0B
0?
0-
b00 !
01
0.
15
b00000000 +
1A
0;
#4676
05
0A
#4681
15
b00000001 +
1A
#4686
05
0A
#4691
15
b00000010 +
1A
#4696
05
0A
#4701
15
b00000011 +
1A
#4706
05
0A
#4711
15
b00000100 +
1A
#4716
05
0A
#4721
15
b00000101 +
1A
#4726
05
0A
#4731
15
b00000110 +
1A
#4736
05
0A
#4741
15
b00000111 +
1A
#4746
05
0A
#4751
15
b00001000 +
1A
#4756
05
0A
#4761
15
b00001001 +
1A
#4766
05
0A
#4771
15
b00001010 +
1A
#4776
05
0A
#4781
15
b00001011 +
1A
#4786
05
0A
#4791
15
b00001100 +
1A
#4796
05
0A
#4801
15
b00001101 +
1A
#4806
1&
05
17
0A
#4811
b01 !
15
b00001110 +
1A
#4816
05
0A
#4821
b10 !
1?
1-
1.
15
b00001111 +
1A
#4826
05
0A
#4831
13
1B
0?
0-
b11 !
11
0.
15
b00000000 +
1A
1;
#4836
05
0A
#4841
15
b00000001 +
1A
#4846
05
0A
#4851
15
b00000010 +
1A
#4856
05
0A
#4861
15
b00000011 +
1A
#4866
05
0A
#4871
15
b00000100 +
1A
#4876
05
0A
#4881
15
b00000101 +
1A
#4886
05
0A
#4891
15
b00000110 +
1A
#4896
05
0A
#4901
15
b00000111 +
1A
#4906
05
0A
#4911
15
b00001000 +
1A
#4916
05
0A
#4921
15
b00001001 +
1A
#4926
05
0A
#4931
15
b00001010 +
1A
#4936
05
0A
#4941
15
b00001011 +
1A
#4946
05
0A
#4951
15
b00001100 +
1A
#4956
05
0A
#4961
15
b00001101 +
1A
#4966
0&
05
07
0A
#4971
b10 !
15
b00001110 +
1A
#4976
05
0A
#4981
b01 !
1?
1-
1.
15
b00001111 +
1A
#4986
05
0A
#4991
03
0B
0?
0-
b00 !
01
0.
15
b00000000 +
1A
0;
#4996
05
0A
#5001
15
b00000001 +
1A
#5006
05
0A
#5011
15
b00000010 +
1A
#5016
05
0A
#5021
15
b00000011 +
1A
#5026
05
0A
#5031
15
b00000100 +
1A
#5036
05
0A
#5041
15
b00000101 +
1A
#5046
05
0A
#5051
15
b00000110 +
1A
#5056
05
0A
#5061
15
b00000111 +
1A
#5066
05
0A
#5071
15
b00001000 +
1A
#5076
05
0A
#5081
15
b00001001 +
1A
#5086
05
0A
#5091
15
b00001010 +
1A
#5096
05
0A
#5101
15
b00001011 +
1A
#5106
05
0A
#5111
15
b00001100 +
1A
#5116
05
0A
#5121
15
b00001101 +
1A
#5126
1&
05
17
0A
#5131
b01 !
15
b00001110 +
1A
#5136
05
0A
#5141
b10 !
1?
1-
1.
15
b00001111 +
1A
#5146
05
0A
#5151
13
1B
0?
0-
b11 !
11
0.
15
b00000000 +
1A
1;
#5156
05
0A
#5161
15
b00000001 +
1A
#5166
05
0A
#5171
15
b00000010 +
1A
#5176
05
0A
